{
	"1": {
		"ID": 1,
		"PeriodStartTime": "6/20/2019 00:00:00.42",
		"BossList": [
			1,
			2,
			3,
			4,
			5,
			1,
			2,
			3,
			4,
			5
		],
		"SingleBossLastDays": 3
	},
	"2": {
		"ID": 2,
		"PeriodStartTime": "7/20/2019 00:00:00.42",
		"BossList": [
			1,
			2,
			3,
			4,
			5
		],
		"SingleBossLastDays": 6
	},
	"3": {
		"ID": 3,
		"PeriodStartTime": "8/19/2019 00:00:00.42",
		"BossList": [
			1,
			2,
			3,
			4,
			5
		],
		"SingleBossLastDays": 6
	}
}