{
	"1": {
		"ID": 1,
		"OldPath": "Spine/Char/Flakia_ABS/Flakia_prefab.prefab",
		"NewPath": "Spine/Char01/Flakia_ABS/Flakia_prefab.prefab",
		"Desc": "Feraquea's Portrait"
	},
	"2": {
		"ID": 2,
		"OldPath": "Spine/Char/Imelda_ABS/Imelda_Prefab.prefab",
		"NewPath": "Spine/Char01/Imelda_ABS/Imelda_Prefab.prefab",
		"Desc": "Imelda's Portrait"
	},
	"3": {
		"ID": 3,
		"OldPath": "UI/HeroPainting/SR_ABS/Prefab/Flakia.prefab",
		"NewPath": "UI/HeroPainting01/SR_ABS/Prefab/Flakia.prefab",
		"Desc": "Feraquea's Default Portrait"
	},
	"4": {
		"ID": 4,
		"OldPath": "UI/HeroPainting/SR_ABS/Prefab/Imelda.prefab",
		"NewPath": "UI/HeroPainting01/SR_ABS/Prefab/Imelda.prefab",
		"Desc": "Imelda's Default Portrait"
	},
	"5": {
		"ID": 5,
		"OldPath": "Spine/Char/Sonia_ABS/Sonia_Prefab.prefab",
		"NewPath": "Spine/Char01/Sonia_ABS/Sonia_Prefab.prefab",
		"Desc": "Sonya's Portrait"
	},
	"6": {
		"ID": 6,
		"OldPath": "UI/HeroPainting/SR_ABS/Prefab/Sonia.prefab",
		"NewPath": "UI/HeroPainting01/SR_ABS/Prefab/Sonia.prefab",
		"Desc": "Sonya's Default Portrait"
	}
}