{
	"1": {
		"ID": 1,
		"Name": "Free voucher Card Deck",
		"PoolType": "CardPoolType_FreeCardPool",
		"SelectType": "CardSelectType_BothSelect",
		"CrystalCost": 0,
		"TenSelectDiscount": 0,
		"TenSelectCount": 0,
		"TicketId": 4000,
		"CardPoolSelectMaxCount": 0,
		"SortID": 1,
		"Icon": "UI/Common_New_ABS/Icon/Item_CardTicket_Silver.png",
		"ClockResPath": "UI/SelectCard_ABS/Prefab/Clock.prefab",
		"AdsImage": "UI/TextImages/English_SelectCard_ABS/Banner/Banner_002.png",
		"SelectProbabilityInfoID": 1,
		"SelectContentInfoID": 1,
		"ToggleClickImage": "",
		"ToggleUnClickImage": "",
		"MissionCardPoolType": "MissionCardPoolType_Free",
		"CardPoolDetailDesc": ""
	},
	"2": {
		"ID": 2,
		"Name": "Trinity Crystal Card Deck-Hero",
		"PoolType": "CardPoolType_CrystalCardPool",
		"SelectType": "CardSelectType_BothSelect",
		"CrystalCost": 88,
		"TenSelectDiscount": 880,
		"TenSelectCount": 100,
		"TicketId": 4001,
		"CardPoolSelectMaxCount": 0,
		"SortID": 2,
		"Icon": "UI/Common_New_ABS/Icon/Item_CardTicket_Gold.png",
		"ClockResPath": "UI/SelectCard_ABS/Prefab/Clock.prefab",
		"AdsImage": "UI/TextImages/English_SelectCard_ABS/Banner/Banner_001.png",
		"SelectProbabilityInfoID": 2,
		"SelectContentInfoID": 2,
		"ToggleClickImage": "",
		"ToggleUnClickImage": "",
		"MissionCardPoolType": "MissionCardPoolType_Hero",
		"CardPoolDetailDesc": ""
	},
	"3": {
		"ID": 3,
		"Name": "Trinity Crystal Card Deck-Equipment",
		"PoolType": "CardPoolType_CrystalCardPool",
		"SelectType": "CardSelectType_BothSelect",
		"CrystalCost": 88,
		"TenSelectDiscount": 880,
		"TenSelectCount": 100,
		"TicketId": 4001,
		"CardPoolSelectMaxCount": 0,
		"SortID": 3,
		"Icon": "UI/Common_New_ABS/Icon/Item_CardTicket_Gold.png",
		"ClockResPath": "UI/SelectCard_ABS/Prefab/Clock.prefab",
		"AdsImage": "UI/TextImages/English_SelectCard_ABS/Banner/Banner_003.png",
		"SelectProbabilityInfoID": 3,
		"SelectContentInfoID": 3,
		"ToggleClickImage": "",
		"ToggleUnClickImage": "",
		"MissionCardPoolType": "MissionCardPoolType_Equipment",
		"CardPoolDetailDesc": ""
	},
	"4": {
		"ID": 4,
		"Name": "Departing Braves",
		"PoolType": "CardPoolType_ActivityCardPool",
		"SelectType": "CardSelectType_BothSelect",
		"CrystalCost": 88,
		"TenSelectDiscount": 880,
		"TenSelectCount": 100,
		"TicketId": 4001,
		"CardPoolSelectMaxCount": 0,
		"SortID": 4,
		"Icon": "UI/Common_New_ABS/Icon/Item_CardTicket_Gold.png",
		"ClockResPath": "UI/SelectCard_ABS/Prefab/Clock.prefab",
		"AdsImage": "UI/TextImages/English_SelectCard_ABS/Banner/Banner_006.png",
		"SelectProbabilityInfoID": 4,
		"SelectContentInfoID": 4,
		"ToggleClickImage": "UI/Icon/SelectCardHero_ABS/Cardpool_006.png",
		"ToggleUnClickImage": "UI/Icon/SelectCardHero_ABS/Cardpool_006.png",
		"MissionCardPoolType": "MissionCardPoolType_Hero",
		"CardPoolDetailDesc": "<color=#008B00>◆Departing Braves: Limited-time Summon◆</color>\n★<color=#DC143C>Event Summon</color>: When summoning SSR Heroes, the chances of that hero appearing will increase!\n★The base chance of obtaining an SSR hero will remain the same as that of a normal \"Hero Summon\".\n\n<color=#008B00>◆Limited Heroes◆</color>\n★Heroes with a higher chance of appearing in this event are:\n<color=#DC143C>SSR Elwin</color>, <color=#DC143C>SSR Cherie</color>\n\n<color=#008B00>◆[Summon 10 Times] Special Info◆</color>\n★<color=#DC143C>Limited-time Summon</color> - [Summon 10 Times]: Grants at least <color=#DC143C>1</color> SR Hero."
	},
	"5": {
		"ID": 5,
		"Name": "The Empire's Hope",
		"PoolType": "CardPoolType_ActivityCardPool",
		"SelectType": "CardSelectType_BothSelect",
		"CrystalCost": 88,
		"TenSelectDiscount": 880,
		"TenSelectCount": 100,
		"TicketId": 4001,
		"CardPoolSelectMaxCount": 0,
		"SortID": 5,
		"Icon": "UI/Common_New_ABS/Icon/Item_CardTicket_Gold.png",
		"ClockResPath": "UI/SelectCard_ABS/Prefab/Clock.prefab",
		"AdsImage": "UI/TextImages/English_SelectCard_ABS/Banner/Banner_007.png",
		"SelectProbabilityInfoID": 5,
		"SelectContentInfoID": 5,
		"ToggleClickImage": "UI/Icon/SelectCardHero_ABS/Cardpool_007.png",
		"ToggleUnClickImage": "UI/Icon/SelectCardHero_ABS/Cardpool_007.png",
		"MissionCardPoolType": "MissionCardPoolType_Hero",
		"CardPoolDetailDesc": "<color=#008B00>◆The Empire's Hope: Limited-time Summon◆</color>\n★<color=#DC143C>Event Summon</color>: When summoning an SSR Hero, the chances of that hero appearing will increase!\n★The base chance of obtaining an SSR hero will remain the same as that of a normal \"Hero Summon\".\n\n<color=#008B00>◆Limited Heroes◆</color>\n★Heroes with a higher chance of appearing in this event are:\n<color=#DC143C>SSR Leon</color>, <color=#DC143C>SSR Bernhardt</color>\n\n<color=#008B00>◆[Summon 10 Times] Special Info◆</color>\n★<color=#DC143C>Limited-time Summon</color> - [Summon 10 Times]: Grants at least <color=#DC143C>1</color> SR Hero."
	},
	"6": {
		"ID": 6,
		"Name": "Defenders of Light",
		"PoolType": "CardPoolType_ActivityCardPool",
		"SelectType": "CardSelectType_BothSelect",
		"CrystalCost": 88,
		"TenSelectDiscount": 880,
		"TenSelectCount": 100,
		"TicketId": 4001,
		"CardPoolSelectMaxCount": 0,
		"SortID": 4,
		"Icon": "UI/Common_New_ABS/Icon/Item_CardTicket_Gold.png",
		"ClockResPath": "UI/SelectCard_ABS/Prefab/Clock.prefab",
		"AdsImage": "UI/TextImages/English_SelectCard_ABS/Banner/Banner_008.png",
		"SelectProbabilityInfoID": 4,
		"SelectContentInfoID": 4,
		"ToggleClickImage": "UI/Icon/SelectCardHero_ABS/Cardpool_008.png",
		"ToggleUnClickImage": "UI/Icon/SelectCardHero_ABS/Cardpool_008.png",
		"MissionCardPoolType": "MissionCardPoolType_Hero",
		"CardPoolDetailDesc": "<color=#008B00>◆Defenders of Light: Limited-time Summon◆</color>\n★<color=#DC143C>Event Summon</color>: When summoning an SSR Hero, the chances of that hero appearing will increase!\n★The base chance of obtaining an SSR hero will remain the same as that of a normal \"Hero Summon\".\n\n<color=#008B00>◆Limited Heroes◆</color>\n★Heroes with a higher chance of appearing in this event are:\n<color=#DC143C>SSR Ledin</color>, <color=#DC143C>SSR Liana's</color>\n\n<color=#008B00>◆[Summon 10 Times] Special Info◆</color>\n★<color=#DC143C>Limited-time Summon</color> - [Summon 10 Times]: Grants at least <color=#DC143C>1</color> SR Hero."
	},
	"7": {
		"ID": 7,
		"Name": "Legendary Villains",
		"PoolType": "CardPoolType_ActivityCardPool",
		"SelectType": "CardSelectType_BothSelect",
		"CrystalCost": 88,
		"TenSelectDiscount": 880,
		"TenSelectCount": 100,
		"TicketId": 4001,
		"CardPoolSelectMaxCount": 0,
		"SortID": 5,
		"Icon": "UI/Common_New_ABS/Icon/Item_CardTicket_Gold.png",
		"ClockResPath": "UI/SelectCard_ABS/Prefab/Clock.prefab",
		"AdsImage": "UI/TextImages/English_SelectCard_ABS/Banner/Banner_009.png",
		"SelectProbabilityInfoID": 5,
		"SelectContentInfoID": 5,
		"ToggleClickImage": "UI/Icon/SelectCardHero_ABS/Cardpool_009.png",
		"ToggleUnClickImage": "UI/Icon/SelectCardHero_ABS/Cardpool_009.png",
		"MissionCardPoolType": "MissionCardPoolType_Hero",
		"CardPoolDetailDesc": "<color=#008B00>◆Legendary Villains: Limited-time Summon◆</color>\n★<color=#DC143C>Event Summon</color>: When summoning an SSR Hero, the chances of that hero appearing will increase!\n★The base chance of obtaining an SSR hero will remain the same as that of a normal \"Hero Summon\".\n\n<color=#008B00>◆Limited Heroes◆</color>\n★Heroes with a higher chance of appearing in this event are:\n<color=#DC143C>SSR Bozel</color>, <color=#DC143C>SSR Lana</color>\n\n<color=#008B00>◆[Summon 10 Times] Special Info◆</color>\n★<color=#DC143C>Limited-time Summon</color> - [Summon 10 Times]: Grants at least <color=#DC143C>1</color> SR Hero."
	},
	"8": {
		"ID": 8,
		"Name": "Legend of the Guardian Knight",
		"PoolType": "CardPoolType_ActivityCardPool",
		"SelectType": "CardSelectType_BothSelect",
		"CrystalCost": 88,
		"TenSelectDiscount": 880,
		"TenSelectCount": 100,
		"TicketId": 4001,
		"CardPoolSelectMaxCount": 0,
		"SortID": 4,
		"Icon": "UI/Common_New_ABS/Icon/Item_CardTicket_Gold.png",
		"ClockResPath": "UI/SelectCard_ABS/Prefab/Clock.prefab",
		"AdsImage": "UI/TextImages/English_SelectCard_ABS/Banner/Banner_010.png",
		"SelectProbabilityInfoID": 4,
		"SelectContentInfoID": 4,
		"ToggleClickImage": "UI/Icon/SelectCardHero_ABS/Cardpool_010.png",
		"ToggleUnClickImage": "UI/Icon/SelectCardHero_ABS/Cardpool_010.png",
		"MissionCardPoolType": "MissionCardPoolType_Hero",
		"CardPoolDetailDesc": "<color=#008B00>◆Legend of the Guardian Knight: Limited-time Summon◆</color>\n★<color=#DC143C>Event Summon</color>: When summoning an SSR Hero, the chances of that hero appearing will increase!\n★The base chance of obtaining an SSR hero will remain the same as that of a normal \"Hero Summon\".\n\n<color=#008B00>◆Limited Heroes◆</color>\n★Heroes with a higher chance of appearing in this event are:\n<color=#DC143C>SSR Dieharte</color>, <color=#DC143C>SSR Tiaris</color>\n\n<color=#008B00>◆[Summon 10 Times] Special Info◆</color>\n★<color=#DC143C>Limited-time Summon</color> - [Summon 10 Times]: Grants at least <color=#DC143C>1</color> SR Hero."
	},
	"9": {
		"ID": 9,
		"Name": "Sky Commander",
		"PoolType": "CardPoolType_ActivityCardPool",
		"SelectType": "CardSelectType_BothSelect",
		"CrystalCost": 88,
		"TenSelectDiscount": 880,
		"TenSelectCount": 100,
		"TicketId": 4001,
		"CardPoolSelectMaxCount": 0,
		"SortID": 5,
		"Icon": "UI/Common_New_ABS/Icon/Item_CardTicket_Gold.png",
		"ClockResPath": "UI/SelectCard_ABS/Prefab/Clock.prefab",
		"AdsImage": "UI/TextImages/English_SelectCard_ABS/Banner/Banner_011.png",
		"SelectProbabilityInfoID": 5,
		"SelectContentInfoID": 5,
		"ToggleClickImage": "UI/Icon/SelectCardHero_ABS/Cardpool_011.png",
		"ToggleUnClickImage": "UI/Icon/SelectCardHero_ABS/Cardpool_011.png",
		"MissionCardPoolType": "MissionCardPoolType_Hero",
		"CardPoolDetailDesc": "<color=#008B00>◆Sky Commander: Limited-time Summon◆</color>\n★<color=#DC143C>Event Summon</color>: When summoning an SSR Hero, the chances of that hero appearing will increase!\n★The base chance of obtaining an SSR hero will remain the same as that of a normal \"Hero Summon\".\n\n<color=#008B00>◆Limited Heroes◆</color>\n★Heroes with a higher chance of appearing in this event are:\n<color=#DC143C>SSR Altemuller</color>, <color=#DC143C>SSR Luna</color>\n\n<color=#008B00>◆[Summon 10 Times] Special Info◆</color>\n★<color=#DC143C>Limited-time Summon</color> - [Summon 10 Times]: Grants at least <color=#DC143C>1</color> SR Hero."
	},
	"10": {
		"ID": 10,
		"Name": "Twin Princesses of Caconsis",
		"PoolType": "CardPoolType_ActivityCardPool",
		"SelectType": "CardSelectType_BothSelect",
		"CrystalCost": 88,
		"TenSelectDiscount": 880,
		"TenSelectCount": 100,
		"TicketId": 4001,
		"CardPoolSelectMaxCount": 0,
		"SortID": 5,
		"Icon": "UI/Common_New_ABS/Icon/Item_CardTicket_Gold.png",
		"ClockResPath": "UI/SelectCard_ABS/Prefab/Clock.prefab",
		"AdsImage": "UI/TextImages/English_SelectCard1_ABS/Banner/Banner_012.png",
		"SelectProbabilityInfoID": 5,
		"SelectContentInfoID": 5,
		"ToggleClickImage": "UI/Icon/SelectCardHero_ABS/Icon_012.png",
		"ToggleUnClickImage": "UI/Icon/SelectCardHero_ABS/Icon_012.png",
		"MissionCardPoolType": "MissionCardPoolType_Hero",
		"CardPoolDetailDesc": "<color=#008B00>◆Twin Princesses of Caconsis - Limited Summoning Event◆</color>\n★When obtaining an SSR hero during the <color=#DC143C>summoning event</color>, the chance of obtaining one of the selected event heroes will be greatly increased! \n★The base chance of obtaining an SSR hero will remain the same as that of a normal \"Hero Summon\".\n\n<color=#008B00>◆Limited-Edition Heroes◆</color>\n★Heroes with an increased drop rate during this event are: \n<color=#DC143C>SSR Angelina</color> and <color=#DC143C>SSR Shelfaniel</color>. \n\n<color=#008B00>◆[10x Summon] Special Instructions◆</color>\n★<color=#DC143C>During the limited summoning period, </color>[10x Summons] will guarantee you at least <color=#DC143C>1</color> SR hero."
	},
	"11": {
		"ID": 11,
		"Name": "Legendary Convergence",
		"PoolType": "CardPoolType_ActivityCardPool",
		"SelectType": "CardSelectType_BothSelect",
		"CrystalCost": 88,
		"TenSelectDiscount": 880,
		"TenSelectCount": 100,
		"TicketId": 4001,
		"CardPoolSelectMaxCount": 0,
		"SortID": 5,
		"Icon": "UI/Common_New_ABS/Icon/Item_CardTicket_Gold.png",
		"ClockResPath": "UI/SelectCard_ABS/Prefab/Clock.prefab",
		"AdsImage": "UI/TextImages/English_SelectCard1_ABS/Banner/Banner_013.png",
		"SelectProbabilityInfoID": 5,
		"SelectContentInfoID": 5,
		"ToggleClickImage": "UI/Icon/SelectCardHero_ABS/Icon_013.png",
		"ToggleUnClickImage": "UI/Icon/SelectCardHero_ABS/Icon_013.png",
		"MissionCardPoolType": "MissionCardPoolType_Hero",
		"CardPoolDetailDesc": "<color=#008B00>◆Legendary Convergence - Limited-time Summon◆</color>\n★When obtaining an SSR hero during the <color=#DC143C>summoning event</color>, the chance of obtaining one of the selected event heroes will be greatly increased! \n★The base chance of obtaining an SSR hero will remain the same as that of a normal \"Hero Summon\".\n★<color=#DC143C>Special Bonus</color>: The first SSR hero you obtain during this event is guaranteed to be a special SSR hero from the event banner that you do not already own.  \n\n<color=#008B00>◆Limited-Edition Heroes◆</color>\n★Heroes with an increased drop rate during this event are: \n<color=#DC143C>SSR Ledin</color>, <color=#DC143C>SSR Leon</color>, and <color=#DC143C>SSR Elwin</color>. \n\n<color=#008B00>◆[10x Summon] Special Instructions◆</color>\n★<color=#DC143C>During the limited summoning period, </color>[10x Summons] will guarantee you at least <color=#DC143C>1</color> SR hero."
	},
	"12": {
		"ID": 12,
		"Name": "Princess Alliance Destiny Summon",
		"PoolType": "CardPoolType_ActivityCardPool",
		"SelectType": "CardSelectType_BothSelect",
		"CrystalCost": 88,
		"TenSelectDiscount": 880,
		"TenSelectCount": 100,
		"TicketId": 4001,
		"CardPoolSelectMaxCount": 0,
		"SortID": 5,
		"Icon": "UI/Common_New_ABS/Icon/Item_CardTicket_Gold.png",
		"ClockResPath": "UI/SelectCard_ABS/Prefab/Clock.prefab",
		"AdsImage": "UI/TextImages/English_SelectCard1_ABS/Banner/Banner_014.png",
		"SelectProbabilityInfoID": 5,
		"SelectContentInfoID": 5,
		"ToggleClickImage": "UI/Icon/SelectCardHero_ABS/Icon_014.png",
		"ToggleUnClickImage": "UI/Icon/SelectCardHero_ABS/Icon_014.png",
		"MissionCardPoolType": "MissionCardPoolType_Hero",
		"CardPoolDetailDesc": "<color=#008B00>◆Princess Alliance Destiny Summon - Limited-time Summon Event◆</color>\n★When obtaining an SSR hero during the <color=#DC143C>summoning event</color>, the chance of obtaining one of the selected event heroes will be greatly increased! \n★The base chance of obtaining an SSR hero will remain the same as that of a normal \"Hero Summon\".\n★<color=#DC143C>Special Bonus</color>: The first SSR hero you obtain during this event is guaranteed to be a special SSR hero from the event banner that you do not already own.  \n\n<color=#008B00>◆Limited-Edition Heroes◆</color>\n★Heroes with an increased drop rate during this event are: \n<color=#DC143C>SSR Luna</color>, <color=#DC143C>SSR Lana</color>, and <color=#DC143C>SSR Tiaris</color>. \n\n<color=#008B00>◆[10x Summon] Special Instructions◆</color>\n★<color=#DC143C>During the limited summoning period, </color>[10x Summons] will guarantee you at least <color=#DC143C>1</color> SR hero."
	},
	"13": {
		"ID": 13,
		"Name": "Twilight Lullaby",
		"PoolType": "CardPoolType_ActivityCardPool",
		"SelectType": "CardSelectType_BothSelect",
		"CrystalCost": 88,
		"TenSelectDiscount": 880,
		"TenSelectCount": 100,
		"TicketId": 4001,
		"CardPoolSelectMaxCount": 0,
		"SortID": 5,
		"Icon": "UI/Common_New_ABS/Icon/Item_CardTicket_Gold.png",
		"ClockResPath": "UI/SelectCard_ABS/Prefab/Clock.prefab",
		"AdsImage": "UI/TextImages/English_SelectCard1_ABS/Banner/Banner_015.png",
		"SelectProbabilityInfoID": 5,
		"SelectContentInfoID": 5,
		"ToggleClickImage": "UI/Icon/SelectCardHero_ABS/Icon_015.png",
		"ToggleUnClickImage": "UI/Icon/SelectCardHero_ABS/Icon_015.png",
		"MissionCardPoolType": "MissionCardPoolType_Hero",
		"CardPoolDetailDesc": "<color=#008B00>◆Twilight Lullaby - Limited-time Summon Event◆</color>\n★When obtaining an SSR hero during the <color=#DC143C>summoning event</color>, the chance of obtaining one of the selected event heroes will be greatly increased! \n★The base chance of obtaining an SSR hero will remain the same as that of a normal \"Hero Summon\".\n\n<color=#008B00>◆Limited Heroes◆</color>\n★Heroes with an increased drop rate during this event are: \n<color=#DC143C>SSR Jugler</color> and <color=#DC143C>SSR Zerida</color>. \n\n<color=#008B00>◆[10x Summon] Special Instructions◆</color>\n★ <color=#DC143C>During the limited summoning period, </color>[10x Summons] will guarantee you at least <color=#DC143C>1</color> SR hero."
	},
	"14": {
		"ID": 14,
		"Name": "Regal Uprising",
		"PoolType": "CardPoolType_ActivityCardPool",
		"SelectType": "CardSelectType_BothSelect",
		"CrystalCost": 88,
		"TenSelectDiscount": 880,
		"TenSelectCount": 100,
		"TicketId": 4001,
		"CardPoolSelectMaxCount": 0,
		"SortID": 5,
		"Icon": "UI/Common_New_ABS/Icon/Item_CardTicket_Gold.png",
		"ClockResPath": "UI/SelectCard_ABS/Prefab/Clock.prefab",
		"AdsImage": "UI/TextImages/English_SelectCard1_ABS/Banner/Banner_016.png",
		"SelectProbabilityInfoID": 5,
		"SelectContentInfoID": 5,
		"ToggleClickImage": "UI/Icon/SelectCardHero_ABS/Icon_016.png",
		"ToggleUnClickImage": "UI/Icon/SelectCardHero_ABS/Icon_016.png",
		"MissionCardPoolType": "MissionCardPoolType_Hero",
		"CardPoolDetailDesc": "<color=#008B00>◆Regal Uprising - Limited-time Summon Event◆</color>\n★When obtaining an SSR hero during the <color=#DC143C>summoning event</color>, the chance of obtaining one of the selected event heroes will be greatly increased! \n★The base chance of obtaining an SSR hero will remain the same as that of a normal \"Hero Summon\".\n★<color=#DC143C>Special Bonus</color>: The first SSR hero you obtain during this event is guaranteed to be a special SSR hero from the event banner that you do not already own. (If you have already collected all heroes from the event list, you will have a chance to acquire another SSR hero or Memory Shards of a hero from the banner's featured SSR heroes.) \n\n<color=#008B00>◆Limited Heroes◆</color>\n★Heroes with an increased drop rate during this event are:\nHeroes who have the ability to attack again: <color=#DC143C>SSR Cherie</color>, <color=#DC143C>SSR Liana</color>, and <color=#DC143C>SSR Angelina</color>. \n\n<color=#008B00>◆[10x Summon] Special Instructions◆</color>\n★ <color=#DC143C>During the limited summoning period, </color>[10x Summons] will guarantee you at least <color=#DC143C>1</color> SR hero."
	},
	"15": {
		"ID": 15,
		"Name": "Dark Reincarnation Destiny Summon",
		"PoolType": "CardPoolType_ActivityCardPool",
		"SelectType": "CardSelectType_BothSelect",
		"CrystalCost": 88,
		"TenSelectDiscount": 880,
		"TenSelectCount": 100,
		"TicketId": 4001,
		"CardPoolSelectMaxCount": 0,
		"SortID": 5,
		"Icon": "UI/Common_New_ABS/Icon/Item_CardTicket_Gold.png",
		"ClockResPath": "UI/SelectCard_ABS/Prefab/Clock.prefab",
		"AdsImage": "UI/TextImages/English_SelectCard1_ABS/Banner/Banner_017.png",
		"SelectProbabilityInfoID": 5,
		"SelectContentInfoID": 5,
		"ToggleClickImage": "UI/Icon/SelectCardHero_ABS/Icon_017.png",
		"ToggleUnClickImage": "UI/Icon/SelectCardHero_ABS/Icon_017.png",
		"MissionCardPoolType": "MissionCardPoolType_Hero",
		"CardPoolDetailDesc": "<color=#008B00>◆Dark Reincarnation - Limited-time Summon Event◆</color>\n★When obtaining an SSR hero during the <color=#DC143C>summoning event</color>, the chance of obtaining one of the selected event heroes will be greatly increased! \n★The base chance of obtaining an SSR hero will remain the same as that of a normal \"Hero Summon\".\n★<color=#DC143C>Special Bonus</color>: The first SSR hero you obtain during this event is guaranteed to be a special SSR hero from the event banner that you do not already own. (If you have already collected all heroes from the event list, you will have a chance to acquire another SSR hero or Memory Shards of a hero from the banner's featured SSR heroes.) \n\n<color=#008B00>◆Limited Heroes◆</color>\n★Heroes with an increased drop rate during this event are: \n<color=#DC143C>SSR Bernhardt</color>, <color=#DC143C>SSR Bozel</color>, and <color=#DC143C>SSR Altemuller</color>. \n\n<color=#008B00>◆[10x Summon] Special Instructions◆</color>\n★ <color=#DC143C>During the limited summoning period, </color>[10x Summons] will guarantee you at least <color=#DC143C>1</color> SR hero."
	},
	"16": {
		"ID": 16,
		"Name": "The Monsoon of Yeless",
		"PoolType": "CardPoolType_ActivityCardPool",
		"SelectType": "CardSelectType_BothSelect",
		"CrystalCost": 88,
		"TenSelectDiscount": 880,
		"TenSelectCount": 100,
		"TicketId": 4001,
		"CardPoolSelectMaxCount": 0,
		"SortID": 5,
		"Icon": "UI/Common_New_ABS/Icon/Item_CardTicket_Gold.png",
		"ClockResPath": "UI/SelectCard_ABS/Prefab/Clock.prefab",
		"AdsImage": "UI/TextImages/English_SelectCard1_ABS/Banner/Banner_018.png",
		"SelectProbabilityInfoID": 5,
		"SelectContentInfoID": 5,
		"ToggleClickImage": "UI/Icon/SelectCardHero_ABS/Icon_018.png",
		"ToggleUnClickImage": "UI/Icon/SelectCardHero_ABS/Icon_018.png",
		"MissionCardPoolType": "MissionCardPoolType_Hero",
		"CardPoolDetailDesc": "<color=#008B00>◆The Monsoon of Yeless - Limited-Time Summon◆</color>\n★When obtaining an SSR hero during the <color=#DC143C>summoning event</color>, the chance of obtaining one of the selected heroes greatly increases! \n★The base chance of obtaining an SSR hero will remain the same as that of a normal \"Hero Summon\".\n\n<color=#008B00>◆Limited-Edition Heroes◆</color>\n★Heroes with an increased drop rate during this event are: \n<color=#DC143C>SSR Lanford</color> and <color=#DC143C>SSR Listell</color>. \n\n<color=#008B00>◆[10x Summon] Special Instructions◆</color>\n★<color=#DC143C>During the limited summoning period</color>, [10x Summons] will guarantee you at least <color=#DC143C>1</color> SR hero."
	},
	"17": {
		"ID": 17,
		"Name": "Origins of Light Destiny Summon",
		"PoolType": "CardPoolType_ActivityCardPool",
		"SelectType": "CardSelectType_BothSelect",
		"CrystalCost": 88,
		"TenSelectDiscount": 880,
		"TenSelectCount": 100,
		"TicketId": 4001,
		"CardPoolSelectMaxCount": 0,
		"SortID": 5,
		"Icon": "UI/Common_New_ABS/Icon/Item_CardTicket_Gold.png",
		"ClockResPath": "UI/SelectCard_ABS/Prefab/Clock.prefab",
		"AdsImage": "UI/TextImages/English_SelectCard1_ABS/Banner/Banner_019.png",
		"SelectProbabilityInfoID": 5,
		"SelectContentInfoID": 5,
		"ToggleClickImage": "UI/Icon/SelectCardHero_ABS/Icon_019.png",
		"ToggleUnClickImage": "UI/Icon/SelectCardHero_ABS/Icon_019.png",
		"MissionCardPoolType": "MissionCardPoolType_Hero",
		"CardPoolDetailDesc": "<color=#008B00>◆Origins of Light Destiny Summon - Limited-Time Summon◆</color>\n★When obtaining an SSR hero during the <color=#DC143C>summoning event</color>, the chance to obtain one of the selected heroes greatly increases! \n★The base chance of obtaining an SSR hero will remain the same as that of a normal \"Hero Summon\".\n★<color=#DC143C>Destiny Summon</color>: The first SSR hero you obtain during this event is guaranteed to be a special SSR hero from the event banner that you do not already own. (If you already have all the heroes on the list, you can get another SSR hero or a duplicate of a selected SSR hero.) \n\n<color=#008B00>◆Limited-Edition Heroes◆</color>\n★Heroes with an increased drop rate during this event are: \n<color=#DC143C>SSR Dieharte</color>, <color=#DC143C>SSR Tiaris</color>, <color=#DC143C>SSR Luna</color>. \n\n<color=#008B00>◆[10x Summon] Special Instructions◆</color>\n★<color=#DC143C>During the limited summoning period</color>, [10x Summons] will guarantee you at least <color=#DC143C>1</color> SR hero."
	},
	"18": {
		"ID": 18,
		"Name": "Arcane Storm",
		"PoolType": "CardPoolType_ActivityCardPool",
		"SelectType": "CardSelectType_BothSelect",
		"CrystalCost": 88,
		"TenSelectDiscount": 880,
		"TenSelectCount": 100,
		"TicketId": 4001,
		"CardPoolSelectMaxCount": 0,
		"SortID": 5,
		"Icon": "UI/Common_New_ABS/Icon/Item_CardTicket_Gold.png",
		"ClockResPath": "UI/SelectCard_ABS/Prefab/Clock.prefab",
		"AdsImage": "UI/TextImages/English_SelectCard1_ABS/Banner/Banner_020.png",
		"SelectProbabilityInfoID": 5,
		"SelectContentInfoID": 5,
		"ToggleClickImage": "UI/Icon/SelectCardHero_ABS/Icon_020.png",
		"ToggleUnClickImage": "UI/Icon/SelectCardHero_ABS/Icon_020.png",
		"MissionCardPoolType": "MissionCardPoolType_Hero",
		"CardPoolDetailDesc": "<color=#008B00>◆Arcane Storm - Limited-Time Summon◆</color>\n★When obtaining an SSR hero during the <color=#DC143C>summoning event</color>, the chance to obtain one of the selected heroes greatly increases! \n★The base chance of obtaining an SSR hero will remain the same as that of a normal \"Hero Summon\".\n★<color=#DC143C>Destiny Summon</color>: The first SSR hero you obtain during this event is guaranteed to be a special SSR hero from the event banner that you do not already own. (If you already have all the heroes on the list, you can get another SSR hero or a duplicate of a selected SSR hero.) \n\n<color=#008B00>◆Limited-Edition Heroes◆</color>\n★Heroes with an increased drop rate during this event are: \n<color=#DC143C>SSR Shelfaniel</color>, <color=#DC143C>SSR Bozel</color>, and <color=#DC143C>SSR Lana</color>. \n\n<color=#008B00>◆[10x Summon] Special Instructions◆</color>\n★<color=#DC143C>During the limited summoning period</color>, [10x Summons] will guarantee you at least <color=#DC143C>1</color> SR hero."
	},
	"19": {
		"ID": 19,
		"Name": "Yeless Legends",
		"PoolType": "CardPoolType_ActivityCardPool",
		"SelectType": "CardSelectType_BothSelect",
		"CrystalCost": 88,
		"TenSelectDiscount": 880,
		"TenSelectCount": 100,
		"TicketId": 4001,
		"CardPoolSelectMaxCount": 0,
		"SortID": 5,
		"Icon": "UI/Common_New_ABS/Icon/Item_CardTicket_Gold.png",
		"ClockResPath": "UI/SelectCard_ABS/Prefab/Clock.prefab",
		"AdsImage": "UI/TextImages/English_SelectCard1_ABS/Banner/Banner_021.png",
		"SelectProbabilityInfoID": 5,
		"SelectContentInfoID": 5,
		"ToggleClickImage": "UI/Icon/SelectCardHero_ABS/Icon_021.png",
		"ToggleUnClickImage": "UI/Icon/SelectCardHero_ABS/Icon_021.png",
		"MissionCardPoolType": "MissionCardPoolType_Hero",
		"CardPoolDetailDesc": "<color=#008B00>◆Yeless Legends - Limited-time Summon◆</color>\n★When obtaining an SSR hero during the <color=#DC143C>summoning event</color>, the chance of obtaining one of the selected event heroes will significantly increase! \n★The base chance of obtaining an SSR hero will remain the same as that of a normal \"Hero Summon\".\n\n<color=#008B00>◆Limited-Edition Heroes◆</color>\n★Heroes with an increased drop rate during this event are: \n<color=#DC143C>SSR Landius</color> & <color=#DC143C>SSR Rachel</color>. \n\n<color=#008B00>◆Summon 10x Info◆</color>\n★Summon 10x under the <color=#DC143C>Limited-time Summon</color> banner for a guaranteed chance to get at least <color=#DC143C>1</color> SR Hero."
	},
	"20": {
		"ID": 20,
		"Name": "Fate Fighters",
		"PoolType": "CardPoolType_ActivityCardPool",
		"SelectType": "CardSelectType_BothSelect",
		"CrystalCost": 88,
		"TenSelectDiscount": 880,
		"TenSelectCount": 100,
		"TicketId": 4001,
		"CardPoolSelectMaxCount": 0,
		"SortID": 5,
		"Icon": "UI/Common_New_ABS/Icon/Item_CardTicket_Gold.png",
		"ClockResPath": "UI/SelectCard_ABS/Prefab/Clock.prefab",
		"AdsImage": "UI/TextImages/English_SelectCard1_ABS/Banner/Banner_022.png",
		"SelectProbabilityInfoID": 5,
		"SelectContentInfoID": 5,
		"ToggleClickImage": "UI/Icon/SelectCardHero_ABS/Icon_022.png",
		"ToggleUnClickImage": "UI/Icon/SelectCardHero_ABS/Icon_022.png",
		"MissionCardPoolType": "MissionCardPoolType_Hero",
		"CardPoolDetailDesc": "<color=#008B00>◆Fate Fighters - Limited-time Summon◆</color>\n★When obtaining an SSR hero during the <color=#DC143C>summoning event</color>, the chance of obtaining one of the selected event heroes will significantly increase! \n★The base chance of obtaining an SSR hero will remain the same as that of a normal \"Hero Summon\".\n\n<color=#008B00>◆Limited-Edition Heroes◆</color>\n★Heroes with an increased drop rate during this event are: \n<color=#DC143C>SSR Leon</color> & <color=#DC143C>SSR Altemuller</color>. \n\n<color=#008B00>◆Summon 10x Info◆</color>\n★Summon 10x under the <color=#DC143C>Limited-time Summon</color> banner for a guaranteed chance to get at least <color=#DC143C>1</color> SR Hero."
	},
	"21": {
		"ID": 21,
		"Name": "Radiant Bloodline",
		"PoolType": "CardPoolType_ActivityCardPool",
		"SelectType": "CardSelectType_BothSelect",
		"CrystalCost": 88,
		"TenSelectDiscount": 880,
		"TenSelectCount": 100,
		"TicketId": 4001,
		"CardPoolSelectMaxCount": 0,
		"SortID": 5,
		"Icon": "UI/Common_New_ABS/Icon/Item_CardTicket_Gold.png",
		"ClockResPath": "UI/SelectCard_ABS/Prefab/Clock.prefab",
		"AdsImage": "UI/TextImages/English_SelectCard2_ABS/Banner/Banner_023.png",
		"SelectProbabilityInfoID": 5,
		"SelectContentInfoID": 5,
		"ToggleClickImage": "UI/Icon/SelectCardHero_ABS/Icon_023.png",
		"ToggleUnClickImage": "UI/Icon/SelectCardHero_ABS/Icon_023.png",
		"MissionCardPoolType": "MissionCardPoolType_Hero",
		"CardPoolDetailDesc": "<color=#008B00>◆Radiant Bloodline - Limited-time Summon◆</color>\n★When obtaining an SSR hero during the <color=#DC143C>summoning event</color>, the chance of obtaining one of the selected event heroes will significantly increase! \n★The base chance of obtaining an SSR hero will remain the same as that of a normal \"Hero Summon\".\n\n<color=#008B00>◆Limited-Edition Heroes◆</color>\n★Heroes with an increased drop rate during this event are: \n<color=#DC143C>SSR Elwin</color> & <color=#DC143C>SSR Ledin</color>. \n\n<color=#008B00>◆Summon 10x Info◆</color>\n★Summon 10x under the <color=#DC143C>Limited-time Summon</color> banner for a guaranteed chance to get at least <color=#DC143C>1</color> SR Hero."
	},
	"22": {
		"ID": 22,
		"Name": "Festive Foxes",
		"PoolType": "CardPoolType_ActivityCardPool",
		"SelectType": "CardSelectType_BothSelect",
		"CrystalCost": 88,
		"TenSelectDiscount": 880,
		"TenSelectCount": 100,
		"TicketId": 4001,
		"CardPoolSelectMaxCount": 0,
		"SortID": 5,
		"Icon": "UI/Common_New_ABS/Icon/Item_CardTicket_Gold.png",
		"ClockResPath": "UI/SelectCard_ABS/Prefab/Clock.prefab",
		"AdsImage": "UI/TextImages/English_SelectCard2_ABS/Banner/Banner_024.png",
		"SelectProbabilityInfoID": 5,
		"SelectContentInfoID": 5,
		"ToggleClickImage": "UI/Icon/SelectCardHero_ABS/Icon_024.png",
		"ToggleUnClickImage": "UI/Icon/SelectCardHero_ABS/Icon_024.png",
		"MissionCardPoolType": "MissionCardPoolType_Hero",
		"CardPoolDetailDesc": "<color=#008B00>◆Festive Foxes - Limited-time Summon◆</color>\n★When obtaining an SSR hero during the <color=#DC143C>summoning event</color>, the chance of obtaining one of the selected event heroes significantly increases! \n★The base chance of obtaining an SSR hero will remain the same as that of a normal \"Hero Summon\".\n★<color=#DC143C>Destiny Summon</color>: The first SSR hero you summon during this event is guaranteed to be one you don't have yet (if you've already collected all the heroes from this selection, then you might receive some other SSR hero or a duplicate SSR hero from this selection)! \n\n<color=#008B00>◆Limited-Edition Heroes◆</color>\n★Heroes with an increased drop rate during this event are: \n<color=#DC143C>SSR Cherie</color>, <color=#DC143C>SSR Shelfaniel</color>, and <color=#DC143C>SSR Angelina</color>. \n\n<color=#008B00>◆Summon 10x Info◆</color>\n★Summon 10x under the <color=#DC143C>Limited-time Summon</color> banner for a guaranteed chance to get at least <color=#DC143C>1</color> SR Hero."
	},
	"23": {
		"ID": 23,
		"Name": "Relics of Yeless",
		"PoolType": "CardPoolType_ActivityCardPool",
		"SelectType": "CardSelectType_BothSelect",
		"CrystalCost": 88,
		"TenSelectDiscount": 880,
		"TenSelectCount": 100,
		"TicketId": 4001,
		"CardPoolSelectMaxCount": 0,
		"SortID": 5,
		"Icon": "UI/Common_New_ABS/Icon/Item_CardTicket_Gold.png",
		"ClockResPath": "UI/SelectCard_ABS/Prefab/Clock.prefab",
		"AdsImage": "UI/TextImages/English_SelectCard2_ABS/Banner/Banner_025.png",
		"SelectProbabilityInfoID": 3,
		"SelectContentInfoID": 3,
		"ToggleClickImage": "UI/Icon/SelectCardHero_ABS/Icon_025.png",
		"ToggleUnClickImage": "UI/Icon/SelectCardHero_ABS/Icon_025.png",
		"MissionCardPoolType": "MissionCardPoolType_Equipment",
		"CardPoolDetailDesc": "<color=#008B00>◆Relics of Yeless - Limited-time Equipment Summon◆</color>\n★ When obtaining SSR equipment during the <color=#DC143C>summoning event</color>, the chance of obtaining one of the selected event equipment items will significantly increase! \n★ The base chance of obtaining SSR equipment will remain the same as that of a normal \"Equipment Summon\". \n\n<color=#008B00>◆Limited-time Equipment◆</color>\n★ Equipment with an increased drop rate during this event are: \n<color=#DC143C>SSR Yggdrasil Wreath</color>, <color=#DC143C>SSR Apex Boots</color>, <color=#DC143C>SSR Arcane Battlegarb</color>, <color=#DC143C>SSR Queen's Scepter</color>.\n★ After the event, all of these limited-time event items will be available to obtain in various ways throughout the game!\n\n<color=#008B00>◆10x Summon Info◆</color>\n★ Summon 10x from <color=#DC143C>Equipment Summon</color> banners for a guaranteed chance to get at least <color=#DC143C>2</color> SR Equipment items!"
	},
	"24": {
		"ID": 24,
		"Name": "Bracer Blitz",
		"PoolType": "CardPoolType_ActivityCardPool",
		"SelectType": "CardSelectType_BothSelect",
		"CrystalCost": 88,
		"TenSelectDiscount": 880,
		"TenSelectCount": 100,
		"TicketId": 4001,
		"CardPoolSelectMaxCount": 0,
		"SortID": 5,
		"Icon": "UI/Common_New_ABS/Icon/Item_CardTicket_Gold.png",
		"ClockResPath": "UI/SelectCard_ABS/Prefab/Clock2.prefab",
		"AdsImage": "UI/TextImages/English_SelectCard2_ABS/Banner/Banner_0501.png",
		"SelectProbabilityInfoID": 5,
		"SelectContentInfoID": 5,
		"ToggleClickImage": "UI/Icon/SelectCardHero_ABS/Icon_0501.png",
		"ToggleUnClickImage": "UI/Icon/SelectCardHero_ABS/Icon_0501.png",
		"MissionCardPoolType": "MissionCardPoolType_Hero",
		"CardPoolDetailDesc": "<color=#008B00>◆Bracer Blitz - Limited-time Summon◆</color>\n★When obtaining an SSR hero during the <color=#DC143C>summoning event</color>, the chance of obtaining one of the selected event heroes will significantly increase! \n★The base chance of obtaining an SSR hero will remain the same as that of a normal \"Hero Summon\".\n\n<color=#008B00>◆Limited Hero◆</color>\n★The Heroes you are more likely to get are: \n<color=#DC143C>SSR Estelle</color> and <color=#DC143C>SSR Joshua</color>. \n★Heroes who appear in crossover card decks will not appear in other card decks. \n\n<color=#008B00>◆Summon 10x Info◆</color>\n★Summon 10x under the <color=#DC143C>Limited-time Summon</color> banner for a guaranteed chance to get at least <color=#DC143C>1</color> SR Hero."
	},
	"25": {
		"ID": 25,
		"Name": "Meteor Strike Destiny Summon",
		"PoolType": "CardPoolType_ActivityCardPool",
		"SelectType": "CardSelectType_BothSelect",
		"CrystalCost": 88,
		"TenSelectDiscount": 880,
		"TenSelectCount": 100,
		"TicketId": 4001,
		"CardPoolSelectMaxCount": 0,
		"SortID": 5,
		"Icon": "UI/Common_New_ABS/Icon/Item_CardTicket_Gold.png",
		"ClockResPath": "UI/SelectCard_ABS/Prefab/Clock.prefab",
		"AdsImage": "UI/TextImages/English_SelectCard2_ABS/Banner/Banner_0502.png",
		"SelectProbabilityInfoID": 5,
		"SelectContentInfoID": 5,
		"ToggleClickImage": "UI/Icon/SelectCardHero_ABS/Icon_0502.png",
		"ToggleUnClickImage": "UI/Icon/SelectCardHero_ABS/Icon_0502.png",
		"MissionCardPoolType": "MissionCardPoolType_Hero",
		"CardPoolDetailDesc": "<color=#008B00>◆Meteor Strike Destiny Summon - Limited-time Summon◆</color>\n★When obtaining an SSR hero during the <color=#DC143C>summoning event</color>, the chance of obtaining one of the selected event heroes significantly increases! \n★The base chance of obtaining an SSR hero will remain the same as that of a normal \"Hero Summon\".\n★<color=#DC143C>Destiny Summon</color>: The first SSR hero you summon during this event is guaranteed to be one you don't have yet (if you've already collected all the heroes from this selection, then you might receive some other SSR hero or a duplicate SSR hero from this selection)! \n\n<color=#008B00>◆Limited-Edition Heroes◆</color>\n★Heroes with an increased drop rate during this event are: \n<color=#DC143C>SSR Zerida</color>, <color=#DC143C>SSR Jugler</color>, and <color=#DC143C>SSR Dieharte</color>.\n\n<color=#008B00>◆Summon 10x Info◆</color>\n★Summon 10x under the <color=#DC143C>Limited-time Summon</color> banner for a guaranteed chance to get at least <color=#DC143C>1</color> SR Hero."
	},
	"26": {
		"ID": 26,
		"Name": "Afternoon Party",
		"PoolType": "CardPoolType_ActivityCardPool",
		"SelectType": "CardSelectType_BothSelect",
		"CrystalCost": 88,
		"TenSelectDiscount": 880,
		"TenSelectCount": 100,
		"TicketId": 4001,
		"CardPoolSelectMaxCount": 0,
		"SortID": 5,
		"Icon": "UI/Common_New_ABS/Icon/Item_CardTicket_Gold.png",
		"ClockResPath": "UI/SelectCard_ABS/Prefab/Clock.prefab",
		"AdsImage": "UI/TextImages/English_SelectCard2_ABS/Banner/Banner_0503.png",
		"SelectProbabilityInfoID": 5,
		"SelectContentInfoID": 5,
		"ToggleClickImage": "UI/Icon/SelectCardHero_ABS/Icon_0503.png",
		"ToggleUnClickImage": "UI/Icon/SelectCardHero_ABS/Icon_0503.png",
		"MissionCardPoolType": "MissionCardPoolType_Hero",
		"CardPoolDetailDesc": "<color=#008B00>◆Afternoon Party - Limited-time Summon◆</color>\n★When obtaining an SSR hero during the <color=#DC143C>summoning event</color>, the chance of obtaining one of the selected event heroes significantly increases! \n★The base chance of obtaining an SSR hero will remain the same as that of a normal \"Hero Summon\".\n★<color=#DC143C>Destiny Summon</color>: The first SSR hero you summon during this event is guaranteed to be one you don't have yet (if you've already collected all the heroes from this selection, then you might receive some other SSR hero or a duplicate SSR hero from this selection)! \n\n<color=#008B00>◆Limited-Edition Heroes◆</color>\n★Heroes with an increased drop rate during this event are: \n<color=#DC143C>SSR Rachel</color>, <color=#DC143C>SSR Tiaris</color>, and <color=#DC143C>SSR Liana</color>. \n\n<color=#008B00>◆Summon 10x Info◆</color>\n★Summon 10x under the <color=#DC143C>Limited-time Summon</color> banner for a guaranteed chance to get at least <color=#DC143C>1</color> SR Hero."
	},
	"27": {
		"ID": 27,
		"Name": "Bracer Force",
		"PoolType": "CardPoolType_ActivityCardPool",
		"SelectType": "CardSelectType_BothSelect",
		"CrystalCost": 88,
		"TenSelectDiscount": 880,
		"TenSelectCount": 100,
		"TicketId": 4001,
		"CardPoolSelectMaxCount": 0,
		"SortID": 5,
		"Icon": "UI/Common_New_ABS/Icon/Item_CardTicket_Gold.png",
		"ClockResPath": "UI/SelectCard_ABS/Prefab/Clock2.prefab",
		"AdsImage": "UI/TextImages/English_SelectCard2_ABS/Banner/Banner_0504.png",
		"SelectProbabilityInfoID": 3,
		"SelectContentInfoID": 3,
		"ToggleClickImage": "UI/Icon/SelectCardHero_ABS/Icon_0504.png",
		"ToggleUnClickImage": "UI/Icon/SelectCardHero_ABS/Icon_0504.png",
		"MissionCardPoolType": "MissionCardPoolType_Equipment",
		"CardPoolDetailDesc": "<color=#008B00>◆Bracer Force - Limited-time Equipment Summon◆</color>\n★When obtaining SSR equipment during the <color=#DC143C>summoning event</color>, the chance of obtaining one of the selected event equipment items will significantly increase! \n★The chance of obtaining SSR equipment is the same as when using a normal equipment summon.\n\n<color=#008B00>◆Limited-Edition Equipment◆</color>\n★Equipment items with an increased drop rate during this event are: \n<color=#DC143C>SSR Kernviter</color>, <color=#DC143C>SSR Rune Staff</color>, <color=#DC143C>SSR Clothesline Pole</color>, <color=#DC143C>SSR Bracer Emblem</color>. \n\n<color=#008B00>◆Summon 10x Info◆</color>\n★Summon 10x via <color=#DC143C>Equipment Summon</color> for a guaranteed chance to get at least <color=#DC143C>2</color> SR Equipment items!"
	},
	"28": {
		"ID": 28,
		"Name": "Rise of the Enforcers",
		"PoolType": "CardPoolType_ActivityCardPool",
		"SelectType": "CardSelectType_BothSelect",
		"CrystalCost": 88,
		"TenSelectDiscount": 880,
		"TenSelectCount": 100,
		"TicketId": 4001,
		"CardPoolSelectMaxCount": 0,
		"SortID": 5,
		"Icon": "UI/Common_New_ABS/Icon/Item_CardTicket_Gold.png",
		"ClockResPath": "UI/SelectCard_ABS/Prefab/Clock2.prefab",
		"AdsImage": "UI/TextImages/English_SelectCard2_ABS/Banner/Banner_0601.png",
		"SelectProbabilityInfoID": 5,
		"SelectContentInfoID": 5,
		"ToggleClickImage": "UI/Icon/SelectCardHero_ABS/Icon_0601.png",
		"ToggleUnClickImage": "UI/Icon/SelectCardHero_ABS/Icon_0601.png",
		"MissionCardPoolType": "MissionCardPoolType_Hero",
		"CardPoolDetailDesc": "<color=#008B00>◆Rise of the Enforcers - Limited-time Summon◆</color>\n★When obtaining an SSR hero during the <color=#DC143C>summoning event</color>, the chance of obtaining one of the selected event heroes significantly increases! \n★The base chance of obtaining an SSR hero will remain the same as that of a normal \"Hero Summon\".\n\n\n<color=#008B00>◆Limited-Edition Heroes◆</color>\n★Heroes with an increased drop rate during this event are: \n<color=#DC143C>SSR Leonhardt</color>, <color=#DC143C>SSR Renne</color>. \n\n★Heroes that appear in crossover summoning banner events cannot be summoned from other summoning banners. \n\n<color=#008B00>◆Summon 10x Info◆</color>\n★Summon 10x under the <color=#DC143C>Limited-time Summon</color> banner for a guaranteed chance to get at least <color=#DC143C>1</color> SR Hero."
	},
	"29": {
		"ID": 29,
		"Name": "Glorious Love Song",
		"PoolType": "CardPoolType_ActivityCardPool",
		"SelectType": "CardSelectType_BothSelect",
		"CrystalCost": 88,
		"TenSelectDiscount": 880,
		"TenSelectCount": 100,
		"TicketId": 4001,
		"CardPoolSelectMaxCount": 0,
		"SortID": 5,
		"Icon": "UI/Common_New_ABS/Icon/Item_CardTicket_Gold.png",
		"ClockResPath": "UI/SelectCard_ABS/Prefab/Clock.prefab",
		"AdsImage": "UI/TextImages/English_SelectCard2_ABS/Banner/Banner_0602.png",
		"SelectProbabilityInfoID": 5,
		"SelectContentInfoID": 5,
		"ToggleClickImage": "UI/Icon/SelectCardHero_ABS/Icon_0602.png",
		"ToggleUnClickImage": "UI/Icon/SelectCardHero_ABS/Icon_0602.png",
		"MissionCardPoolType": "MissionCardPoolType_Hero",
		"CardPoolDetailDesc": "<color=#008B00>◆Glorious Love Song - Limited-time Summon◆</color>\n★When obtaining an SSR hero during the <color=#DC143C>summoning event</color>, the chance of obtaining one of the selected event heroes significantly increases! \n★The base chance of obtaining an SSR hero will remain the same as that of a normal \"Hero Summon\".\n★When SSR Heroes are obtained from this summoning banner, <color=#DC143C>\"Love Points\"</color> will also be obtained. Love Points can be used in the <color=#DC143C>\"Connected Souls\"</color> event. \n\n<color=#008B00>◆Limited-Edition Heroes◆</color>\n★Heroes with an increased drop rate during this event are: \n<color=#DC143C>SSR Elwin</color>, <color=#DC143C>SSR Liana</color>. \n\n<color=#008B00>◆Summon 10x Info◆</color>\n★Summon 10x under the <color=#DC143C>Limited-time Summon</color> banner for a guaranteed chance to get at least <color=#DC143C>1</color> SR Hero."
	},
	"30": {
		"ID": 30,
		"Name": "Lonesome Shadows",
		"PoolType": "CardPoolType_ActivityCardPool",
		"SelectType": "CardSelectType_BothSelect",
		"CrystalCost": 88,
		"TenSelectDiscount": 880,
		"TenSelectCount": 100,
		"TicketId": 4001,
		"CardPoolSelectMaxCount": 0,
		"SortID": 5,
		"Icon": "UI/Common_New_ABS/Icon/Item_CardTicket_Gold.png",
		"ClockResPath": "UI/SelectCard_ABS/Prefab/Clock.prefab",
		"AdsImage": "UI/TextImages/English_SelectCard2_ABS/Banner/Banner_0603.png",
		"SelectProbabilityInfoID": 5,
		"SelectContentInfoID": 5,
		"ToggleClickImage": "UI/Icon/SelectCardHero_ABS/Icon_0603.png",
		"ToggleUnClickImage": "UI/Icon/SelectCardHero_ABS/Icon_0603.png",
		"MissionCardPoolType": "MissionCardPoolType_Hero",
		"CardPoolDetailDesc": "<color=#008B00>◆Lonesome Shadows - Limited-time Summon◆</color>\n★When obtaining an SSR hero during the <color=#DC143C>summoning event</color>, the chance of obtaining one of the selected event heroes significantly increases! \n★The base chance of obtaining an SSR hero will remain the same as that of a normal \"Hero Summon\".\n★When SSR Heroes are obtained from this summoning banner, <color=#DC143C>\"Love Points\"</color> will also be obtained. Love Points can be used in the <color=#DC143C>\"Connected Souls\"</color> event. \n\n<color=#008B00>◆Limited-Edition Heroes◆</color>\n★Heroes with an increased drop rate during this event are: \n<color=#DC143C>SSR Lana</color>, <color=#DC143C>SSR Leon</color>. \n\n<color=#008B00>◆Summon 10x Info◆</color>\n★Summon 10x under the <color=#DC143C>Limited-time Summon</color> banner for a guaranteed chance to get at least <color=#DC143C>1</color> SR Hero."
	},
	"31": {
		"ID": 31,
		"Name": "Forbidden Encounter",
		"PoolType": "CardPoolType_ActivityCardPool",
		"SelectType": "CardSelectType_BothSelect",
		"CrystalCost": 88,
		"TenSelectDiscount": 880,
		"TenSelectCount": 100,
		"TicketId": 4001,
		"CardPoolSelectMaxCount": 0,
		"SortID": 5,
		"Icon": "UI/Common_New_ABS/Icon/Item_CardTicket_Gold.png",
		"ClockResPath": "UI/SelectCard_ABS/Prefab/Clock.prefab",
		"AdsImage": "UI/TextImages/English_SelectCard2_ABS/Banner/Banner_0604.png",
		"SelectProbabilityInfoID": 5,
		"SelectContentInfoID": 5,
		"ToggleClickImage": "UI/Icon/SelectCardHero_ABS/Icon_0604.png",
		"ToggleUnClickImage": "UI/Icon/SelectCardHero_ABS/Icon_0604.png",
		"MissionCardPoolType": "MissionCardPoolType_Hero",
		"CardPoolDetailDesc": "<color=#008B00>◆Forbidden Encounter - Limited-time Summon◆</color>\n★When obtaining an SSR hero during the <color=#DC143C>summoning event</color>, the chance of obtaining one of the selected event heroes significantly increases! \n★The base chance of obtaining an SSR hero will remain the same as that of a normal \"Hero Summon\".\n★When SSR Heroes are obtained from this summoning banner, <color=#DC143C>\"Love Points\"</color> will also be obtained. Love Points can be used in the <color=#DC143C>\"Connected Souls\"</color> event. \n\n<color=#008B00>◆Limited-Edition Heroes◆</color>\n★Heroes with an increased drop rate during this event are: \n<color=#DC143C>SSR Landius</color>, <color=#DC143C>SSR Listell</color>. \n\n<color=#008B00>◆Summon 10x Info◆</color>\n★Summon 10x under the <color=#DC143C>Limited-time Summon</color> banner for a guaranteed chance to get at least <color=#DC143C>1</color> SR Hero."
	},
	"32": {
		"ID": 32,
		"Name": "传说的超新生",
		"PoolType": "CardPoolType_ActivityCardPool",
		"SelectType": "CardSelectType_BothSelect",
		"CrystalCost": 88,
		"TenSelectDiscount": 880,
		"TenSelectCount": 100,
		"TicketId": 4001,
		"CardPoolSelectMaxCount": 0,
		"SortID": 5,
		"Icon": "UI/Common_New_ABS/Icon/Item_CardTicket_Gold.png",
		"ClockResPath": "UI/SelectCard_ABS/Prefab/Clock.prefab",
		"AdsImage": "UI/SelectCard1_ABS/Banner_0701.png",
		"SelectProbabilityInfoID": 5,
		"SelectContentInfoID": 5,
		"ToggleClickImage": "UI/Icon/SelectCardHero_ABS/Icon_0701.png",
		"ToggleUnClickImage": "UI/Icon/SelectCardHero_ABS/Icon_0701.png",
		"MissionCardPoolType": "MissionCardPoolType_Hero",
		"CardPoolDetailDesc": "<color=#008B00>◆传说的超新生-限时召唤◆</color>\n★<color=#DC143C>活动召唤</color>中获得SSR时，其中指定英雄的获得概率大幅度UP！\n★SSR总获取概率与普通英雄召唤相同。\n\n<color=#008B00>◆限定英雄◆</color>\n★本次活动中概率UP的英雄是：\n<color=#DC143C>SSR 西格玛</color>、<color=#DC143C>SSR拉姆达</color>。\n\n<color=#008B00>◆「召唤10次」特殊说明◆</color>\n★<color=#DC143C>限时召唤</color>中「召唤10次」，至少获得<color=#DC143C>1</color>位SR英雄。"
	},
	"33": {
		"ID": 33,
		"Name": "智慧的闪光",
		"PoolType": "CardPoolType_ActivityCardPool",
		"SelectType": "CardSelectType_BothSelect",
		"CrystalCost": 88,
		"TenSelectDiscount": 880,
		"TenSelectCount": 100,
		"TicketId": 4001,
		"CardPoolSelectMaxCount": 0,
		"SortID": 5,
		"Icon": "UI/Common_New_ABS/Icon/Item_CardTicket_Gold.png",
		"ClockResPath": "UI/SelectCard_ABS/Prefab/Clock.prefab",
		"AdsImage": "UI/SelectCard1_ABS/Banner_0702.png",
		"SelectProbabilityInfoID": 5,
		"SelectContentInfoID": 5,
		"ToggleClickImage": "UI/Icon/SelectCardHero_ABS/Icon_0702.png",
		"ToggleUnClickImage": "UI/Icon/SelectCardHero_ABS/Icon_0702.png",
		"MissionCardPoolType": "MissionCardPoolType_Hero",
		"CardPoolDetailDesc": "<color=#008B00>◆智慧的闪光-限时召唤◆</color>\n★<color=#DC143C>活动召唤</color>中获得SSR时，其中指定英雄的获得概率大幅度UP！\n★SSR总获取概率与普通英雄召唤相同。\n★<color=#DC143C>精选福利</color>：你从本次活动中首次抽取到的SSR英雄，必定是活动精选列表中你尚未拥有的SSR英雄（若你已经集齐该活动精选列表中所有英雄，则可能获得其他SSR英雄或者重复的精选SSR英雄）。\n\n<color=#008B00>◆限定英雄◆</color>\n★本次活动中概率UP的英雄是：\n<color=#DC143C>SSR 露娜</color>、<color=#DC143C>SSR 兰芳特</color>、<color=#DC143C>SSR 亚鲁特繆拉</color>。\n\n<color=#008B00>◆「召唤10次」特殊说明◆</color>\n★<color=#DC143C>限时召唤</color>中「召唤10次」，至少获得<color=#DC143C>1</color>位SR英雄。"
	},
	"34": {
		"ID": 34,
		"Name": "极略之魔术",
		"PoolType": "CardPoolType_ActivityCardPool",
		"SelectType": "CardSelectType_BothSelect",
		"CrystalCost": 88,
		"TenSelectDiscount": 880,
		"TenSelectCount": 100,
		"TicketId": 4001,
		"CardPoolSelectMaxCount": 0,
		"SortID": 5,
		"Icon": "UI/Common_New_ABS/Icon/Item_CardTicket_Gold.png",
		"ClockResPath": "UI/SelectCard_ABS/Prefab/Clock.prefab",
		"AdsImage": "UI/SelectCard1_ABS/Banner_0801.png",
		"SelectProbabilityInfoID": 5,
		"SelectContentInfoID": 5,
		"ToggleClickImage": "UI/Icon/SelectCardHero_ABS/Icon_0801.png",
		"ToggleUnClickImage": "UI/Icon/SelectCardHero_ABS/Icon_0801.png",
		"MissionCardPoolType": "MissionCardPoolType_Hero",
		"CardPoolDetailDesc": "<color=#008B00>◆极略之魔术-限时召唤◆</color>\n★<color=#DC143C>活动召唤</color>中获得SSR时，其中指定英雄的获得概率大幅度UP！\n★SSR总获取概率与普通英雄召唤相同。\n\n<color=#008B00>◆限定英雄◆</color>\n★本次活动中概率UP的英雄是：\n<color=#DC143C>SSR 威拉</color>、<color=#DC143C>SSR 基扎洛夫</color>。\n\n<color=#008B00>◆「召唤10次」特殊说明◆</color>\n★<color=#DC143C>限时召唤</color>中「召唤10次」，至少获得<color=#DC143C>1</color>位SR英雄。"
	},
	"35": {
		"ID": 35,
		"Name": "主角光环精选",
		"PoolType": "CardPoolType_ActivityCardPool",
		"SelectType": "CardSelectType_BothSelect",
		"CrystalCost": 88,
		"TenSelectDiscount": 880,
		"TenSelectCount": 100,
		"TicketId": 4001,
		"CardPoolSelectMaxCount": 0,
		"SortID": 5,
		"Icon": "UI/Common_New_ABS/Icon/Item_CardTicket_Gold.png",
		"ClockResPath": "UI/SelectCard_ABS/Prefab/Clock.prefab",
		"AdsImage": "UI/SelectCard1_ABS/Banner_0802.png",
		"SelectProbabilityInfoID": 5,
		"SelectContentInfoID": 5,
		"ToggleClickImage": "UI/Icon/SelectCardHero_ABS/Icon_0802.png",
		"ToggleUnClickImage": "UI/Icon/SelectCardHero_ABS/Icon_0802.png",
		"MissionCardPoolType": "MissionCardPoolType_Hero",
		"CardPoolDetailDesc": "<color=#008B00>◆主角光环精选-限时召唤◆</color>\n★<color=#DC143C>活动召唤</color>中获得SSR时，其中指定英雄的获得概率大幅度UP！\n★SSR总获取概率与普通英雄召唤相同。\n★<color=#DC143C>精选福利</color>：你从本次活动中首次抽取到的SSR英雄，必定是活动精选列表中你尚未拥有的SSR英雄（若你已经集齐该活动精选列表中所有英雄，则可能获得其他SSR英雄或者重复的精选SSR英雄）。\n\n<color=#008B00>◆限定英雄◆</color>\n★本次活动中概率UP的英雄是：\n<color=#DC143C>SSR 雷丁</color>、<color=#DC143C>SSR 艾尔文</color>、<color=#DC143C>SSR 兰迪乌斯</color>。\n\n<color=#008B00>◆「召唤10次」特殊说明◆</color>\n★<color=#DC143C>限时召唤</color>中「召唤10次」，至少获得<color=#DC143C>1</color>位SR英雄。"
	},
	"36": {
		"ID": 36,
		"Name": "甜心午后派对",
		"PoolType": "CardPoolType_ActivityCardPool",
		"SelectType": "CardSelectType_BothSelect",
		"CrystalCost": 88,
		"TenSelectDiscount": 880,
		"TenSelectCount": 100,
		"TicketId": 4001,
		"CardPoolSelectMaxCount": 0,
		"SortID": 5,
		"Icon": "UI/Common_New_ABS/Icon/Item_CardTicket_Gold.png",
		"ClockResPath": "UI/SelectCard_ABS/Prefab/Clock.prefab",
		"AdsImage": "UI/SelectCard1_ABS/Banner_0803.png",
		"SelectProbabilityInfoID": 5,
		"SelectContentInfoID": 5,
		"ToggleClickImage": "UI/Icon/SelectCardHero_ABS/Icon_0803.png",
		"ToggleUnClickImage": "UI/Icon/SelectCardHero_ABS/Icon_0803.png",
		"MissionCardPoolType": "MissionCardPoolType_Hero",
		"CardPoolDetailDesc": "<color=#008B00>◆甜心午后派对-限时召唤◆</color>\n★<color=#DC143C>活动召唤</color>中获得SSR时，其中指定英雄的获得概率大幅度UP！\n★SSR总获取概率与普通英雄召唤相同。\n★<color=#DC143C>精选福利</color>：你从本次活动中首次抽取到的SSR英雄，必定是活动精选列表中你尚未拥有的SSR英雄（若你已经集齐该活动精选列表中所有英雄，则可能获得其他SSR英雄或者重复的精选SSR英雄）。\n\n<color=#008B00>◆限定英雄◆</color>\n★本次活动中概率UP的英雄是：\n<color=#DC143C>SSR 蕾伽尔</color>、<color=#DC143C>SSR 莉亚娜</color>、<color=#DC143C>SSR 拉姆达</color>。\n\n<color=#008B00>◆「召唤10次」特殊说明◆</color>\n★<color=#DC143C>限时召唤</color>中「召唤10次」，至少获得<color=#DC143C>1</color>位SR英雄。"
	},
	"37": {
		"ID": 37,
		"Name": "檄!帝国华击团",
		"PoolType": "CardPoolType_ActivityCardPool",
		"SelectType": "CardSelectType_BothSelect",
		"CrystalCost": 88,
		"TenSelectDiscount": 880,
		"TenSelectCount": 100,
		"TicketId": 4001,
		"CardPoolSelectMaxCount": 0,
		"SortID": 5,
		"Icon": "UI/Common_New_ABS/Icon/Item_CardTicket_Gold.png",
		"ClockResPath": "UI/SelectCard_ABS/Prefab/Clock.prefab",
		"AdsImage": "UI/SelectCard1_ABS/Banner_0901.png",
		"SelectProbabilityInfoID": 5,
		"SelectContentInfoID": 5,
		"ToggleClickImage": "UI/Icon/SelectCardHero_ABS/Icon_0901.png",
		"ToggleUnClickImage": "UI/Icon/SelectCardHero_ABS/Icon_0901.png",
		"MissionCardPoolType": "MissionCardPoolType_Hero",
		"CardPoolDetailDesc": "<color=#008B00>◆檄！帝国华击团-限时召唤◆</color>\n★<color=#DC143C>活动召唤</color>中获得SSR时，其中指定英雄的获得概率大幅度UP！\n★SSR总获取概率与普通英雄召唤相同。\n\n<color=#008B00>◆限定英雄◆</color>\n★本次活动中概率UP的英雄是：\n<color=#DC143C>SSR 真宫寺樱</color>、<color=#DC143C>SSR 神崎堇</color>。\n★联动卡池中出现的英雄，不会进入其他卡池。\n\n<color=#008B00>◆「召唤10次」特殊说明◆</color>\n★<color=#DC143C>限时召唤</color>中「召唤10次」，至少获得<color=#DC143C>1</color>位SR英雄。"
	},
	"38": {
		"ID": 38,
		"Name": "帝国之辉精选",
		"PoolType": "CardPoolType_ActivityCardPool",
		"SelectType": "CardSelectType_BothSelect",
		"CrystalCost": 88,
		"TenSelectDiscount": 880,
		"TenSelectCount": 100,
		"TicketId": 4001,
		"CardPoolSelectMaxCount": 0,
		"SortID": 5,
		"Icon": "UI/Common_New_ABS/Icon/Item_CardTicket_Gold.png",
		"ClockResPath": "UI/SelectCard_ABS/Prefab/Clock.prefab",
		"AdsImage": "UI/SelectCard1_ABS/Banner_0902.png",
		"SelectProbabilityInfoID": 5,
		"SelectContentInfoID": 5,
		"ToggleClickImage": "UI/Icon/SelectCardHero_ABS/Icon_0902.png",
		"ToggleUnClickImage": "UI/Icon/SelectCardHero_ABS/Icon_0902.png",
		"MissionCardPoolType": "MissionCardPoolType_Hero",
		"CardPoolDetailDesc": "<color=#008B00>◆帝国之辉精选-限时召唤◆</color>\n★<color=#DC143C>活动召唤</color>中获得SSR时，其中指定英雄的获得概率大幅度UP！\n★SSR总获取概率与普通英雄召唤相同。\n★<color=#DC143C>精选福利</color>：你从本次活动中首次抽取到的SSR英雄，必定是活动精选列表中你尚未拥有的SSR英雄（若你已经集齐该活动精选列表中所有英雄，则可能获得其他SSR英雄或者重复的精选SSR英雄）。\n\n<color=#008B00>◆限定英雄◆</color>\n★本次活动中概率UP的英雄是：\n<color=#DC143C>SSR 巴恩哈特</color>、<color=#DC143C>SSR 艾尔文</color>、<color=#DC143C>SSR 利昂</color>。\n\n<color=#008B00>◆「召唤10次」特殊说明◆</color>\n★<color=#DC143C>限时召唤</color>中「召唤10次」，至少获得<color=#DC143C>1</color>位SR英雄。"
	},
	"39": {
		"ID": 39,
		"Name": "华击团武装",
		"PoolType": "CardPoolType_ActivityCardPool",
		"SelectType": "CardSelectType_BothSelect",
		"CrystalCost": 88,
		"TenSelectDiscount": 880,
		"TenSelectCount": 100,
		"TicketId": 4001,
		"CardPoolSelectMaxCount": 0,
		"SortID": 5,
		"Icon": "UI/Common_New_ABS/Icon/Item_CardTicket_Gold.png",
		"ClockResPath": "UI/SelectCard_ABS/Prefab/Clock.prefab",
		"AdsImage": "UI/SelectCard1_ABS/Banner_0903.png",
		"SelectProbabilityInfoID": 3,
		"SelectContentInfoID": 3,
		"ToggleClickImage": "UI/Icon/SelectCardHero_ABS/Icon_0903.png",
		"ToggleUnClickImage": "UI/Icon/SelectCardHero_ABS/Icon_0903.png",
		"MissionCardPoolType": "MissionCardPoolType_Equipment",
		"CardPoolDetailDesc": "<color=#008B00>◆华击团武装-限时装备召唤◆</color>\n★<color=#DC143C>活动召唤</color>中获得SSR装备时，其中指定装备的获得概率大幅度UP！\n★SSR总获取概率与普通装备召唤相同。\n\n<color=#008B00>◆限定装备◆</color>\n★本次活动中概率UP的装备是：\n<color=#DC143C>SSR 灵剑荒鹰</color>、<color=#DC143C>SSR 华击团制服</color>、<color=#DC143C>SSR 红色缎带</color>、<color=#DC143C>SSR 小熊玩偶</color>。\n★联动限定装备将在活动结束后暂时无法获取，随后将会推出相同效果但是外观不同的装备在常规玩法中产出。\n\n<color=#008B00>◆「召唤10次」特殊说明◆</color>\n★<color=#DC143C>装备召唤</color>中「召唤10次」，至少获得<color=#DC143C>2</color>个SR装备。"
	},
	"40": {
		"ID": 40,
		"Name": "破空的羽箭",
		"PoolType": "CardPoolType_ActivityCardPool",
		"SelectType": "CardSelectType_BothSelect",
		"CrystalCost": 88,
		"TenSelectDiscount": 880,
		"TenSelectCount": 100,
		"TicketId": 4001,
		"CardPoolSelectMaxCount": 0,
		"SortID": 5,
		"Icon": "UI/Common_New_ABS/Icon/Item_CardTicket_Gold.png",
		"ClockResPath": "UI/SelectCard_ABS/Prefab/Clock.prefab",
		"AdsImage": "UI/SelectCard1_ABS/Banner_1001.png",
		"SelectProbabilityInfoID": 5,
		"SelectContentInfoID": 5,
		"ToggleClickImage": "UI/Icon/SelectCardHero_ABS/Icon_1001.png",
		"ToggleUnClickImage": "UI/Icon/SelectCardHero_ABS/Icon_1001.png",
		"MissionCardPoolType": "MissionCardPoolType_Hero",
		"CardPoolDetailDesc": "<color=#008B00>◆破空的羽箭-限时召唤◆</color>\n★<color=#DC143C>活动召唤</color>中获得SSR时，其中指定英雄的获得概率大幅度UP！\n★SSR总获取概率与普通英雄召唤相同。\n\n<color=#008B00>◆限定英雄◆</color>\n★本次活动中概率UP的英雄是：\n<color=#DC143C>SSR 克拉蕾特</color>、<color=#DC143C>SSR 艾拉斯卓</color>。\n\n<color=#008B00>◆「召唤10次」特殊说明◆</color>\n★<color=#DC143C>限时召唤</color>中「召唤10次」，至少获得<color=#DC143C>1</color>位SR英雄。"
	},
	"41": {
		"ID": 41,
		"Name": "卡尔萨斯之翼",
		"PoolType": "CardPoolType_ActivityCardPool",
		"SelectType": "CardSelectType_BothSelect",
		"CrystalCost": 88,
		"TenSelectDiscount": 880,
		"TenSelectCount": 100,
		"TicketId": 4001,
		"CardPoolSelectMaxCount": 0,
		"SortID": 5,
		"Icon": "UI/Common_New_ABS/Icon/Item_CardTicket_Gold.png",
		"ClockResPath": "UI/SelectCard_ABS/Prefab/Clock.prefab",
		"AdsImage": "UI/SelectCard1_ABS/Banner_1002.png",
		"SelectProbabilityInfoID": 5,
		"SelectContentInfoID": 5,
		"ToggleClickImage": "UI/Icon/SelectCardHero_ABS/Icon_1002.png",
		"ToggleUnClickImage": "UI/Icon/SelectCardHero_ABS/Icon_1002.png",
		"MissionCardPoolType": "MissionCardPoolType_Hero",
		"CardPoolDetailDesc": "<color=#008B00>◆卡尔萨斯之翼-限时召唤◆</color>\n★<color=#DC143C>活动召唤</color>中获得SSR时，其中指定英雄的获得概率大幅度UP！\n★SSR总获取概率与普通英雄召唤相同。\n\n<color=#008B00>◆限定英雄◆</color>\n★本次活动中概率UP的英雄是：\n<color=#DC143C>SSR 雪莉</color>、<color=#DC143C>SSR 露娜</color>。\n<color=#DC143C>SR 娜姆</color>获取概率小幅提升（不影响SSR英雄的获取率）。\n\n<color=#008B00>◆「召唤10次」特殊说明◆</color>\n★<color=#DC143C>限时召唤</color>中「召唤10次」，至少获得<color=#DC143C>1</color>位SR英雄。"
	},
	"42": {
		"ID": 42,
		"Name": "传说彼端精选",
		"PoolType": "CardPoolType_ActivityCardPool",
		"SelectType": "CardSelectType_BothSelect",
		"CrystalCost": 88,
		"TenSelectDiscount": 880,
		"TenSelectCount": 100,
		"TicketId": 4001,
		"CardPoolSelectMaxCount": 0,
		"SortID": 5,
		"Icon": "UI/Common_New_ABS/Icon/Item_CardTicket_Gold.png",
		"ClockResPath": "UI/SelectCard_ABS/Prefab/Clock.prefab",
		"AdsImage": "UI/SelectCard1_ABS/Banner_1003.png",
		"SelectProbabilityInfoID": 5,
		"SelectContentInfoID": 5,
		"ToggleClickImage": "UI/Icon/SelectCardHero_ABS/Icon_1003.png",
		"ToggleUnClickImage": "UI/Icon/SelectCardHero_ABS/Icon_1003.png",
		"MissionCardPoolType": "MissionCardPoolType_Hero",
		"CardPoolDetailDesc": "<color=#008B00>◆传说彼端精选-限时召唤◆</color>\n★<color=#DC143C>活动召唤</color>中获得SSR时，其中指定英雄的获得概率大幅度UP！\n★SSR总获取概率与普通英雄召唤相同。\n★<color=#DC143C>精选福利</color>：你从本次活动中首次抽取到的SSR英雄，必定是活动精选列表中你尚未拥有的SSR英雄（若你已经集齐该活动精选列表中所有英雄，则可能获得其他SSR英雄或者重复的精选SSR英雄）。\n\n<color=#008B00>◆限定英雄◆</color>\n★本次活动中概率UP的英雄是：\n<color=#DC143C>SSR 威拉</color>、<color=#DC143C>SSR 妮丝蒂尔</color>、<color=#DC143C>SSR 兰芳特</color>。\n\n<color=#008B00>◆「召唤10次」特殊说明◆</color>\n★<color=#DC143C>限时召唤</color>中「召唤10次」，至少获得<color=#DC143C>1</color>位SR英雄。"
	},
	"43": {
		"ID": 43,
		"Name": "铸剑的创生",
		"PoolType": "CardPoolType_ActivityCardPool",
		"SelectType": "CardSelectType_BothSelect",
		"CrystalCost": 88,
		"TenSelectDiscount": 880,
		"TenSelectCount": 100,
		"TicketId": 4001,
		"CardPoolSelectMaxCount": 0,
		"SortID": 5,
		"Icon": "UI/Common_New_ABS/Icon/Item_CardTicket_Gold.png",
		"ClockResPath": "UI/SelectCard_ABS/Prefab/Clock.prefab",
		"AdsImage": "UI/SelectCard1_ABS/Banner_1101.png",
		"SelectProbabilityInfoID": 5,
		"SelectContentInfoID": 5,
		"ToggleClickImage": "UI/Icon/SelectCardHero_ABS/Icon_1101.png",
		"ToggleUnClickImage": "UI/Icon/SelectCardHero_ABS/Icon_1101.png",
		"MissionCardPoolType": "MissionCardPoolType_Hero",
		"CardPoolDetailDesc": "<color=#008B00>◆铸剑的创生-限时召唤◆</color>\n★<color=#DC143C>活动召唤</color>中获得SSR时，其中指定英雄的获得概率大幅度UP！\n★SSR总获取概率与普通英雄召唤相同。\n\n<color=#008B00>◆限定英雄◆</color>\n★本次活动中概率UP的英雄是：\n<color=#DC143C>SSR 欧米伽</color>、<color=#DC143C>SSR 尤利娅</color>。\n\n<color=#008B00>◆「召唤10次」特殊说明◆</color>\n★<color=#DC143C>限时召唤</color>中「召唤10次」，至少获得<color=#DC143C>1</color>位SR英雄。"
	},
	"44": {
		"ID": 44,
		"Name": "素体改造计划",
		"PoolType": "CardPoolType_ActivityCardPool",
		"SelectType": "CardSelectType_BothSelect",
		"CrystalCost": 88,
		"TenSelectDiscount": 880,
		"TenSelectCount": 100,
		"TicketId": 4001,
		"CardPoolSelectMaxCount": 0,
		"SortID": 5,
		"Icon": "UI/Common_New_ABS/Icon/Item_CardTicket_Gold.png",
		"ClockResPath": "UI/SelectCard_ABS/Prefab/Clock.prefab",
		"AdsImage": "UI/SelectCard1_ABS/Banner_1102.png",
		"SelectProbabilityInfoID": 5,
		"SelectContentInfoID": 5,
		"ToggleClickImage": "UI/Icon/SelectCardHero_ABS/Icon_1102.png",
		"ToggleUnClickImage": "UI/Icon/SelectCardHero_ABS/Icon_1102.png",
		"MissionCardPoolType": "MissionCardPoolType_Hero",
		"CardPoolDetailDesc": "<color=#008B00>◆素体改造计划-限时召唤◆</color>\n★<color=#DC143C>活动召唤</color>中获得SSR时，其中指定英雄的获得概率大幅度UP！\n★SSR总获取概率与普通英雄召唤相同。\n★<color=#DC143C>精选福利</color>：你从本次活动中首次抽取到的SSR英雄，必定是活动精选列表中你尚未拥有的SSR英雄（若你已经集齐该活动精选列表中所有英雄，则可能获得其他SSR英雄或者重复的精选SSR英雄）。\n\n<color=#008B00>◆限定英雄◆</color>\n★本次活动中概率UP的英雄是：\n<color=#DC143C>SSR 基扎洛夫</color>、<color=#DC143C>SSR 西格玛</color>、<color=#DC143C>SSR 拉姆达</color>。\n\n<color=#008B00>◆「召唤10次」特殊说明◆</color>\n★<color=#DC143C>限时召唤</color>中「召唤10次」，至少获得<color=#DC143C>1</color>位SR英雄。"
	},
	"45": {
		"ID": 45,
		"Name": "剑之封印赞美诗",
		"PoolType": "CardPoolType_ActivityCardPool",
		"SelectType": "CardSelectType_BothSelect",
		"CrystalCost": 88,
		"TenSelectDiscount": 880,
		"TenSelectCount": 100,
		"TicketId": 4001,
		"CardPoolSelectMaxCount": 0,
		"SortID": 5,
		"Icon": "UI/Common_New_ABS/Icon/Item_CardTicket_Gold.png",
		"ClockResPath": "UI/SelectCard_ABS/Prefab/Clock.prefab",
		"AdsImage": "UI/SelectCard1_ABS/Banner_1103.png",
		"SelectProbabilityInfoID": 5,
		"SelectContentInfoID": 5,
		"ToggleClickImage": "UI/Icon/SelectCardHero_ABS/Icon_1103.png",
		"ToggleUnClickImage": "UI/Icon/SelectCardHero_ABS/Icon_1103.png",
		"MissionCardPoolType": "MissionCardPoolType_Hero",
		"CardPoolDetailDesc": "<color=#008B00>◆剑之封印赞美诗-限时召唤◆</color>\n★<color=#DC143C>活动召唤</color>中获得SSR时，其中指定英雄的获得概率大幅度UP！\n★SSR总获取概率与普通英雄召唤相同。\n★<color=#DC143C>精选福利</color>：你从本次活动中首次抽取到的SSR英雄，必定是活动精选列表中你尚未拥有的SSR英雄（若你已经集齐该活动精选列表中所有英雄，则可能获得其他SSR英雄或者重复的精选SSR英雄）。\n\n<color=#008B00>◆限定英雄◆</color>\n★本次活动中概率UP的英雄是：\n<color=#DC143C>SSR 泽瑞达</color>、<color=#DC143C>SSR 莉亚娜</color>、<color=#DC143C>SSR 拉娜</color>。\n\n<color=#008B00>◆「召唤10次」特殊说明◆</color>\n★<color=#DC143C>限时召唤</color>中「召唤10次」，至少获得<color=#DC143C>1</color>位SR英雄。"
	},
	"46": {
		"ID": 46,
		"Name": "激燃!魔强世代",
		"PoolType": "CardPoolType_ActivityCardPool",
		"SelectType": "CardSelectType_BothSelect",
		"CrystalCost": 88,
		"TenSelectDiscount": 880,
		"TenSelectCount": 100,
		"TicketId": 4001,
		"CardPoolSelectMaxCount": 0,
		"SortID": 5,
		"Icon": "UI/Common_New_ABS/Icon/Item_CardTicket_Gold.png",
		"ClockResPath": "UI/SelectCard_ABS/Prefab/Clock.prefab",
		"AdsImage": "UI/SelectCard1_ABS/Banner_1201.png",
		"SelectProbabilityInfoID": 5,
		"SelectContentInfoID": 5,
		"ToggleClickImage": "UI/Icon/SelectCardHero_ABS/Icon_1201.png",
		"ToggleUnClickImage": "UI/Icon/SelectCardHero_ABS/Icon_1201.png",
		"MissionCardPoolType": "MissionCardPoolType_Hero",
		"CardPoolDetailDesc": "<color=#008B00>◆激燃！魔强世代！-限时召唤◆</color>\n★<color=#DC143C>活动召唤</color>中获得SSR时，其中指定英雄的获得概率大幅度UP！\n★SSR总获取概率与普通英雄召唤相同。\n\n<color=#008B00>◆限定英雄◆</color>\n★本次活动中概率UP的英雄是：\n<color=#DC143C>SSR 浦饭幽助</color>、<color=#DC143C>SSR 藏马</color>。\n★联动卡池中出现的英雄，不会进入其他卡池。\n\n<color=#008B00>◆「召唤10次」特殊说明◆</color>\n★<color=#DC143C>限时召唤</color>中「召唤10次」，至少获得<color=#DC143C>1</color>位SR英雄。"
	},
	"47": {
		"ID": 47,
		"Name": "凶.极恶的妖怪",
		"PoolType": "CardPoolType_ActivityCardPool",
		"SelectType": "CardSelectType_BothSelect",
		"CrystalCost": 88,
		"TenSelectDiscount": 880,
		"TenSelectCount": 100,
		"TicketId": 4001,
		"CardPoolSelectMaxCount": 0,
		"SortID": 5,
		"Icon": "UI/Common_New_ABS/Icon/Item_CardTicket_Gold.png",
		"ClockResPath": "UI/SelectCard_ABS/Prefab/Clock.prefab",
		"AdsImage": "UI/SelectCard1_ABS/Banner_1202.png",
		"SelectProbabilityInfoID": 5,
		"SelectContentInfoID": 5,
		"ToggleClickImage": "UI/Icon/SelectCardHero_ABS/Icon_1202.png",
		"ToggleUnClickImage": "UI/Icon/SelectCardHero_ABS/Icon_1202.png",
		"MissionCardPoolType": "MissionCardPoolType_Hero",
		"CardPoolDetailDesc": "<color=#008B00>◆凶·极恶的妖怪！-限时召唤◆</color>\n★<color=#DC143C>活动召唤</color>中获得SSR时，其中指定英雄的获得概率大幅度UP！\n★SSR总获取概率与普通英雄召唤相同。\n\n<color=#008B00>◆限定英雄◆</color>\n★本次活动中概率UP的英雄是：\n<color=#DC143C>SSR 飞影</color>、<color=#DC143C>SSR 户愚吕兄弟</color>。\n★联动卡池中出现的英雄，不会进入其他卡池。\n\n<color=#008B00>◆「召唤10次」特殊说明◆</color>\n★<color=#DC143C>限时召唤</color>中「召唤10次」，至少获得<color=#DC143C>1</color>位SR英雄。"
	},
	"48": {
		"ID": 48,
		"Name": "公主联盟精选",
		"PoolType": "CardPoolType_ActivityCardPool",
		"SelectType": "CardSelectType_BothSelect",
		"CrystalCost": 88,
		"TenSelectDiscount": 880,
		"TenSelectCount": 100,
		"TicketId": 4001,
		"CardPoolSelectMaxCount": 0,
		"SortID": 5,
		"Icon": "UI/Common_New_ABS/Icon/Item_CardTicket_Gold.png",
		"ClockResPath": "UI/SelectCard_ABS/Prefab/Clock.prefab",
		"AdsImage": "UI/SelectCard1_ABS/Banner_1203.png",
		"SelectProbabilityInfoID": 5,
		"SelectContentInfoID": 5,
		"ToggleClickImage": "UI/Icon/SelectCardHero_ABS/Icon_1203.png",
		"ToggleUnClickImage": "UI/Icon/SelectCardHero_ABS/Icon_1203.png",
		"MissionCardPoolType": "MissionCardPoolType_Hero",
		"CardPoolDetailDesc": "<color=#008B00>◆公主联盟精选-限时召唤◆</color>\n★<color=#DC143C>活动召唤</color>中获得SSR时，其中指定英雄的获得概率大幅度UP！\n★SSR总获取概率与普通英雄召唤相同。\n★<color=#DC143C>精选福利</color>：你从本次活动中首次抽取到的SSR英雄，必定是活动精选列表中你尚未拥有的SSR英雄（若你已经集齐该活动精选列表中所有英雄，则可能获得其他SSR英雄或者重复的精选SSR英雄）。\n\n<color=#008B00>◆限定英雄◆</color>\n★本次活动中概率UP的英雄是：\n<color=#DC143C>SSR 克拉蕾特</color>、<color=#DC143C>SSR 蒂亚莉丝</color>、<color=#DC143C>SSR 露娜</color>。\n\n<color=#008B00>◆「召唤10次」特殊说明◆</color>\n★<color=#DC143C>限时召唤</color>中「召唤10次」，至少获得<color=#DC143C>1</color>位SR英雄。\n\n<color=#008B00>◆卡池兑换说明◆</color>\n★在本次活动中获得的UP英雄已经6星时，会额外获得<color=#DC143C>1</color>个时空精粹奖励,可在卡池兑换中用于UP英雄之间的转换。"
	}
}