{
	"1": {
		"ID": 1,
		"Name": "Village",
		"Desc": "Village",
		"FuncType": "CollectionActivityWaypointFuncType_Default",
		"WaypointsID": [
			6,
			11
		],
		"Model": "CollectionActivityMap/Waypoint1_ABS/Icon_Christmas3_Prefab.prefab",
		"InitState": "CollectionActivityWaypointStateType_Locked",
		"ScenarioLevelIdList": [
			4,
			6,
			12,
			15,
			23
		],
		"ChallengeLevelIdList": [
			1
		],
		"LootLevelIdList": [
			4,
			15,
			16
		]
	},
	"2": {
		"ID": 2,
		"Name": "Camp",
		"Desc": "Camp",
		"FuncType": "CollectionActivityWaypointFuncType_Default",
		"WaypointsID": [
			9,
			12
		],
		"Model": "CollectionActivityMap/Waypoint1_ABS/Icon_Christmas1_Prefab.prefab",
		"InitState": "CollectionActivityWaypointStateType_Unlocked",
		"ScenarioLevelIdList": [
			1,
			8,
			9,
			16,
			19,
			22,
			26
		],
		"ChallengeLevelIdList": [
			4
		],
		"LootLevelIdList": [
			1,
			5,
			9,
			13
		]
	},
	"3": {
		"ID": 3,
		"Name": "集市",
		"Desc": "集市",
		"FuncType": "CollectionActivityWaypointFuncType_Default",
		"WaypointsID": [
			8
		],
		"Model": "CollectionActivityMap/Waypoint1_ABS/Icon_Christmas4_Prefab.prefab",
		"InitState": "CollectionActivityWaypointStateType_Locked",
		"ScenarioLevelIdList": [
			3,
			7,
			11,
			17,
			20,
			25,
			28
		],
		"ChallengeLevelIdList": [
			3
		],
		"LootLevelIdList": [
			8,
			12
		]
	},
	"4": {
		"ID": 4,
		"Name": "Eatery",
		"Desc": "Eatery",
		"FuncType": "CollectionActivityWaypointFuncType_Default",
		"WaypointsID": [
			13,
			14
		],
		"Model": "CollectionActivityMap/Waypoint1_ABS/Icon_Christmas5_Prefab.prefab",
		"InitState": "CollectionActivityWaypointStateType_Locked",
		"ScenarioLevelIdList": [
			2,
			10,
			14,
			18,
			24,
			27
		],
		"ChallengeLevelIdList": [
			5
		],
		"LootLevelIdList": [
			3,
			7,
			11
		]
	},
	"5": {
		"ID": 5,
		"Name": "Mountain Valley",
		"Desc": "Mountain Valley",
		"FuncType": "CollectionActivityWaypointFuncType_Default",
		"WaypointsID": [
			16
		],
		"Model": "CollectionActivityMap/Waypoint1_ABS/Icon_Christmas2_Prefab.prefab",
		"InitState": "CollectionActivityWaypointStateType_Locked",
		"ScenarioLevelIdList": [
			5,
			13,
			21
		],
		"ChallengeLevelIdList": [
			2
		],
		"LootLevelIdList": [
			2,
			6,
			10,
			14
		]
	},
	"6": {
		"ID": 6,
		"Name": "Waypoint 6",
		"Desc": "Waypoint 6",
		"FuncType": "CollectionActivityWaypointFuncType_Empty",
		"WaypointsID": [
			1,
			7
		],
		"Model": "CollectionActivityMap/Waypoint1_ABS/Icon-ThePlace_Prefab.prefab",
		"InitState": "CollectionActivityWaypointStateType_Unlocked"
	},
	"7": {
		"ID": 7,
		"Name": "Waypoint 7",
		"Desc": "Waypoint 7",
		"FuncType": "CollectionActivityWaypointFuncType_Empty",
		"WaypointsID": [
			6,
			8
		],
		"Model": "CollectionActivityMap/Waypoint1_ABS/Icon-ThePlace_Prefab.prefab",
		"InitState": "CollectionActivityWaypointStateType_Unlocked"
	},
	"8": {
		"ID": 8,
		"Name": "Waypoint 8",
		"Desc": "Waypoint 8",
		"FuncType": "CollectionActivityWaypointFuncType_Empty",
		"WaypointsID": [
			7,
			3
		],
		"Model": "CollectionActivityMap/Waypoint1_ABS/Icon-ThePlace_Prefab.prefab",
		"InitState": "CollectionActivityWaypointStateType_Unlocked"
	},
	"9": {
		"ID": 9,
		"Name": "路点9",
		"Desc": "路点9",
		"FuncType": "CollectionActivityWaypointFuncType_Empty",
		"WaypointsID": [
			2,
			10
		],
		"Model": "CollectionActivityMap/Waypoint1_ABS/Icon-ThePlace_Prefab.prefab",
		"InitState": "CollectionActivityWaypointStateType_Unlocked"
	},
	"10": {
		"ID": 10,
		"Name": "路点10",
		"Desc": "路点10",
		"FuncType": "CollectionActivityWaypointFuncType_Empty",
		"WaypointsID": [
			9,
			11
		],
		"Model": "CollectionActivityMap/Waypoint1_ABS/Icon-ThePlace_Prefab.prefab",
		"InitState": "CollectionActivityWaypointStateType_Unlocked"
	},
	"11": {
		"ID": 11,
		"Name": "Waypoint 11",
		"Desc": "Waypoint 11",
		"FuncType": "CollectionActivityWaypointFuncType_Empty",
		"WaypointsID": [
			10,
			1
		],
		"Model": "CollectionActivityMap/Waypoint1_ABS/Icon-ThePlace_Prefab.prefab",
		"InitState": "CollectionActivityWaypointStateType_Unlocked"
	},
	"12": {
		"ID": 12,
		"Name": "Waypoint 12",
		"Desc": "Waypoint 12",
		"FuncType": "CollectionActivityWaypointFuncType_Empty",
		"WaypointsID": [
			2,
			13
		],
		"Model": "CollectionActivityMap/Waypoint1_ABS/Icon-ThePlace_Prefab.prefab",
		"InitState": "CollectionActivityWaypointStateType_Unlocked"
	},
	"13": {
		"ID": 13,
		"Name": "Waypoint 13",
		"Desc": "Waypoint 13",
		"FuncType": "CollectionActivityWaypointFuncType_Empty",
		"WaypointsID": [
			12,
			4
		],
		"Model": "CollectionActivityMap/Waypoint1_ABS/Icon-ThePlace_Prefab.prefab",
		"InitState": "CollectionActivityWaypointStateType_Unlocked"
	},
	"14": {
		"ID": 14,
		"Name": "Waypoint 14",
		"Desc": "Waypoint 14",
		"FuncType": "CollectionActivityWaypointFuncType_Empty",
		"WaypointsID": [
			4,
			15
		],
		"Model": "CollectionActivityMap/Waypoint1_ABS/Icon-ThePlace_Prefab.prefab",
		"InitState": "CollectionActivityWaypointStateType_Unlocked"
	},
	"15": {
		"ID": 15,
		"Name": "Waypoint 15",
		"Desc": "Waypoint 15",
		"FuncType": "CollectionActivityWaypointFuncType_Empty",
		"WaypointsID": [
			14,
			16
		],
		"Model": "CollectionActivityMap/Waypoint1_ABS/Icon-ThePlace_Prefab.prefab",
		"InitState": "CollectionActivityWaypointStateType_Unlocked"
	},
	"16": {
		"ID": 16,
		"Name": "Waypoint 16",
		"Desc": "Waypoint 16",
		"FuncType": "CollectionActivityWaypointFuncType_Empty",
		"WaypointsID": [
			15,
			5
		],
		"Model": "CollectionActivityMap/Waypoint1_ABS/Icon-ThePlace_Prefab.prefab",
		"InitState": "CollectionActivityWaypointStateType_Unlocked"
	},
	"101": {
		"ID": 101,
		"Name": "Theater",
		"Desc": "Theater",
		"FuncType": "CollectionActivityWaypointFuncType_Default",
		"WaypointsID": [
			106,
			114,
			120,
			121
		],
		"Model": "CollectionActivityMap/Waypoint1_ABS/Icon_Theater_Prefab.prefab",
		"InitState": "CollectionActivityWaypointStateType_Locked",
		"ScenarioLevelIdList": [
			103,
			104,
			105,
			107
		],
		"LootLevelIdList": [
			104
		]
	},
	"102": {
		"ID": 102,
		"Name": "Guild Stronghold",
		"Desc": "Guild Stronghold",
		"FuncType": "CollectionActivityWaypointFuncType_Default",
		"WaypointsID": [
			108,
			115,
			109
		],
		"Model": "CollectionActivityMap/Waypoint1_ABS/Icon_HimladFort_Prefab.prefab",
		"InitState": "CollectionActivityWaypointStateType_Locked",
		"ScenarioLevelIdList": [
			102
		],
		"ChallengeLevelIdList": [
			101
		],
		"LootLevelIdList": [
			101,
			105,
			107
		]
	},
	"103": {
		"ID": 103,
		"Name": "Sunset Town",
		"Desc": "Sunset Town",
		"FuncType": "CollectionActivityWaypointFuncType_Default",
		"WaypointsID": [
			111,
			112
		],
		"Model": "CollectionActivityMap/Waypoint1_ABS/Icon_Tonwn_Prefab.prefab",
		"InitState": "CollectionActivityWaypointStateType_Locked",
		"ChallengeLevelIdList": [
			103
		],
		"LootLevelIdList": [
			102,
			106
		]
	},
	"104": {
		"ID": 104,
		"Name": "Dimension Door",
		"Desc": "Dimension Door",
		"FuncType": "CollectionActivityWaypointFuncType_Default",
		"WaypointsID": [
			117,
			118
		],
		"Model": "CollectionActivityMap/Waypoint1_ABS/Icon_TimeGate_Prefab.prefab",
		"InitState": "CollectionActivityWaypointStateType_Unlocked",
		"ScenarioLevelIdList": [
			101,
			106
		],
		"ChallengeLevelIdList": [
			104
		],
		"LootLevelIdList": [
			103,
			108
		]
	},
	"105": {
		"ID": 105,
		"Name": "Morning Glow Harbor",
		"Desc": "Morning Glow Harbor",
		"FuncType": "CollectionActivityWaypointFuncType_Default",
		"WaypointsID": [
			123
		],
		"Model": "CollectionActivityMap/Waypoint1_ABS/Icon_Limuliyagang_Prefab.prefab",
		"InitState": "CollectionActivityWaypointStateType_Locked",
		"ChallengeLevelIdList": [
			102,
			105
		],
		"LootLevelIdList": [
			109
		]
	},
	"106": {
		"ID": 106,
		"Name": "Waypoint 106",
		"Desc": "Waypoint 106",
		"FuncType": "CollectionActivityWaypointFuncType_Empty",
		"WaypointsID": [
			101,
			107
		],
		"Model": "CollectionActivityMap/Waypoint1_ABS/Icon-ThePlace_Prefab.prefab",
		"InitState": "CollectionActivityWaypointStateType_Unlocked"
	},
	"107": {
		"ID": 107,
		"Name": "Waypoint 107",
		"Desc": "Waypoint 107",
		"FuncType": "CollectionActivityWaypointFuncType_Empty",
		"WaypointsID": [
			106,
			108
		],
		"Model": "CollectionActivityMap/Waypoint1_ABS/Icon-ThePlace_Prefab.prefab",
		"InitState": "CollectionActivityWaypointStateType_Unlocked"
	},
	"108": {
		"ID": 108,
		"Name": "Waypoint 108",
		"Desc": "Waypoint 108",
		"FuncType": "CollectionActivityWaypointFuncType_Empty",
		"WaypointsID": [
			107,
			102
		],
		"Model": "CollectionActivityMap/Waypoint1_ABS/Icon-ThePlace_Prefab.prefab",
		"InitState": "CollectionActivityWaypointStateType_Unlocked"
	},
	"109": {
		"ID": 109,
		"Name": "Waypoint 109",
		"Desc": "Waypoint 109",
		"FuncType": "CollectionActivityWaypointFuncType_Empty",
		"WaypointsID": [
			102,
			110
		],
		"Model": "CollectionActivityMap/Waypoint1_ABS/Icon-ThePlace_Prefab.prefab",
		"InitState": "CollectionActivityWaypointStateType_Unlocked"
	},
	"110": {
		"ID": 110,
		"Name": "Waypoint 110",
		"Desc": "Waypoint 110",
		"FuncType": "CollectionActivityWaypointFuncType_Empty",
		"WaypointsID": [
			109,
			111
		],
		"Model": "CollectionActivityMap/Waypoint1_ABS/Icon-ThePlace_Prefab.prefab",
		"InitState": "CollectionActivityWaypointStateType_Unlocked"
	},
	"111": {
		"ID": 111,
		"Name": "Waypoint 111",
		"Desc": "Waypoint 111",
		"FuncType": "CollectionActivityWaypointFuncType_Empty",
		"WaypointsID": [
			103,
			110
		],
		"Model": "CollectionActivityMap/Waypoint1_ABS/Icon-ThePlace_Prefab.prefab",
		"InitState": "CollectionActivityWaypointStateType_Unlocked"
	},
	"112": {
		"ID": 112,
		"Name": "Waypoint 112",
		"Desc": "Waypoint 112",
		"FuncType": "CollectionActivityWaypointFuncType_Empty",
		"WaypointsID": [
			103,
			113
		],
		"Model": "CollectionActivityMap/Waypoint1_ABS/Icon-ThePlace_Prefab.prefab",
		"InitState": "CollectionActivityWaypointStateType_Unlocked"
	},
	"113": {
		"ID": 113,
		"Name": "Waypoint 113",
		"Desc": "Waypoint 113",
		"FuncType": "CollectionActivityWaypointFuncType_Empty",
		"WaypointsID": [
			112,
			114
		],
		"Model": "CollectionActivityMap/Waypoint1_ABS/Icon-ThePlace_Prefab.prefab",
		"InitState": "CollectionActivityWaypointStateType_Unlocked"
	},
	"114": {
		"ID": 114,
		"Name": "Waypoint 114",
		"Desc": "Waypoint 114",
		"FuncType": "CollectionActivityWaypointFuncType_Empty",
		"WaypointsID": [
			113,
			101
		],
		"Model": "CollectionActivityMap/Waypoint1_ABS/Icon-ThePlace_Prefab.prefab",
		"InitState": "CollectionActivityWaypointStateType_Unlocked"
	},
	"115": {
		"ID": 115,
		"Name": "Waypoint 115",
		"Desc": "Waypoint 115",
		"FuncType": "CollectionActivityWaypointFuncType_Empty",
		"WaypointsID": [
			102,
			116
		],
		"Model": "CollectionActivityMap/Waypoint1_ABS/Icon-ThePlace_Prefab.prefab",
		"InitState": "CollectionActivityWaypointStateType_Unlocked"
	},
	"116": {
		"ID": 116,
		"Name": "Waypoint 116",
		"Desc": "Waypoint 116",
		"FuncType": "CollectionActivityWaypointFuncType_Empty",
		"WaypointsID": [
			115,
			117
		],
		"Model": "CollectionActivityMap/Waypoint1_ABS/Icon-ThePlace_Prefab.prefab",
		"InitState": "CollectionActivityWaypointStateType_Unlocked"
	},
	"117": {
		"ID": 117,
		"Name": "Waypoint 117",
		"Desc": "Waypoint 117",
		"FuncType": "CollectionActivityWaypointFuncType_Empty",
		"WaypointsID": [
			116,
			104
		],
		"Model": "CollectionActivityMap/Waypoint1_ABS/Icon-ThePlace_Prefab.prefab",
		"InitState": "CollectionActivityWaypointStateType_Unlocked"
	},
	"118": {
		"ID": 118,
		"Name": "Waypoint 118",
		"Desc": "Waypoint 118",
		"FuncType": "CollectionActivityWaypointFuncType_Empty",
		"WaypointsID": [
			104,
			119
		],
		"Model": "CollectionActivityMap/Waypoint1_ABS/Icon-ThePlace_Prefab.prefab",
		"InitState": "CollectionActivityWaypointStateType_Unlocked"
	},
	"119": {
		"ID": 119,
		"Name": "Waypoint 119",
		"Desc": "Waypoint 119",
		"FuncType": "CollectionActivityWaypointFuncType_Empty",
		"WaypointsID": [
			118,
			120
		],
		"Model": "CollectionActivityMap/Waypoint1_ABS/Icon-ThePlace_Prefab.prefab",
		"InitState": "CollectionActivityWaypointStateType_Unlocked"
	},
	"120": {
		"ID": 120,
		"Name": "Waypoint 120",
		"Desc": "Waypoint 120",
		"FuncType": "CollectionActivityWaypointFuncType_Empty",
		"WaypointsID": [
			119,
			101
		],
		"Model": "CollectionActivityMap/Waypoint1_ABS/Icon-ThePlace_Prefab.prefab",
		"InitState": "CollectionActivityWaypointStateType_Unlocked"
	},
	"121": {
		"ID": 121,
		"Name": "Waypoint 121",
		"Desc": "Waypoint 121",
		"FuncType": "CollectionActivityWaypointFuncType_Empty",
		"WaypointsID": [
			101,
			122
		],
		"Model": "CollectionActivityMap/Waypoint1_ABS/Icon-ThePlace_Prefab.prefab",
		"InitState": "CollectionActivityWaypointStateType_Unlocked"
	},
	"122": {
		"ID": 122,
		"Name": "Waypoint 122",
		"Desc": "Waypoint 122",
		"FuncType": "CollectionActivityWaypointFuncType_Empty",
		"WaypointsID": [
			121,
			123
		],
		"Model": "CollectionActivityMap/Waypoint1_ABS/Icon-ThePlace_Prefab.prefab",
		"InitState": "CollectionActivityWaypointStateType_Unlocked"
	},
	"123": {
		"ID": 123,
		"Name": "Waypoint 123",
		"Desc": "Waypoint 123",
		"FuncType": "CollectionActivityWaypointFuncType_Empty",
		"WaypointsID": [
			122,
			105
		],
		"Model": "CollectionActivityMap/Waypoint1_ABS/Icon-ThePlace_Prefab.prefab",
		"InitState": "CollectionActivityWaypointStateType_Unlocked"
	},
	"201": {
		"ID": 201,
		"Name": "Airport",
		"Desc": "",
		"FuncType": "CollectionActivityWaypointFuncType_Default",
		"WaypointsID": [
			206,
			210
		],
		"Model": "CollectionActivityMap/Waypoint1_ABS/Icon_Airport_Prefab.prefab",
		"InitState": "CollectionActivityWaypointStateType_Unlocked",
		"ScenarioLevelIdList": [
			201
		],
		"ChallengeLevelIdList": [
			205
		],
		"LootLevelIdList": [
			201,
			204,
			207
		]
	},
	"202": {
		"ID": 202,
		"Name": "Residential Area",
		"Desc": "",
		"FuncType": "CollectionActivityWaypointFuncType_Default",
		"WaypointsID": [
			213,
			209
		],
		"Model": "CollectionActivityMap/Waypoint1_ABS/Icon_ResidentialArea_Prefab.prefab",
		"InitState": "CollectionActivityWaypointStateType_Locked",
		"ScenarioLevelIdList": [
			202
		],
		"ChallengeLevelIdList": [
			201
		],
		"LootLevelIdList": [
			203
		]
	},
	"203": {
		"ID": 203,
		"Name": "War Preparation Zone",
		"Desc": "",
		"FuncType": "CollectionActivityWaypointFuncType_Default",
		"WaypointsID": [
			212,
			216,
			217
		],
		"Model": "CollectionActivityMap/Waypoint1_ABS/Icon_WarArea_Prefab.prefab",
		"InitState": "CollectionActivityWaypointStateType_Locked",
		"ScenarioLevelIdList": [
			203,
			205
		],
		"ChallengeLevelIdList": [
			203
		],
		"LootLevelIdList": [
			205,
			209
		]
	},
	"204": {
		"ID": 204,
		"Name": "Ancient Hangar",
		"Desc": "",
		"FuncType": "CollectionActivityWaypointFuncType_Default",
		"WaypointsID": [
			219,
			215,
			214
		],
		"Model": "CollectionActivityMap/Waypoint1_ABS/Icon_OldHangar_Prefab.prefab",
		"InitState": "CollectionActivityWaypointStateType_Locked",
		"ScenarioLevelIdList": [
			204
		],
		"ChallengeLevelIdList": [
			204
		],
		"LootLevelIdList": [
			202,
			206
		]
	},
	"205": {
		"ID": 205,
		"Name": "Power Core",
		"Desc": "",
		"FuncType": "CollectionActivityWaypointFuncType_Default",
		"WaypointsID": [
			216,
			215
		],
		"Model": "CollectionActivityMap/Waypoint1_ABS/Icon_PowerCore_Prefab.prefab",
		"InitState": "CollectionActivityWaypointStateType_Locked",
		"ScenarioLevelIdList": [
			206,
			207
		],
		"ChallengeLevelIdList": [
			202
		],
		"LootLevelIdList": [
			208
		]
	},
	"206": {
		"ID": 206,
		"Name": "Waypoint 206",
		"Desc": "",
		"FuncType": "CollectionActivityWaypointFuncType_Empty",
		"WaypointsID": [
			201,
			207
		],
		"Model": "CollectionActivityMap/Waypoint1_ABS/Icon-ThePlace_Prefab.prefab",
		"InitState": "CollectionActivityWaypointStateType_Unlocked"
	},
	"207": {
		"ID": 207,
		"Name": "Waypoint 207",
		"Desc": "",
		"FuncType": "CollectionActivityWaypointFuncType_Empty",
		"WaypointsID": [
			206,
			208
		],
		"Model": "CollectionActivityMap/Waypoint1_ABS/Icon-ThePlace_Prefab.prefab",
		"InitState": "CollectionActivityWaypointStateType_Unlocked"
	},
	"208": {
		"ID": 208,
		"Name": "Waypoint 208",
		"Desc": "",
		"FuncType": "CollectionActivityWaypointFuncType_Empty",
		"WaypointsID": [
			207,
			209
		],
		"Model": "CollectionActivityMap/Waypoint1_ABS/Icon-ThePlace_Prefab.prefab",
		"InitState": "CollectionActivityWaypointStateType_Unlocked"
	},
	"209": {
		"ID": 209,
		"Name": "Waypoint 209",
		"Desc": "",
		"FuncType": "CollectionActivityWaypointFuncType_Empty",
		"WaypointsID": [
			208,
			202
		],
		"Model": "CollectionActivityMap/Waypoint1_ABS/Icon-ThePlace_Prefab.prefab",
		"InitState": "CollectionActivityWaypointStateType_Unlocked"
	},
	"210": {
		"ID": 210,
		"Name": "Waypoint 210",
		"Desc": "",
		"FuncType": "CollectionActivityWaypointFuncType_Empty",
		"WaypointsID": [
			201,
			211
		],
		"Model": "CollectionActivityMap/Waypoint1_ABS/Icon-ThePlace_Prefab.prefab",
		"InitState": "CollectionActivityWaypointStateType_Unlocked"
	},
	"211": {
		"ID": 211,
		"Name": "Waypoint 211",
		"Desc": "",
		"FuncType": "CollectionActivityWaypointFuncType_Empty",
		"WaypointsID": [
			210,
			212
		],
		"Model": "CollectionActivityMap/Waypoint1_ABS/Icon-ThePlace_Prefab.prefab",
		"InitState": "CollectionActivityWaypointStateType_Unlocked"
	},
	"212": {
		"ID": 212,
		"Name": "Waypoint 212",
		"Desc": "",
		"FuncType": "CollectionActivityWaypointFuncType_Empty",
		"WaypointsID": [
			211,
			203
		],
		"Model": "CollectionActivityMap/Waypoint1_ABS/Icon-ThePlace_Prefab.prefab",
		"InitState": "CollectionActivityWaypointStateType_Unlocked"
	},
	"213": {
		"ID": 213,
		"Name": "Waypoint 213",
		"Desc": "",
		"FuncType": "CollectionActivityWaypointFuncType_Empty",
		"WaypointsID": [
			202,
			214
		],
		"Model": "CollectionActivityMap/Waypoint1_ABS/Icon-ThePlace_Prefab.prefab",
		"InitState": "CollectionActivityWaypointStateType_Unlocked"
	},
	"214": {
		"ID": 214,
		"Name": "Waypoint 214",
		"Desc": "",
		"FuncType": "CollectionActivityWaypointFuncType_Empty",
		"WaypointsID": [
			213,
			204
		],
		"Model": "CollectionActivityMap/Waypoint1_ABS/Icon-ThePlace_Prefab.prefab",
		"InitState": "CollectionActivityWaypointStateType_Unlocked"
	},
	"215": {
		"ID": 215,
		"Name": "Waypoint 215",
		"Desc": "",
		"FuncType": "CollectionActivityWaypointFuncType_Empty",
		"WaypointsID": [
			204,
			205
		],
		"Model": "CollectionActivityMap/Waypoint1_ABS/Icon-ThePlace_Prefab.prefab",
		"InitState": "CollectionActivityWaypointStateType_Unlocked"
	},
	"216": {
		"ID": 216,
		"Name": "Waypoint 216",
		"Desc": "",
		"FuncType": "CollectionActivityWaypointFuncType_Empty",
		"WaypointsID": [
			203,
			205
		],
		"Model": "CollectionActivityMap/Waypoint1_ABS/Icon-ThePlace_Prefab.prefab",
		"InitState": "CollectionActivityWaypointStateType_Unlocked"
	},
	"217": {
		"ID": 217,
		"Name": "Waypoint 217",
		"Desc": "",
		"FuncType": "CollectionActivityWaypointFuncType_Empty",
		"WaypointsID": [
			203,
			218
		],
		"Model": "CollectionActivityMap/Waypoint1_ABS/Icon-ThePlace_Prefab.prefab",
		"InitState": "CollectionActivityWaypointStateType_Unlocked"
	},
	"218": {
		"ID": 218,
		"Name": "Waypoint 218",
		"Desc": "",
		"FuncType": "CollectionActivityWaypointFuncType_Empty",
		"WaypointsID": [
			217,
			219
		],
		"Model": "CollectionActivityMap/Waypoint1_ABS/Icon-ThePlace_Prefab.prefab",
		"InitState": "CollectionActivityWaypointStateType_Unlocked"
	},
	"219": {
		"ID": 219,
		"Name": "Waypoint 219",
		"Desc": "",
		"FuncType": "CollectionActivityWaypointFuncType_Empty",
		"WaypointsID": [
			204,
			218
		],
		"Model": "CollectionActivityMap/Waypoint1_ABS/Icon-ThePlace_Prefab.prefab",
		"InitState": "CollectionActivityWaypointStateType_Unlocked"
	},
	"301": {
		"ID": 301,
		"Name": "霸道",
		"Desc": "",
		"FuncType": "CollectionActivityWaypointFuncType_Default",
		"WaypointsID": [
			302
		],
		"Model": "CollectionActivityMap/Waypoint1_ABS/Icon_StroySP01_Prefab.prefab",
		"InitState": "CollectionActivityWaypointStateType_Unlocked",
		"ScenarioLevelIdList": [
			301
		],
		"LootLevelIdList": [
			301
		]
	},
	"302": {
		"ID": 302,
		"Name": "帝王巴恩哈特",
		"Desc": "",
		"FuncType": "CollectionActivityWaypointFuncType_Default",
		"WaypointsID": [
			301,
			316
		],
		"Model": "CollectionActivityMap/Waypoint1_ABS/Icon_StroySP02_Prefab.prefab",
		"InitState": "CollectionActivityWaypointStateType_Locked",
		"ScenarioLevelIdList": [
			302
		],
		"LootLevelIdList": [
			302
		]
	},
	"303": {
		"ID": 303,
		"Name": "背信弃义",
		"Desc": "",
		"FuncType": "CollectionActivityWaypointFuncType_Default",
		"WaypointsID": [
			316,
			317
		],
		"Model": "CollectionActivityMap/Waypoint1_ABS/Icon_StroySP03_Prefab.prefab",
		"InitState": "CollectionActivityWaypointStateType_Locked",
		"ScenarioLevelIdList": [
			303
		],
		"LootLevelIdList": [
			303
		]
	},
	"304": {
		"ID": 304,
		"Name": "卡尔萨斯的陷落",
		"Desc": "",
		"FuncType": "CollectionActivityWaypointFuncType_Default",
		"WaypointsID": [
			317,
			318
		],
		"Model": "CollectionActivityMap/Waypoint1_ABS/Icon_StroySP04_Prefab.prefab",
		"InitState": "CollectionActivityWaypointStateType_Locked",
		"ScenarioLevelIdList": [
			304
		],
		"LootLevelIdList": [
			304
		]
	},
	"305": {
		"ID": 305,
		"Name": "真魔剑阿鲁哈萨托",
		"Desc": "",
		"FuncType": "CollectionActivityWaypointFuncType_Default",
		"WaypointsID": [
			319,
			320,
			322
		],
		"Model": "CollectionActivityMap/Waypoint1_ABS/Icon_StroySP05_Prefab.prefab",
		"InitState": "CollectionActivityWaypointStateType_Locked",
		"ScenarioLevelIdList": [
			305
		],
		"LootLevelIdList": [
			305
		]
	},
	"306": {
		"ID": 306,
		"Name": "帝国最后之日",
		"Desc": "",
		"FuncType": "CollectionActivityWaypointFuncType_Default",
		"WaypointsID": [
			320,
			321
		],
		"Model": "CollectionActivityMap/Waypoint1_ABS/Icon_StroySP11_Prefab.prefab",
		"InitState": "CollectionActivityWaypointStateType_Locked",
		"ChallengeLevelIdList": [
			301
		]
	},
	"307": {
		"ID": 307,
		"Name": "暗之传说",
		"Desc": "",
		"FuncType": "CollectionActivityWaypointFuncType_Default",
		"WaypointsID": [
			321
		],
		"Model": "CollectionActivityMap/Waypoint1_ABS/Icon_StroySP12_Prefab.prefab",
		"InitState": "CollectionActivityWaypointStateType_Locked",
		"ChallengeLevelIdList": [
			302
		]
	},
	"308": {
		"ID": 308,
		"Name": "霸者的道路",
		"Desc": "",
		"FuncType": "CollectionActivityWaypointFuncType_Default",
		"WaypointsID": [
			323,
			324
		],
		"Model": "CollectionActivityMap/Waypoint1_ABS/Icon_StroySP06_Prefab.prefab",
		"InitState": "CollectionActivityWaypointStateType_Locked",
		"ScenarioLevelIdList": [
			306
		],
		"LootLevelIdList": [
			306
		]
	},
	"309": {
		"ID": 309,
		"Name": "青龙的怒火",
		"Desc": "",
		"FuncType": "CollectionActivityWaypointFuncType_Default",
		"WaypointsID": [
			324,
			310
		],
		"Model": "CollectionActivityMap/Waypoint1_ABS/Icon_StroySP07_Prefab.prefab",
		"InitState": "CollectionActivityWaypointStateType_Locked",
		"ScenarioLevelIdList": [
			307
		],
		"LootLevelIdList": [
			307
		]
	},
	"310": {
		"ID": 310,
		"Name": "皇帝巴恩哈特",
		"Desc": "",
		"FuncType": "CollectionActivityWaypointFuncType_Default",
		"WaypointsID": [
			309,
			325,
			329
		],
		"Model": "CollectionActivityMap/Waypoint1_ABS/Icon_StroySP08_Prefab.prefab",
		"InitState": "CollectionActivityWaypointStateType_Locked",
		"ScenarioLevelIdList": [
			308
		],
		"LootLevelIdList": [
			308
		]
	},
	"311": {
		"ID": 311,
		"Name": "赶尽杀绝",
		"Desc": "",
		"FuncType": "CollectionActivityWaypointFuncType_Default",
		"WaypointsID": [
			326,
			327
		],
		"Model": "CollectionActivityMap/Waypoint1_ABS/Icon_StroySP09_Prefab.prefab",
		"InitState": "CollectionActivityWaypointStateType_Locked",
		"ScenarioLevelIdList": [
			309
		],
		"LootLevelIdList": [
			309
		]
	},
	"312": {
		"ID": 312,
		"Name": "孤独之王",
		"Desc": "",
		"FuncType": "CollectionActivityWaypointFuncType_Default",
		"WaypointsID": [
			328,
			313
		],
		"Model": "CollectionActivityMap/Waypoint1_ABS/Icon_StroySP10_Prefab.prefab",
		"InitState": "CollectionActivityWaypointStateType_Locked",
		"ScenarioLevelIdList": [
			310
		]
	},
	"313": {
		"ID": 313,
		"Name": "无光的挽歌",
		"Desc": "",
		"FuncType": "CollectionActivityWaypointFuncType_Default",
		"WaypointsID": [
			312
		],
		"Model": "CollectionActivityMap/Waypoint1_ABS/Icon_StroySP15_Prefab.prefab",
		"InitState": "CollectionActivityWaypointStateType_Locked",
		"ChallengeLevelIdList": [
			305
		]
	},
	"314": {
		"ID": 314,
		"Name": "神的遗迹",
		"Desc": "",
		"FuncType": "CollectionActivityWaypointFuncType_Default",
		"WaypointsID": [
			329,
			315
		],
		"Model": "CollectionActivityMap/Waypoint1_ABS/Icon_StroySP13_Prefab.prefab",
		"InitState": "CollectionActivityWaypointStateType_Locked",
		"ChallengeLevelIdList": [
			303
		]
	},
	"315": {
		"ID": 315,
		"Name": "新的荣光",
		"Desc": "",
		"FuncType": "CollectionActivityWaypointFuncType_Default",
		"WaypointsID": [
			314
		],
		"Model": "CollectionActivityMap/Waypoint1_ABS/Icon_StroySP14_Prefab.prefab",
		"InitState": "CollectionActivityWaypointStateType_Locked",
		"ChallengeLevelIdList": [
			304
		]
	},
	"316": {
		"ID": 316,
		"Name": "",
		"Desc": "",
		"FuncType": "CollectionActivityWaypointFuncType_Empty",
		"WaypointsID": [
			302,
			303
		],
		"Model": "",
		"InitState": "CollectionActivityWaypointStateType_Unlocked"
	},
	"317": {
		"ID": 317,
		"Name": "",
		"Desc": "",
		"FuncType": "CollectionActivityWaypointFuncType_Empty",
		"WaypointsID": [
			303,
			304
		],
		"Model": "",
		"InitState": "CollectionActivityWaypointStateType_Unlocked"
	},
	"318": {
		"ID": 318,
		"Name": "",
		"Desc": "",
		"FuncType": "CollectionActivityWaypointFuncType_Empty",
		"WaypointsID": [
			304,
			319
		],
		"Model": "",
		"InitState": "CollectionActivityWaypointStateType_Unlocked"
	},
	"319": {
		"ID": 319,
		"Name": "",
		"Desc": "",
		"FuncType": "CollectionActivityWaypointFuncType_Empty",
		"WaypointsID": [
			318,
			305
		],
		"Model": "",
		"InitState": "CollectionActivityWaypointStateType_Unlocked"
	},
	"320": {
		"ID": 320,
		"Name": "",
		"Desc": "",
		"FuncType": "CollectionActivityWaypointFuncType_Empty",
		"WaypointsID": [
			305,
			306
		],
		"Model": "",
		"InitState": "CollectionActivityWaypointStateType_Unlocked"
	},
	"321": {
		"ID": 321,
		"Name": "",
		"Desc": "",
		"FuncType": "CollectionActivityWaypointFuncType_Empty",
		"WaypointsID": [
			306,
			307
		],
		"Model": "",
		"InitState": "CollectionActivityWaypointStateType_Unlocked"
	},
	"322": {
		"ID": 322,
		"Name": "",
		"Desc": "",
		"FuncType": "CollectionActivityWaypointFuncType_Empty",
		"WaypointsID": [
			305,
			323
		],
		"Model": "",
		"InitState": "CollectionActivityWaypointStateType_Unlocked"
	},
	"323": {
		"ID": 323,
		"Name": "",
		"Desc": "",
		"FuncType": "CollectionActivityWaypointFuncType_Empty",
		"WaypointsID": [
			322,
			308
		],
		"Model": "",
		"InitState": "CollectionActivityWaypointStateType_Unlocked"
	},
	"324": {
		"ID": 324,
		"Name": "",
		"Desc": "",
		"FuncType": "CollectionActivityWaypointFuncType_Empty",
		"WaypointsID": [
			308,
			309
		],
		"Model": "",
		"InitState": "CollectionActivityWaypointStateType_Unlocked"
	},
	"325": {
		"ID": 325,
		"Name": "",
		"Desc": "",
		"FuncType": "CollectionActivityWaypointFuncType_Empty",
		"WaypointsID": [
			310,
			326
		],
		"Model": "",
		"InitState": "CollectionActivityWaypointStateType_Unlocked"
	},
	"326": {
		"ID": 326,
		"Name": "",
		"Desc": "",
		"FuncType": "CollectionActivityWaypointFuncType_Empty",
		"WaypointsID": [
			325,
			311
		],
		"Model": "",
		"InitState": "CollectionActivityWaypointStateType_Unlocked"
	},
	"327": {
		"ID": 327,
		"Name": "",
		"Desc": "",
		"FuncType": "CollectionActivityWaypointFuncType_Empty",
		"WaypointsID": [
			328,
			311
		],
		"Model": "",
		"InitState": "CollectionActivityWaypointStateType_Unlocked"
	},
	"328": {
		"ID": 328,
		"Name": "",
		"Desc": "",
		"FuncType": "CollectionActivityWaypointFuncType_Empty",
		"WaypointsID": [
			327,
			312
		],
		"Model": "",
		"InitState": "CollectionActivityWaypointStateType_Unlocked"
	},
	"329": {
		"ID": 329,
		"Name": "",
		"Desc": "",
		"FuncType": "CollectionActivityWaypointFuncType_Empty",
		"WaypointsID": [
			310,
			314
		],
		"Model": "",
		"InitState": "CollectionActivityWaypointStateType_Unlocked"
	},
	"401": {
		"ID": 401,
		"Name": "出击",
		"Desc": "",
		"FuncType": "CollectionActivityWaypointFuncType_Default",
		"WaypointsID": [
			410
		],
		"Model": "CollectionActivityMap/Waypoint1_ABS/Icon-ThePlace1_Prefab.prefab",
		"InitState": "CollectionActivityWaypointStateType_Unlocked",
		"ScenarioLevelIdList": [
			401,
			402,
			403,
			404,
			405,
			406,
			407
		]
	},
	"402": {
		"ID": 402,
		"Name": "初级训练",
		"Desc": "",
		"FuncType": "CollectionActivityWaypointFuncType_Default",
		"WaypointsID": [
			415
		],
		"Model": "CollectionActivityMap/Waypoint1_ABS/Icon-ThePlace1_Prefab.prefab",
		"InitState": "CollectionActivityWaypointStateType_Unlocked",
		"LootLevelIdList": [
			401,
			402,
			403,
			404,
			405,
			406,
			407,
			408
		]
	},
	"403": {
		"ID": 403,
		"Name": "高级训练",
		"Desc": "",
		"FuncType": "CollectionActivityWaypointFuncType_Default",
		"WaypointsID": [
			418,
			419
		],
		"Model": "CollectionActivityMap/Waypoint1_ABS/Icon-ThePlace1_Prefab.prefab",
		"InitState": "CollectionActivityWaypointStateType_Unlocked",
		"LootLevelIdList": [
			409,
			410,
			411,
			412,
			413,
			414,
			415,
			416
		]
	},
	"404": {
		"ID": 404,
		"Name": "挑战",
		"Desc": "",
		"FuncType": "CollectionActivityWaypointFuncType_Default",
		"WaypointsID": [
			429
		],
		"Model": "CollectionActivityMap/Waypoint1_ABS/Icon-ThePlace1_Prefab.prefab",
		"InitState": "CollectionActivityWaypointStateType_Unlocked",
		"ChallengeLevelIdList": [
			401,
			402,
			403,
			404,
			405,
			406,
			407
		]
	},
	"410": {
		"ID": 410,
		"Name": "",
		"Desc": "",
		"FuncType": "CollectionActivityWaypointFuncType_Event",
		"WaypointsID": [
			411,
			401,
			413
		],
		"Model": "CollectionActivityMap/Waypoint1_ABS/Icon-ThePlace1_Prefab.prefab",
		"InitState": "CollectionActivityWaypointStateType_Unlocked"
	},
	"411": {
		"ID": 411,
		"Name": "",
		"Desc": "",
		"FuncType": "CollectionActivityWaypointFuncType_Event",
		"WaypointsID": [
			410,
			412
		],
		"Model": "CollectionActivityMap/Waypoint1_ABS/Icon-ThePlace1_Prefab.prefab",
		"InitState": "CollectionActivityWaypointStateType_Unlocked"
	},
	"412": {
		"ID": 412,
		"Name": "",
		"Desc": "",
		"FuncType": "CollectionActivityWaypointFuncType_Event",
		"WaypointsID": [
			411
		],
		"Model": "",
		"InitState": "CollectionActivityWaypointStateType_Unlocked",
		"EventIdList": [
			1,
			4,
			8
		]
	},
	"413": {
		"ID": 413,
		"Name": "",
		"Desc": "",
		"FuncType": "CollectionActivityWaypointFuncType_Event",
		"WaypointsID": [
			410,
			414
		],
		"Model": "CollectionActivityMap/Waypoint1_ABS/Icon-ThePlace1_Prefab.prefab",
		"InitState": "CollectionActivityWaypointStateType_Unlocked"
	},
	"414": {
		"ID": 414,
		"Name": "",
		"Desc": "",
		"FuncType": "CollectionActivityWaypointFuncType_Event",
		"WaypointsID": [
			413,
			415
		],
		"Model": "CollectionActivityMap/Waypoint1_ABS/Icon-ThePlace1_Prefab.prefab",
		"InitState": "CollectionActivityWaypointStateType_Unlocked"
	},
	"415": {
		"ID": 415,
		"Name": "",
		"Desc": "",
		"FuncType": "CollectionActivityWaypointFuncType_Event",
		"WaypointsID": [
			416,
			402,
			414
		],
		"Model": "CollectionActivityMap/Waypoint1_ABS/Icon-ThePlace1_Prefab.prefab",
		"InitState": "CollectionActivityWaypointStateType_Unlocked"
	},
	"416": {
		"ID": 416,
		"Name": "",
		"Desc": "",
		"FuncType": "CollectionActivityWaypointFuncType_Event",
		"WaypointsID": [
			417,
			418,
			415
		],
		"Model": "CollectionActivityMap/Waypoint1_ABS/Icon-ThePlace1_Prefab.prefab",
		"InitState": "CollectionActivityWaypointStateType_Unlocked"
	},
	"417": {
		"ID": 417,
		"Name": "",
		"Desc": "",
		"FuncType": "CollectionActivityWaypointFuncType_Event",
		"WaypointsID": [
			416,
			418
		],
		"Model": "",
		"InitState": "CollectionActivityWaypointStateType_Unlocked",
		"EventIdList": [
			5,
			11
		]
	},
	"418": {
		"ID": 418,
		"Name": "",
		"Desc": "",
		"FuncType": "CollectionActivityWaypointFuncType_Event",
		"WaypointsID": [
			416,
			419,
			403,
			417
		],
		"Model": "CollectionActivityMap/Waypoint1_ABS/Icon-ThePlace1_Prefab.prefab",
		"InitState": "CollectionActivityWaypointStateType_Unlocked"
	},
	"419": {
		"ID": 419,
		"Name": "",
		"Desc": "",
		"FuncType": "CollectionActivityWaypointFuncType_Event",
		"WaypointsID": [
			418,
			403,
			420,
			422
		],
		"Model": "CollectionActivityMap/Waypoint1_ABS/Icon-ThePlace1_Prefab.prefab",
		"InitState": "CollectionActivityWaypointStateType_Unlocked",
		"EventIdList": [
			2
		]
	},
	"420": {
		"ID": 420,
		"Name": "",
		"Desc": "",
		"FuncType": "CollectionActivityWaypointFuncType_Event",
		"WaypointsID": [
			421,
			419
		],
		"Model": "CollectionActivityMap/Waypoint1_ABS/Icon-ThePlace1_Prefab.prefab",
		"InitState": "CollectionActivityWaypointStateType_Unlocked",
		"EventIdList": [
			6
		]
	},
	"421": {
		"ID": 421,
		"Name": "",
		"Desc": "",
		"FuncType": "CollectionActivityWaypointFuncType_Event",
		"WaypointsID": [
			420
		],
		"Model": "",
		"InitState": "CollectionActivityWaypointStateType_Unlocked",
		"EventIdList": [
			7,
			12
		]
	},
	"422": {
		"ID": 422,
		"Name": "",
		"Desc": "",
		"FuncType": "CollectionActivityWaypointFuncType_Event",
		"WaypointsID": [
			419,
			423
		],
		"Model": "CollectionActivityMap/Waypoint1_ABS/Icon-ThePlace1_Prefab.prefab",
		"InitState": "CollectionActivityWaypointStateType_Unlocked"
	},
	"423": {
		"ID": 423,
		"Name": "",
		"Desc": "",
		"FuncType": "CollectionActivityWaypointFuncType_Event",
		"WaypointsID": [
			422,
			424
		],
		"Model": "CollectionActivityMap/Waypoint1_ABS/Icon-ThePlace1_Prefab.prefab",
		"InitState": "CollectionActivityWaypointStateType_Unlocked"
	},
	"424": {
		"ID": 424,
		"Name": "",
		"Desc": "",
		"FuncType": "CollectionActivityWaypointFuncType_Event",
		"WaypointsID": [
			423,
			425
		],
		"Model": "CollectionActivityMap/Waypoint1_ABS/Icon-ThePlace1_Prefab.prefab",
		"InitState": "CollectionActivityWaypointStateType_Unlocked"
	},
	"425": {
		"ID": 425,
		"Name": "",
		"Desc": "",
		"FuncType": "CollectionActivityWaypointFuncType_Event",
		"WaypointsID": [
			424,
			426,
			427
		],
		"Model": "CollectionActivityMap/Waypoint1_ABS/Icon-ThePlace1_Prefab.prefab",
		"InitState": "CollectionActivityWaypointStateType_Unlocked"
	},
	"426": {
		"ID": 426,
		"Name": "",
		"Desc": "",
		"FuncType": "CollectionActivityWaypointFuncType_Event",
		"WaypointsID": [
			425
		],
		"Model": "",
		"InitState": "CollectionActivityWaypointStateType_Unlocked",
		"EventIdList": [
			13
		]
	},
	"427": {
		"ID": 427,
		"Name": "",
		"Desc": "",
		"FuncType": "CollectionActivityWaypointFuncType_Event",
		"WaypointsID": [
			425,
			428
		],
		"Model": "CollectionActivityMap/Waypoint1_ABS/Icon-ThePlace1_Prefab.prefab",
		"InitState": "CollectionActivityWaypointStateType_Unlocked"
	},
	"428": {
		"ID": 428,
		"Name": "",
		"Desc": "",
		"FuncType": "CollectionActivityWaypointFuncType_Event",
		"WaypointsID": [
			427,
			429
		],
		"Model": "CollectionActivityMap/Waypoint1_ABS/Icon-ThePlace1_Prefab.prefab",
		"InitState": "CollectionActivityWaypointStateType_Unlocked",
		"EventIdList": [
			9
		]
	},
	"429": {
		"ID": 429,
		"Name": "",
		"Desc": "",
		"FuncType": "CollectionActivityWaypointFuncType_Event",
		"WaypointsID": [
			404,
			428,
			430
		],
		"Model": "CollectionActivityMap/Waypoint1_ABS/Icon-ThePlace1_Prefab.prefab",
		"InitState": "CollectionActivityWaypointStateType_Unlocked"
	},
	"430": {
		"ID": 430,
		"Name": "",
		"Desc": "",
		"FuncType": "CollectionActivityWaypointFuncType_Event",
		"WaypointsID": [
			429,
			431
		],
		"Model": "CollectionActivityMap/Waypoint1_ABS/Icon-ThePlace1_Prefab.prefab",
		"InitState": "CollectionActivityWaypointStateType_Unlocked",
		"EventIdList": [
			10
		]
	},
	"431": {
		"ID": 431,
		"Name": "",
		"Desc": "",
		"FuncType": "CollectionActivityWaypointFuncType_Event",
		"WaypointsID": [
			430
		],
		"Model": "",
		"InitState": "CollectionActivityWaypointStateType_Unlocked",
		"EventIdList": [
			3
		]
	},
	"501": {
		"ID": 501,
		"Name": "第七音符",
		"Desc": "",
		"FuncType": "CollectionActivityWaypointFuncType_Default",
		"WaypointsID": [
			502,
			503,
			504,
			505,
			506,
			507
		],
		"Model": "CollectionActivityMap/Waypoint1_ABS/Icon_Music7_Prefab.prefab",
		"InitState": "CollectionActivityWaypointStateType_Unlocked",
		"ScenarioLevelIdList": [
			501,
			508
		],
		"ChallengeLevelIdList": [
			505
		],
		"LootLevelIdList": [
			501,
			504,
			507
		]
	},
	"502": {
		"ID": 502,
		"Name": "第一音符",
		"Desc": "",
		"FuncType": "CollectionActivityWaypointFuncType_Default",
		"WaypointsID": [
			501,
			503,
			507
		],
		"Model": "CollectionActivityMap/Waypoint1_ABS/Icon_Music1_Prefab.prefab",
		"InitState": "CollectionActivityWaypointStateType_Locked",
		"ScenarioLevelIdList": [
			502
		],
		"LootLevelIdList": [
			502
		]
	},
	"503": {
		"ID": 503,
		"Name": "第五音符",
		"Desc": "",
		"FuncType": "CollectionActivityWaypointFuncType_Default",
		"WaypointsID": [
			501,
			502,
			504
		],
		"Model": "CollectionActivityMap/Waypoint1_ABS/Icon_Music5_Prefab.prefab",
		"InitState": "CollectionActivityWaypointStateType_Locked",
		"ScenarioLevelIdList": [
			506
		],
		"ChallengeLevelIdList": [
			502
		],
		"LootLevelIdList": [
			508
		]
	},
	"504": {
		"ID": 504,
		"Name": "第二音符",
		"Desc": "",
		"FuncType": "CollectionActivityWaypointFuncType_Default",
		"WaypointsID": [
			501,
			503,
			505
		],
		"Model": "CollectionActivityMap/Waypoint1_ABS/Icon_Music2_Prefab.prefab",
		"InitState": "CollectionActivityWaypointStateType_Locked",
		"ScenarioLevelIdList": [
			503
		],
		"ChallengeLevelIdList": [
			504
		],
		"LootLevelIdList": [
			503
		]
	},
	"505": {
		"ID": 505,
		"Name": "第六音符",
		"Desc": "",
		"FuncType": "CollectionActivityWaypointFuncType_Default",
		"WaypointsID": [
			501,
			504,
			506
		],
		"Model": "CollectionActivityMap/Waypoint1_ABS/Icon_Music6_Prefab.prefab",
		"InitState": "CollectionActivityWaypointStateType_Locked",
		"ScenarioLevelIdList": [
			507
		],
		"LootLevelIdList": [
			509
		]
	},
	"506": {
		"ID": 506,
		"Name": "第三音符",
		"Desc": "",
		"FuncType": "CollectionActivityWaypointFuncType_Default",
		"WaypointsID": [
			501,
			505,
			507
		],
		"Model": "CollectionActivityMap/Waypoint1_ABS/Icon_Music3_Prefab.prefab",
		"InitState": "CollectionActivityWaypointStateType_Locked",
		"ScenarioLevelIdList": [
			504
		],
		"ChallengeLevelIdList": [
			503
		],
		"LootLevelIdList": [
			505
		]
	},
	"507": {
		"ID": 507,
		"Name": "第四音符",
		"Desc": "",
		"FuncType": "CollectionActivityWaypointFuncType_Default",
		"WaypointsID": [
			501,
			506,
			502
		],
		"Model": "CollectionActivityMap/Waypoint1_ABS/Icon_Music4_Prefab.prefab",
		"InitState": "CollectionActivityWaypointStateType_Locked",
		"ScenarioLevelIdList": [
			505
		],
		"ChallengeLevelIdList": [
			501
		],
		"LootLevelIdList": [
			506
		]
	},
	"601": {
		"ID": 601,
		"Name": "花火街道",
		"Desc": "",
		"FuncType": "CollectionActivityWaypointFuncType_Default",
		"WaypointsID": [
			606
		],
		"Model": "CollectionActivityMap/Waypoint1_ABS/Icon_FrieworksRoad_Prefab.prefab",
		"InitState": "CollectionActivityWaypointStateType_Unlocked",
		"ScenarioLevelIdList": [
			601
		],
		"ChallengeLevelIdList": [
			604
		],
		"LootLevelIdList": [
			601,
			605
		]
	},
	"602": {
		"ID": 602,
		"Name": "樱下渔地",
		"Desc": "",
		"FuncType": "CollectionActivityWaypointFuncType_Default",
		"WaypointsID": [
			608,
			609
		],
		"Model": "CollectionActivityMap/Waypoint1_ABS/Icon_FrieworksSeafood_Prefab.prefab",
		"InitState": "CollectionActivityWaypointStateType_Locked",
		"ScenarioLevelIdList": [
			602
		],
		"ChallengeLevelIdList": [
			605
		],
		"LootLevelIdList": [
			602,
			606
		]
	},
	"603": {
		"ID": 603,
		"Name": "巴拉鲁府邸",
		"Desc": "",
		"FuncType": "CollectionActivityWaypointFuncType_Default",
		"WaypointsID": [
			611,
			612
		],
		"Model": "CollectionActivityMap/Waypoint1_ABS/Icon_FrieworksFreyaHome_Prefab.prefab",
		"InitState": "CollectionActivityWaypointStateType_Locked",
		"ScenarioLevelIdList": [
			603
		],
		"ChallengeLevelIdList": [
			602
		],
		"LootLevelIdList": [
			603,
			607
		]
	},
	"604": {
		"ID": 604,
		"Name": "闪光之山",
		"Desc": "",
		"FuncType": "CollectionActivityWaypointFuncType_Default",
		"WaypointsID": [
			613,
			614
		],
		"Model": "CollectionActivityMap/Waypoint1_ABS/Icon_FrieworksMountain_Prefab.prefab",
		"InitState": "CollectionActivityWaypointStateType_Locked",
		"ScenarioLevelIdList": [
			604,
			605,
			606
		],
		"ChallengeLevelIdList": [
			601
		],
		"LootLevelIdList": [
			604,
			608
		]
	},
	"605": {
		"ID": 605,
		"Name": "花火大会",
		"Desc": "",
		"FuncType": "CollectionActivityWaypointFuncType_Default",
		"WaypointsID": [
			614
		],
		"Model": "CollectionActivityMap/Waypoint1_ABS/Icon_FrieworksMeeting_Prefab.prefab",
		"InitState": "CollectionActivityWaypointStateType_Locked",
		"ScenarioLevelIdList": [
			607
		],
		"ChallengeLevelIdList": [
			603
		],
		"LootLevelIdList": [
			609
		]
	},
	"606": {
		"ID": 606,
		"Name": "",
		"Desc": "",
		"FuncType": "CollectionActivityWaypointFuncType_Event",
		"WaypointsID": [
			601,
			607
		],
		"Model": "CollectionActivityMap/Waypoint1_ABS/Icon-ThePlace1_Prefab.prefab",
		"InitState": "CollectionActivityWaypointStateType_Unlocked"
	},
	"607": {
		"ID": 607,
		"Name": "",
		"Desc": "",
		"FuncType": "CollectionActivityWaypointFuncType_Event",
		"WaypointsID": [
			606,
			608
		],
		"Model": "CollectionActivityMap/Waypoint1_ABS/Icon-ThePlace1_Prefab.prefab",
		"InitState": "CollectionActivityWaypointStateType_Unlocked"
	},
	"608": {
		"ID": 608,
		"Name": "",
		"Desc": "",
		"FuncType": "CollectionActivityWaypointFuncType_Event",
		"WaypointsID": [
			607,
			602
		],
		"Model": "CollectionActivityMap/Waypoint1_ABS/Icon-ThePlace1_Prefab.prefab",
		"InitState": "CollectionActivityWaypointStateType_Unlocked"
	},
	"609": {
		"ID": 609,
		"Name": "",
		"Desc": "",
		"FuncType": "CollectionActivityWaypointFuncType_Event",
		"WaypointsID": [
			602,
			610
		],
		"Model": "CollectionActivityMap/Waypoint1_ABS/Icon-ThePlace1_Prefab.prefab",
		"InitState": "CollectionActivityWaypointStateType_Unlocked"
	},
	"610": {
		"ID": 610,
		"Name": "",
		"Desc": "",
		"FuncType": "CollectionActivityWaypointFuncType_Event",
		"WaypointsID": [
			609,
			611
		],
		"Model": "CollectionActivityMap/Waypoint1_ABS/Icon-ThePlace1_Prefab.prefab",
		"InitState": "CollectionActivityWaypointStateType_Unlocked"
	},
	"611": {
		"ID": 611,
		"Name": "",
		"Desc": "",
		"FuncType": "CollectionActivityWaypointFuncType_Event",
		"WaypointsID": [
			610,
			603
		],
		"Model": "CollectionActivityMap/Waypoint1_ABS/Icon-ThePlace1_Prefab.prefab",
		"InitState": "CollectionActivityWaypointStateType_Unlocked"
	},
	"612": {
		"ID": 612,
		"Name": "",
		"Desc": "",
		"FuncType": "CollectionActivityWaypointFuncType_Event",
		"WaypointsID": [
			603,
			613
		],
		"Model": "CollectionActivityMap/Waypoint1_ABS/Icon-ThePlace1_Prefab.prefab",
		"InitState": "CollectionActivityWaypointStateType_Unlocked"
	},
	"613": {
		"ID": 613,
		"Name": "",
		"Desc": "",
		"FuncType": "CollectionActivityWaypointFuncType_Event",
		"WaypointsID": [
			612,
			604
		],
		"Model": "CollectionActivityMap/Waypoint1_ABS/Icon-ThePlace1_Prefab.prefab",
		"InitState": "CollectionActivityWaypointStateType_Unlocked"
	},
	"614": {
		"ID": 614,
		"Name": "",
		"Desc": "",
		"FuncType": "CollectionActivityWaypointFuncType_Event",
		"WaypointsID": [
			604,
			605
		],
		"Model": "CollectionActivityMap/Waypoint1_ABS/Icon-ThePlace1_Prefab.prefab",
		"InitState": "CollectionActivityWaypointStateType_Unlocked"
	}
}