{
	"8": {
		"ID": 8,
		"Title": "Dear {NAME}:",
		"Content": "{BEGINTIME}, you summoned me from the void, and we formed our bonds shortly thereafter. After getting to know you, I knew I wanted to be by your side, forever. \n\n　{BATTLETIME} --This is the amount of battles you've rushed into, with those fierce courageous eyes that I adore so much. I've fought by yourside as much as you've allowed. I think about your safety everytime you rush off to the frontlines...\n\n  I'm getting tired of waiting, It's not like I'm waiting for you to confess your love to me or anything. You'd better reciprocate. Let {ENDTIME} be our anniversary!",
		"Signature": "Love, Lana"
	},
	"14": {
		"ID": 14,
		"Title": "To {NAME}:",
		"Content": "{BEGINTIME}, our hearts crashed into one another. Maybe bonds are enigmatic like this... There are few days I remember so clearly, but that's because you are very special to me!\n\n　I don't know if you have been counting, but we've been through {BATTLETIME} battles together! I loved each and every one of our adventures! \n\n　On {ENDTIME}, I will confess my love to you! {NAME}, be my only knight and come on every adventure with me, okay?",
		"Signature": "Brave Cherie"
	},
	"26": {
		"ID": 26,
		"Title": "To {NAME}:",
		"Content": "{BEGINTIME}, is when we met for the first time. In front of you {NAME}, I can no longer remain rational. I fear I can keep up this commander and strategist routine no longer.\n\n　Through {BATTLETIME} battles, I have been by your side as the strategist. I hope that I can continue to aid you in future battles. \n\n　Long before {ENDTIME}, we crossed the line of strategist and commander... Let me, Luna, be your everlasting treasure.",
		"Signature": "Yours, Luna"
	},
	"29": {
		"ID": 29,
		"Title": "Dear {NAME}:",
		"Content": "I've forgotten the date of the first time we met, but I will always remember {BEGINTIME}, because on that day... You taught me the meaning of \"Bonds\". \n\n　I used to be a timid girl, but then I experienced {BATTLETIME} thrilling battles with you, {NAME}. I'm so sorry to have troubled you, but I've always tried my best! Please be patient with me! \n\n　{ENDTIME}... Our hearts became one. I want you to know that I like you, {NAME}, so I made a wish to the Goddess... Every day from now on, I will be with you.",
		"Signature": "Tiaris"
	},
	"5": {
		"ID": 5,
		"Title": "Give {NAME}:",
		"Content": "I'm so grateful that destiny brought us together. On the first day we met... Did you even notice me? \n\n　From {BEGINTIME} to {ENDTIME}... The relationship they call a \"bond\" was the best gift I, Chris, ever received from you, {NAME}. \n\n　{BATTLETIME} battles with {NAME}... Thank you for taking me with you, even though I'm weak! In the future, I will work harder, still. If you have any missions that need doing, just give them to Chris!",
		"Signature": "Yours, Chris"
	},
	"15": {
		"ID": 15,
		"Title": "To {NAME}:",
		"Content": "{BEGINTIME}, after crossing time and space countless times, we became tied to each other through our \"bond\". \n\n　We've been through {BATTLETIME} battles together... If my healing ability can help you even a little bit, it's always my greatest honor. \n\n　In the days I've spent with you, I've also seen the suffering and pain you've suffered on the road to saving the world, {NAME}. So... Today, {ENDTIME}, I want to tell you: I'll spend the rest of my life healing your heart!",
		"Signature": "Liana"
	},
	"51": {
		"ID": 51,
		"Title": "To {NAME}:",
		"Content": "On {BEGINTIME}, witnessed by the stars, you and I met. We saw each other and our eyes burst into miraculous flames. Two lonely stars, spiraling forward under this mystical force. At {ENDTIME} on this day... They finally became one. \n\n　{BATTLETIME} battles have been fought at our hands. I don't like war, but you have become the reason I fight. \n\n　People... They always do whatever they can do, but I choose to fall in love with you.",
		"Signature": "Shelfaniel"
	},
	"28": {
		"ID": 28,
		"Title": "Hi, {NAME}:",
		"Content": "Was {BEGINTIME} the day we first met each other? Zerida doesn't quite understand what \"anniversary\" means, but this day... Is very, very important! \n\n　My favorite thing is hanging out with {NAME}! {BATTLETIME} battles... I reckon that's what you mean by \"dating\", right? What do you think? Was that fun? \n\n　Although {NAME} has so many friends and allies, I'm not jealous at all! I only need one person, {NAME}... I only belong to you.",
		"Signature": "Zerida"
	},
	"33": {
		"ID": 33,
		"Title": "Dear {NAME}:",
		"Content": "Do you remember the first time we met each other? It was on {BEGINTIME}, {NAME} became my leader. \n\n　In those {BATTLETIME} battles, I often stared at your back, trying to measure the distance between our hearts in a quick glance between the storms of war... Until {ENDTIME}, when I finally got the answer. \n\n　I wanted to be a shield to protect everything I love; I wanted to curl up as a kitten and sleep on my knight's chest. Then I finally decided to go straight to your heart and be with you... I wanted to bloom and bask in your gentle embrace.",
		"Signature": "Your protector, Freya"
	},
	"52": {
		"ID": 52,
		"Title": "写给，{NAME}：",
		"Content": "{BEGINTIME}，这一天就是我们初次相遇的日子啦，{NAME}要牢牢谨记哦！\n　{BATTLETIME}场战斗，是安洁丽娜最爱的战斗时光。直到现在我才明白，我爱的是你在战场上帅气的侧颜和为我摇旗助威的呐喊。\n　忐忑地等着{ENDTIME}这一天的到来，这个少女喜欢着你的模样……不知您是否中意呢？\n　心之约定的时刻悄然而至，我要很自豪地向全世界说出来——从今以后，请让安洁丽娜陪伴{NAME}大人永远冒险下去吧！",
		"Signature": "你的、安洁丽娜"
	},
	"11": {
		"ID": 11,
		"Title": "致{NAME}：",
		"Content": "{BEGINTIME}，{NAME}你还记得我们初次相遇的场景吗？那天……在我的记忆中满世界都是粉红色的。\n　在{BATTLETIME}场战斗里，我们并肩作战，我期待着你对我说话，期待着你对我微笑，仿佛你的言语带着一种神奇的魔力，总会让我感到一种莫名的满足。这样的娜姆……是不是有些太没有骨气了？不准你因为这个不喜欢我哦！\n　终于让娜姆迎来{ENDTIME}这一天了呢，那么……{NAME}！请成为我的专属勇士吧！",
		"Signature": "娜姆敬上"
	},
	"18": {
		"ID": 18,
		"Title": "献给{NAME}：",
		"Content": "姐姐我无论如何也没有想到，自己会栽在你{NAME}这样一个小家伙手里面！\n　{BEGINTIME}这一天所发生的所有事情，就好像是上天所安排好的，有时候我就在想，这个世界很大很大，大到我们这么晚才能够相遇。世界又很小很小，小到在{BATTLETIME}场战斗里，我一抬头就看到你的笑颜。\n　只要有相遇，那么一切都不算太晚……不过我伊梅尔达可不是一个容易满足的人呢！{ENDTIME}的到来并不意味着终点，今后啊，你只可以选择爱我，或者更爱我。\n　所以，小家伙你就永远地陪在我身边吧，好吗？",
		"Signature": "伊梅尔达"
	},
	"30": {
		"ID": 30,
		"Title": "献给{NAME}：",
		"Content": "从相遇的第一天起，我就感受到了你身上特殊的魔力。从{BEGINTIME}到{ENDTIME}，这份爱的波动在我心中始终未曾停歇……\n     爱的魔力，一点一滴……也在战场上慢慢积累着，和{NAME}经过了{BATTLETIME}次的战斗，我相信现在是让一切绽放的时刻了……我觉得这会是个让所有人都为之惊艳的大魔术！\n     这段日子是我最幸福的时光，你精心准备的每一件礼物莉法妮都很喜欢，而作为回报……我想要用名为「爱」的魔法，让你、我，让这一切永远都不再分离！",
		"Signature": "你的、莉法妮"
	},
	"56": {
		"ID": 56,
		"Title": "献给{NAME}：",
		"Content": "记得是从那一天{BEGINTIME}开始，我便开始对你产生无可救药的依赖。到今天，{ENDTIME}，这份心情也有增无减。\n     总是被坏人抓走的我，也在你的帮助下变得坚强起来。和{NAME}一起的， {BATTLETIME}次的战斗。每一次都是我们共同成长的甜蜜印记。\n     谢谢你的心意，那份像哥哥一般的守护就是蕾伽尔最喜欢的礼物！但任性的我，已经不能为兄妹般的感情而满足了……\n     感谢和你在一起的时光，让我有勇气说出「爱」。",
		"Signature": "蕾伽尔"
	},
	"54": {
		"ID": 54,
		"Title": "献给{NAME}：",
		"Content": "魔与人本不应该相遇，但我……接受了与你邂逅的浪漫命运。从{BEGINTIME}到{ENDTIME}，这些日子中，{BATTLETIME}场战斗与{NAME}共同度过。我本是为了无情的战斗而生，而你的存在、为我的战斗提供了更多的……名为「爱」的意义……\n      原谅我还没有学会如何表达自己的感激，但我的心里早已有你。\n      我想……即使流着不同的血，妮丝蒂尔我也想永远和{NAME}在一起。",
		"Signature": "妮丝蒂尔"
	},
	"39": {
		"ID": 39,
		"Title": "我忠诚的仆从{NAME}：",
		"Content": "{BEGINTIME}，一个渺小、愚蠢且自大的混蛋出现在我弗拉基亚的面前，让我跟随他一起进行生死与共的战斗，开什么玩笑！我可是伟大的弗拉基亚，怎么会为卑微的人类而战！？\n　可……我还是不由自主地去做了，{BATTLETIME}场赌上性命、生死与共的战斗，我跟随在他身旁，骂他仆从、蠢货、混蛋，以此来掩盖他看我时我内心的慌乱。虽然不想承认，但……{NAME}，你就是那个蠢货、混蛋！\n　今天，{ENDTIME}，我要向世界宣布：你得到了伟大的弗拉基亚的倾慕，你将要用接下来的一生服侍在我左右，没有假期，不准反驳！",
		"Signature": "伟大的弗拉基亚"
	},
	"31": {
		"ID": 31,
		"Title": "献给{NAME}：",
		"Content": "{BEGINTIME}那天，在女神的见证下，{NAME}出现在我的面前，向我伸出手，那一刻我看到您背后闪耀的圣光，我知道，那将是我穷尽一生追随的方向。\n　在{BATTLETIME}场与死亡擦肩而过的战斗中，我看到您脸上的伤痕越来越多，身上的疲惫越来越重，但您眼中对和平渴望的光芒却越来越亮。\n　在这里，在今天，在{ENDTIME}，我想大声告诉您：索菲亚不仅想抹去您脸上的伤痕，也想抹去您心上的疲累，让您永远像我们初见那天一样！",
		"Signature": "您的索菲亚"
	},
	"20": {
		"ID": 20,
		"Title": "致{NAME}：",
		"Content": "我一直是孤独的一个人，不被魔族接受，也被人类驱赶，所以我总在说肮脏的人类，可恶的魔族，但……{BEGINTIME}这天，当我第一次见到{NAME}时，我第一次觉得，人类也并不是全都那么肮脏，至少……你就很干净。\n　我们一起经历了{BATTLETIME}场战斗，在硝烟和鲜血之中，我突然觉得，我好像……已经很久没有觉得孤单了。\n　我不敢想象如果哪天你不在了，我再次被孤独吞没会是什么样子，所以今天，{ENDTIME}我想告诉{NAME}：我喜欢你！不要让我再变成一个人了！",
		"Signature": "索尼娅"
	},
	"49": {
		"ID": 49,
		"Title": "致{NAME}：",
		"Content": "{BEGINTIME}我们相遇了，真没想到，居然可以在{ENDTIME}这一天和您走到如此亲密的地步……您可别误会了！我可不是那种容易攻略的女人！这都要怪您布局谋略时认真模样，太让人着迷了……\n　{BATTLETIME}次与您出征，每一场战斗的酣畅都让我产生想要更多的冲动……不知不觉间，我的心也成为了您攻下的领地。\n　原来，我也会有败北的一天吗？可被您打败的感觉莫名让人兴奋呢……",
		"Signature": "法娜"
	},
	"43": {
		"ID": 43,
		"Title": "致{NAME}：",
		"Content": "{BEGINTIME}是安娜生命中最重要的日子，就在这一天我遇见了您，是您让我明白……原来爱一个人是这样的感受！\n　真是太幸运了，{BATTLETIME}场战斗我都能陪伴您的身边，如果安娜再强一点的话，能陪伴您的日子也许能更久一点吧！\n　仰望月亮是星星发光的方式，在今天，{ENDTIME}，我终于有机会向您说出一直想说的话：{NAME}，谢谢您成为安娜的月亮！",
		"Signature": "安娜"
	},
	"22": {
		"ID": 22,
		"Title": "写给{NAME}：",
		"Content": "其实有些难以启齿……{BEGINTIME}那天，当{NAME}出现在我面前，透过你那双澄澈透明的眼睛我才记起来，抛开光明、信仰以及漫长的时光，我还是个普通人，一个渴望爱情的普通女人。\n　我以导师的身份陪伴了你{BATTLETIME}场直面死亡的战斗，看着你从稚嫩到成熟，从迷茫到坚定，从略显胆怯到愈发勇毅，但你的眼睛却依然那么清澈。而我……对你的感觉也依然像初见时那天一般。\n　所以{NAME}，今天，{ENDTIME}，我要告诉你：光明是一片无趣的纯白，是你的出现给我的生命添加了一抹幸福的色彩。谢谢你长久以来的陪伴，以后，也请多多关照……",
		"Signature": "杰西卡"
	},
	"61": {
		"ID": 61,
		"Title": "献给{NAME}：",
		"Content": "{BEGINTIME}那天，随着{NAME}出现在我的面前，漫山的月苋草散发着迷人的微光欢呼庆祝，那是一种我从未有过的奇妙的感觉。\n　在{BATTLETIME}场直面死亡的战斗中，你教会了我什么是喜悦、什么是悲伤、什么是感动。但我始终不知道那天那让我目眩神迷的感觉到底是什么，只是在那之后，我有了秘密，而那秘密里的一切都是关于你。\n　今天，当你再次出现在我面前的时候，我似乎明白了那种感觉叫做心动，叫做喜欢。所以在现在，在{ENDTIME}，我想告诉{NAME}：如果有机会的话，我想去伊雷斯看看璀璨的星空……和你一起。",
		"Signature": "拉姆达"
	},
	"35": {
		"ID": 35,
		"Title": "献给{NAME}：",
		"Content": "{BEGINTIME}那天，安杰丽卡居然为与您目光相对，而错过了实验的最佳时机！嘛~您的身上一定蕴藏着某种超级能量吧！不然，作为超级魔法师的我，怎么可能被就此蛊惑呢……\n　{BATTLETIME}场战斗，我都在认真研究您的一举一动……可为什么会这样呢？我被您吸引的时间，居然随着研究的深入越来越长了！\n　嘛~或许{NAME}大人真的是我永远无法参透的存在了。在今天，{ENDTIME}，我要向您坦白：您之前送我的礼物，都被我变成了研究您的实验材料……不过，温柔大度的您一定会原谅我的，对吧？",
		"Signature": "安杰丽卡"
	},
	"47": {
		"ID": 47,
		"Title": "献给{NAME}：",
		"Content": "{BEGINTIME}，我第一次为您发出「爱的声援」。您回头鼓励的目光，给了我从未体会过的温暖。从那一刻起，我开始思考该如何回报您的恩情。\n　没能拥有细腻的双手，也无法传递温柔的眼神。一直站在您身后不懂表达的蕾蒂西亚，能够回报您的，也只剩下{BATTLETIME}场战斗中默默的助攻了。\n　该表达的心意早已在驰骋战场的技艺中表明，{ENDTIME}，我只想告诉{NAME}大人，您回头的目光，将是蕾蒂西亚一生追逐的方向！",
		"Signature": "蕾蒂西亚"
	}
}