{
	"101": {
		"ID": 101,
		"Head": "Cutscene/Skill_ABS/Head/CutScene_Mathew.png",
		"Sound1": "Char037_03",
		"Sound2": "Char037_04",
		"Sound3": ""
	},
	"103": {
		"ID": 103,
		"Head": "Cutscene/Skill_ABS/Head/CutScene_Grenier.png",
		"Sound1": "Char039_03",
		"Sound2": "Char039_04",
		"Sound3": ""
	},
	"104": {
		"ID": 104,
		"Head": "Cutscene/Skill_ABS/Head/CutScene_Aimeeda.png",
		"Sound1": "Char038_03",
		"Sound2": "Char038_04",
		"Sound3": ""
	},
	"105": {
		"ID": 105,
		"Head": "Cutscene/Skill_ABS/Head/CutScene_Chris.png",
		"Sound1": "Char007_02",
		"Sound2": "Char007_03",
		"Sound3": ""
	},
	"106": {
		"ID": 106,
		"Head": "Cutscene/Skill_ABS/Head/CutScene_Leon.png",
		"Sound1": "Char001_04",
		"Sound2": "Char001_05",
		"Sound3": ""
	},
	"107": {
		"ID": 107,
		"Head": "Cutscene/Skill_ABS/Head/CutScene_Bernhardt.png",
		"Sound1": "Char003_04",
		"Sound2": "Char003_05",
		"Sound3": ""
	},
	"108": {
		"ID": 108,
		"Head": "Cutscene/Skill_ABS/Head/CutScene_Lana.png",
		"Sound1": "Char004_04",
		"Sound2": "Char004_05",
		"Sound3": ""
	},
	"109": {
		"ID": 109,
		"Head": "Cutscene/Skill_ABS/Head/CutScene_Bozel.png",
		"Sound1": "Char006_04",
		"Sound2": "Char006_05",
		"Sound3": ""
	},
	"110": {
		"ID": 110,
		"Head": "Cutscene/Skill_ABS/Head/CutScene_Ledin.png",
		"Sound1": "Char002_04",
		"Sound2": "Char002_05",
		"Sound3": ""
	},
	"111": {
		"ID": 111,
		"Head": "Cutscene/Skill_ABS/Head/CutScene_Nahm.png",
		"Sound1": "Char015_04",
		"Sound2": "Char015_05",
		"Sound3": ""
	},
	"112": {
		"ID": 112,
		"Head": "Cutscene/Skill_ABS/Head/CutScene_Elwin.png",
		"Sound1": "Char011_04",
		"Sound2": "Char011_05",
		"Sound3": ""
	},
	"113": {
		"ID": 113,
		"Head": "Cutscene/Skill_ABS/Head/CutScene_Haen.png",
		"Sound1": "Char012_04",
		"Sound2": "Char012_05",
		"Sound3": ""
	},
	"114": {
		"ID": 114,
		"Head": "Cutscene/Skill_ABS/Head/CutScene_Sherry.png",
		"Sound1": "Char013_04",
		"Sound2": "Char013_05",
		"Sound3": ""
	},
	"115": {
		"ID": 115,
		"Head": "Cutscene/Skill_ABS/Head/CutScene_Riana.png",
		"Sound1": "Char005_04",
		"Sound2": "Char005_05",
		"Sound3": ""
	},
	"116": {
		"ID": 116,
		"Head": "Cutscene/Skill_ABS/Head/CutScene_Lance.png",
		"Sound1": "Char023_04",
		"Sound2": "Char023_05",
		"Sound3": ""
	},
	"117": {
		"ID": 117,
		"Head": "Cutscene/Skill_ABS/Head/CutScene_Eggbert.png",
		"Sound1": "Char019_04",
		"Sound2": "Char019_05",
		"Sound3": ""
	},
	"118": {
		"ID": 118,
		"Head": "Cutscene/Skill_ABS/Head/CutScene_Imelda.png",
		"Sound1": "Char021_04",
		"Sound2": "Char021_05",
		"Sound3": ""
	},
	"119": {
		"ID": 119,
		"Head": "Cutscene/Skill_ABS/Head/CutScene_Lester.png",
		"Sound1": "Char022_04",
		"Sound2": "Char022_05",
		"Sound3": ""
	},
	"120": {
		"ID": 120,
		"Head": "Cutscene/Skill_ABS/Head/CutScene_Sonia.png",
		"Sound1": "Char020_04",
		"Sound2": "Char020_05",
		"Sound3": ""
	},
	"121": {
		"ID": 121,
		"Head": "Cutscene/Skill_ABS/Head/CutScene_Vargas.png",
		"Sound1": "Char029_04",
		"Sound2": "Char029_05",
		"Sound3": ""
	},
	"122": {
		"ID": 122,
		"Head": "Cutscene/Skill_ABS/Head/CutScene_Jessica.png",
		"Sound1": "Char030_04",
		"Sound2": "Char030_05",
		"Sound3": ""
	},
	"123": {
		"ID": 123,
		"Head": "Cutscene/Skill_ABS/Head/CutScene_Rouga.png",
		"Sound1": "Char031_04",
		"Sound2": "Char031_05",
		"Sound3": ""
	},
	"124": {
		"ID": 124,
		"Head": "Cutscene/Skill_ABS/Head/CutScene_Scott.png",
		"Sound1": "Char032_04",
		"Sound2": "Char032_05",
		"Sound3": ""
	},
	"125": {
		"ID": 125,
		"Head": "Cutscene/Skill_ABS/Head/CutScene_Alutemurat.png",
		"Sound1": "Char008_04",
		"Sound2": "Char008_05",
		"Sound3": ""
	},
	"126": {
		"ID": 126,
		"Head": "Cutscene/Skill_ABS/Head/CutScene_Luna.png",
		"Sound1": "Char010_03",
		"Sound2": "Char010_04",
		"Sound3": ""
	},
	"127": {
		"ID": 127,
		"Head": "Cutscene/Skill_ABS/Head/CutScene_Dehault.png",
		"Sound1": "Char016_04",
		"Sound2": "Char016_05",
		"Sound3": ""
	},
	"128": {
		"ID": 128,
		"Head": "Cutscene/Skill_ABS/Head/CutScene_Zalrahda.png",
		"Sound1": "Char040_04",
		"Sound2": "Char040_05",
		"Sound3": ""
	},
	"129": {
		"ID": 129,
		"Head": "Cutscene/Skill_ABS/Head/CutScene_Tialice.png",
		"Sound1": "Char018_04",
		"Sound2": "Char018_05",
		"Sound3": ""
	},
	"130": {
		"ID": 130,
		"Head": "Cutscene/Skill_ABS/Head/CutScene_Leafani.png",
		"Sound1": "Char027_04",
		"Sound2": "Char027_05",
		"Sound3": ""
	},
	"131": {
		"ID": 131,
		"Head": "Cutscene/Skill_ABS/Head/CutScene_Sofia.png",
		"Sound1": "Char026_04",
		"Sound2": "Char026_05",
		"Sound3": ""
	},
	"132": {
		"ID": 132,
		"Head": "Cutscene/Skill_ABS/Head/CutScene_Emmalink.png",
		"Sound1": "Char017_04",
		"Sound2": "Char017_05",
		"Sound3": ""
	},
	"133": {
		"ID": 133,
		"Head": "Cutscene/Skill_ABS/Head/CutScene_Freya.png",
		"Sound1": "Char014_04",
		"Sound2": "Char014_05",
		"Sound3": ""
	},
	"134": {
		"ID": 134,
		"Head": "Cutscene/Skill_ABS/Head/CutScene_Kirikaze.png",
		"Sound1": "Char024_04",
		"Sound2": "Char024_05",
		"Sound3": ""
	},
	"135": {
		"ID": 135,
		"Head": "Cutscene/Skill_ABS/Head/CutScene_Anjelica.png",
		"Sound1": "Char045_04",
		"Sound2": "Char045_05",
		"Sound3": ""
	},
	"136": {
		"ID": 136,
		"Head": "Cutscene/Skill_ABS/Head/CutScene_SilverWolf.png",
		"Sound1": "Char025_04",
		"Sound2": "Char025_05",
		"Sound3": ""
	},
	"137": {
		"ID": 137,
		"Head": "Cutscene/Skill_ABS/Head/CutScene_Zigodlla.png",
		"Sound1": "Char009_04",
		"Sound2": "Char009_05",
		"Sound3": ""
	},
	"138": {
		"ID": 138,
		"Head": "Cutscene/Skill_ABS/Head/CutScene_Lela-Jellioru.png",
		"Sound1": "Char400_04",
		"Sound2": "Char400_05",
		"Sound3": ""
	},
	"139": {
		"ID": 139,
		"Head": "Cutscene/Skill_ABS/Head/CutScene_Flakia.png",
		"Sound1": "Char028_04",
		"Sound2": "Char028_05",
		"Sound3": ""
	},
	"140": {
		"ID": 140,
		"Head": "Cutscene/Skill_ABS/Head/CutScene_Rune.png",
		"Sound1": "Char033_04",
		"Sound2": "Char033_05",
		"Sound3": ""
	},
	"141": {
		"ID": 141,
		"Head": "Cutscene/Skill_ABS/Head/CutScene_Pieru.png",
		"Sound1": "Char034_04",
		"Sound2": "Char034_05",
		"Sound3": ""
	},
	"142": {
		"ID": 142,
		"Head": "Cutscene/Skill_ABS/Head/CutScene_Diors.png",
		"Sound1": "Char035_04",
		"Sound2": "Char035_05",
		"Sound3": ""
	},
	"143": {
		"ID": 143,
		"Head": "Cutscene/Skill_ABS/Head/CutScene_Anna.png",
		"Sound1": "Char401_04",
		"Sound2": "Char401_05",
		"Sound3": ""
	},
	"144": {
		"ID": 144,
		"Head": "Cutscene/Skill_ABS/Head/CutScene_Lyatt.png",
		"Sound1": "Char051_04",
		"Sound2": "Char051_05",
		"Sound3": ""
	},
	"145": {
		"ID": 145,
		"Head": "Cutscene/Skill_ABS/Head/CutScene_Keith.png",
		"Sound1": "Char056_04",
		"Sound2": "Char056_05",
		"Sound3": ""
	},
	"146": {
		"ID": 146,
		"Head": "Cutscene/Skill_ABS/Head/CutScene_Selina.png",
		"Sound1": "Char315_04",
		"Sound2": "Char315_05",
		"Sound3": ""
	},
	"147": {
		"ID": 147,
		"Head": "Cutscene/Skill_ABS/Head/CutScene_Leticia.png",
		"Sound1": "Char340_04",
		"Sound2": "Char340_05",
		"Sound3": ""
	},
	"148": {
		"ID": 148,
		"Head": "Cutscene/Skill_ABS/Head/CutScene_Alan.png",
		"Sound1": "Char057_04",
		"Sound2": "Char057_05",
		"Sound3": ""
	},
	"149": {
		"ID": 149,
		"Head": "Cutscene/Skill_ABS/Head/CutScene_Fana.png",
		"Sound1": "Char036_04",
		"Sound2": "Char036_05",
		"Sound3": ""
	},
	"150": {
		"ID": 150,
		"Head": "Cutscene/Skill_ABS/Head/CutScene_Zalrahda.png",
		"Sound1": "Char500_04",
		"Sound2": "Char500_05",
		"Sound3": ""
	},
	"151": {
		"ID": 151,
		"Head": "Cutscene/Skill_ABS/Head/CutScene_Schelfaniel.png",
		"Sound1": "Char553_04",
		"Sound2": "Char553_05",
		"Sound3": ""
	},
	"152": {
		"ID": 152,
		"Head": "Cutscene/Skill_ABS/Head/CutScene_Angelina.png",
		"Sound1": "Char552_04",
		"Sound2": "Char552_05",
		"Sound3": ""
	},
	"153": {
		"ID": 153,
		"Head": "Cutscene/Skill_ABS/Head/CutScene_Ranford.png",
		"Sound1": "Char554_04",
		"Sound2": "Char554_05",
		"Sound3": ""
	},
	"154": {
		"ID": 154,
		"Head": "Cutscene/Skill_ABS/Head/CutScene_Listell.png",
		"Sound1": "Char555_04",
		"Sound2": "Char555_05",
		"Sound3": ""
	},
	"155": {
		"ID": 155,
		"Head": "Cutscene/Skill_ABS/Head/CutScene_Landius.png",
		"Sound1": "Char700_004",
		"Sound2": "Char700_005",
		"Sound3": ""
	},
	"156": {
		"ID": 156,
		"Head": "Cutscene/Skill_ABS/Head/CutScene_Rachel.png",
		"Sound1": "Char701_004",
		"Sound2": "Char701_005",
		"Sound3": ""
	},
	"157": {
		"ID": 157,
		"Head": "Cutscene/Skill_ABS/Head/CutScene_Willer.png",
		"Sound1": "Char702_004",
		"Sound2": "Char702_005",
		"Sound3": ""
	},
	"158": {
		"ID": 158,
		"Head": "Cutscene/Skill_ABS/Head/CutScene_Serena.png",
		"Sound1": "Char703_004",
		"Sound2": "Char703_005",
		"Sound3": ""
	},
	"159": {
		"ID": 159,
		"Head": "Cutscene/Skill_ABS/Head/CutScene_Gizlof.png",
		"Sound1": "Char1200_004",
		"Sound2": "Char1200_005",
		"Sound3": ""
	},
	"160": {
		"ID": 160,
		"Head": "Cutscene/Skill_ABS/Head/CutScene_Sigma.png",
		"Sound1": "Char800_004",
		"Sound2": "Char800_005",
		"Sound3": ""
	},
	"161": {
		"ID": 161,
		"Head": "Cutscene/Skill_ABS/Head/CutScene_Lambda.png",
		"Sound1": "Char1000_004",
		"Sound2": "Char1000_005",
		"Sound3": ""
	},
	"166": {
		"ID": 166,
		"Head": "Cutscene/Skill_ABS/Head/CutScene_Claret.png",
		"Sound1": "Char1300_004",
		"Sound2": "Char1300_005",
		"Sound3": ""
	},
	"167": {
		"ID": 167,
		"Head": "Cutscene/Skill_ABS/Head/CutScene_Omega.png",
		"Sound1": "Char1401_004",
		"Sound2": "Char1401_005",
		"Sound3": ""
	},
	"169": {
		"ID": 169,
		"Head": "Cutscene/Skill_ABS/Head/CutScene_Estelle.png",
		"Sound1": "Char803_004",
		"Sound2": "Char803_005",
		"Sound3": ""
	},
	"170": {
		"ID": 170,
		"Head": "Cutscene/Skill_ABS/Head/CutScene_Joshua.png",
		"Sound1": "Char802_004",
		"Sound2": "Char802_005",
		"Sound3": ""
	},
	"171": {
		"ID": 171,
		"Head": "Cutscene/Skill_ABS/Head/CutScene_Renne.png",
		"Sound1": "Char804_004",
		"Sound2": "Char804_005",
		"Sound3": ""
	},
	"172": {
		"ID": 172,
		"Head": "Cutscene/Skill_ABS/Head/CutScene_Leonhardt.png",
		"Sound1": "Char805_004",
		"Sound2": "Char805_005",
		"Sound3": ""
	},
	"173": {
		"ID": 173,
		"Head": "Cutscene/Skill_ABS/Head/CutScene_Olivier.png",
		"Sound1": "Char806_004",
		"Sound2": "Char806_005",
		"Sound3": ""
	},
	"174": {
		"ID": 174,
		"Head": "Cutscene/Skill_ABS/Head/CutScene_Klose.png",
		"Sound1": "Char807_004",
		"Sound2": "Char807_005",
		"Sound3": ""
	},
	"179": {
		"ID": 179,
		"Head": "Cutscene/Skill_ABS/Head/CutScene_Sakura.png",
		"Sound1": "Char900_004",
		"Sound2": "Char900_005",
		"Sound3": ""
	},
	"180": {
		"ID": 180,
		"Head": "Cutscene/Skill_ABS/Head/CutScene_Sumire.png",
		"Sound1": "Char901_004",
		"Sound2": "Char901_005",
		"Sound3": ""
	},
	"181": {
		"ID": 181,
		"Head": "Cutscene/Skill_ABS/Head/CutScene_Alice.png",
		"Sound1": "Char902_004",
		"Sound2": "Char902_005",
		"Sound3": ""
	},
	"182": {
		"ID": 182,
		"Head": "Cutscene/Skill_ABS/Head/CutScene_Yuusuke.png",
		"Sound1": "Char1101_004",
		"Sound2": "Char1101_005",
		"Sound3": ""
	},
	"183": {
		"ID": 183,
		"Head": "Cutscene/Skill_ABS/Head/CutScene_Hiei.png",
		"Sound1": "Char1105_004",
		"Sound2": "Char1105_005",
		"Sound3": ""
	},
	"184": {
		"ID": 184,
		"Head": "Cutscene/Skill_ABS/Head/CutScene_Kurama.png",
		"Sound1": "Char1102_004",
		"Sound2": "Char1102_005",
		"Sound3": ""
	},
	"185": {
		"ID": 185,
		"Head": "Cutscene/Skill_ABS/Head/CutScene_Toguro.png",
		"Sound1": "Char1106_004",
		"Sound2": "Char1106_004",
		"Sound3": ""
	},
	"186": {
		"ID": 186,
		"Head": "Cutscene/Skill_ABS/Head/CutScene_Kazuma.png",
		"Sound1": "Char1104_004",
		"Sound2": "Char1104_005",
		"Sound3": ""
	},
	"188": {
		"ID": 188,
		"Head": "Cutscene/Skill_ABS/Head/CutScene_Alustriel.png",
		"Sound1": "Char0043_004",
		"Sound2": "Char0043_005",
		"Sound3": ""
	},
	"189": {
		"ID": 189,
		"Head": "Cutscene/Skill_ABS/Head/CutScene_Yulia.png",
		"Sound1": "Char0461_004",
		"Sound2": "Char0461_005",
		"Sound3": ""
	},
	"190": {
		"ID": 190,
		"Head": "Cutscene/Skill_ABS/Head/CutScene_Yulia.png",
		"Sound1": "Char0462_004",
		"Sound2": "Char0462_005",
		"Sound3": ""
	},
	"300": {
		"ID": 300,
		"Head": "Cutscene/Skill_ABS/Head/CutScene_Soldier03.png",
		"Sound1": "",
		"Sound2": "",
		"Sound3": ""
	},
	"301": {
		"ID": 301,
		"Head": "Cutscene/Skill_ABS/Head/CutScene_Zalrahda.png",
		"Sound1": "",
		"Sound2": "",
		"Sound3": ""
	},
	"302": {
		"ID": 302,
		"Head": "Cutscene/Skill_ABS/Head/CutScene_Soldier03.png",
		"Sound1": "",
		"Sound2": "",
		"Sound3": ""
	},
	"303": {
		"ID": 303,
		"Head": "Cutscene/Skill_ABS/Head/CutScene_Soldier03.png",
		"Sound1": "",
		"Sound2": "",
		"Sound3": ""
	},
	"304": {
		"ID": 304,
		"Head": "Cutscene/Skill_ABS/Head/CutScene_Soldier03.png",
		"Sound1": "",
		"Sound2": "",
		"Sound3": ""
	},
	"305": {
		"ID": 305,
		"Head": "Cutscene/Skill_ABS/Head/CutScene_Soldier03.png",
		"Sound1": "",
		"Sound2": "",
		"Sound3": ""
	},
	"306": {
		"ID": 306,
		"Head": "Cutscene/Skill_ABS/Head/CutScene_Soldier03.png",
		"Sound1": "",
		"Sound2": "",
		"Sound3": ""
	},
	"307": {
		"ID": 307,
		"Head": "Cutscene/Skill_ABS/Head/CutScene_Witch.png",
		"Sound1": "",
		"Sound2": "",
		"Sound3": ""
	},
	"308": {
		"ID": 308,
		"Head": "Cutscene/Skill_ABS/Head/CutScene_Soldier03.png",
		"Sound1": "",
		"Sound2": "",
		"Sound3": ""
	},
	"309": {
		"ID": 309,
		"Head": "Cutscene/Skill_ABS/Head/CutScene_Soldier03.png",
		"Sound1": "",
		"Sound2": "",
		"Sound3": ""
	},
	"310": {
		"ID": 310,
		"Head": "Cutscene/Skill_ABS/Head/CutScene_Soldier03.png",
		"Sound1": "",
		"Sound2": "",
		"Sound3": ""
	},
	"311": {
		"ID": 311,
		"Head": "Cutscene/Skill_ABS/Head/CutScene_Soldier03.png",
		"Sound1": "",
		"Sound2": "",
		"Sound3": ""
	},
	"312": {
		"ID": 312,
		"Head": "Cutscene/Skill_ABS/Head/CutScene_Soldier03.png",
		"Sound1": "",
		"Sound2": "",
		"Sound3": ""
	},
	"313": {
		"ID": 313,
		"Head": "Cutscene/Skill_ABS/Head/CutScene_Witch.png",
		"Sound1": "",
		"Sound2": "",
		"Sound3": ""
	},
	"314": {
		"ID": 314,
		"Head": "Cutscene/Skill_ABS/Head/CutScene_Witch.png",
		"Sound1": "",
		"Sound2": "",
		"Sound3": ""
	},
	"315": {
		"ID": 315,
		"Head": "Cutscene/Skill_ABS/Head/CutScene_Soldier03.png",
		"Sound1": "",
		"Sound2": "",
		"Sound3": ""
	},
	"316": {
		"ID": 316,
		"Head": "Cutscene/Skill_ABS/Head/CutScene_Soldier03.png",
		"Sound1": "",
		"Sound2": "",
		"Sound3": ""
	},
	"322": {
		"ID": 322,
		"Head": "Cutscene/Skill_ABS/Head/CutScene_Ogami.png",
		"Sound1": "",
		"Sound2": "",
		"Sound3": ""
	},
	"346": {
		"ID": 346,
		"Head": "Cutscene/Skill_ABS/Head/CutScene_Sensui.png",
		"Sound1": "",
		"Sound2": "",
		"Sound3": ""
	},
	"2084": {
		"ID": 2084,
		"Head": "Cutscene/Skill_ABS/Head/CutScene_Kurama.png",
		"Sound1": "Char1103_004",
		"Sound2": "Char1103_005",
		"Sound3": ""
	},
	"3000": {
		"ID": 3000,
		"Head": "Cutscene/Skill_ABS/Head/CutScene_Soldier03.png",
		"Sound1": "",
		"Sound2": "",
		"Sound3": ""
	},
	"3001": {
		"ID": 3001,
		"Head": "Cutscene/Skill_ABS/Head/CutScene_Soldier03.png",
		"Sound1": "",
		"Sound2": "",
		"Sound3": ""
	},
	"3002": {
		"ID": 3002,
		"Head": "Cutscene/Skill_ABS/Head/CutScene_Soldier02.png",
		"Sound1": "",
		"Sound2": "",
		"Sound3": ""
	},
	"3003": {
		"ID": 3003,
		"Head": "Cutscene/Skill_ABS/Head/CutScene_Soldier02.png",
		"Sound1": "",
		"Sound2": "",
		"Sound3": ""
	},
	"3004": {
		"ID": 3004,
		"Head": "Cutscene/Skill_ABS/Head/CutScene_Soldier03.png",
		"Sound1": "",
		"Sound2": "",
		"Sound3": ""
	},
	"3005": {
		"ID": 3005,
		"Head": "Cutscene/Skill_ABS/Head/CutScene_Soldier03.png",
		"Sound1": "",
		"Sound2": "",
		"Sound3": ""
	},
	"3006": {
		"ID": 3006,
		"Head": "Cutscene/Skill_ABS/Head/CutScene_Soldier03.png",
		"Sound1": "",
		"Sound2": "",
		"Sound3": ""
	},
	"3007": {
		"ID": 3007,
		"Head": "Cutscene/Skill_ABS/Head/CutScene_Soldier03.png",
		"Sound1": "",
		"Sound2": "",
		"Sound3": ""
	},
	"3008": {
		"ID": 3008,
		"Head": "Cutscene/Skill_ABS/Head/CutScene_Soldier02.png",
		"Sound1": "",
		"Sound2": "",
		"Sound3": ""
	},
	"3009": {
		"ID": 3009,
		"Head": "Cutscene/Skill_ABS/Head/CutScene_Witch.png",
		"Sound1": "",
		"Sound2": "",
		"Sound3": ""
	},
	"3010": {
		"ID": 3010,
		"Head": "Cutscene/Skill_ABS/Head/CutScene_Witch.png",
		"Sound1": "",
		"Sound2": "",
		"Sound3": ""
	},
	"3011": {
		"ID": 3011,
		"Head": "Cutscene/Skill_ABS/Head/CutScene_Monster.png",
		"Sound1": "",
		"Sound2": "",
		"Sound3": ""
	},
	"3012": {
		"ID": 3012,
		"Head": "Cutscene/Skill_ABS/Head/CutScene_Monster.png",
		"Sound1": "",
		"Sound2": "",
		"Sound3": ""
	}
}