{
	"0": {
		"ID": 0,
		"Desc": "Z"
	},
	"1": {
		"ID": 1,
		"Desc": "N"
	},
	"2": {
		"ID": 2,
		"Desc": "R"
	},
	"3": {
		"ID": 3,
		"Desc": "SR"
	},
	"4": {
		"ID": 4,
		"Desc": "SSR"
	},
	"5": {
		"ID": 5,
		"Desc": "SSSR"
	},
	"6": {
		"ID": 6,
		"Desc": "SSSS"
	}
}