{
	"1": {
		"ID": 1,
		"Price": 6.0,
		"GotCrystalNums": 30,
		"FirstBoughtReward": 30,
		"RepeatlyBoughtReward": 0,
		"Icon": "UI/Icon/Crystal_ABS/Icon_Crystal_01.png",
		"IsBestValue": false
	},
	"2": {
		"ID": 2,
		"Price": 30.0,
		"GotCrystalNums": 150,
		"FirstBoughtReward": 150,
		"RepeatlyBoughtReward": 18,
		"Icon": "UI/Icon/Crystal_ABS/Icon_Crystal_03.png",
		"IsBestValue": false
	},
	"3": {
		"ID": 3,
		"Price": 68.0,
		"GotCrystalNums": 300,
		"FirstBoughtReward": 300,
		"RepeatlyBoughtReward": 42,
		"Icon": "UI/Icon/Crystal_ABS/Icon_Crystal_04.png",
		"IsBestValue": false
	},
	"4": {
		"ID": 4,
		"Price": 128.0,
		"GotCrystalNums": 600,
		"FirstBoughtReward": 600,
		"RepeatlyBoughtReward": 92,
		"Icon": "UI/Icon/Crystal_ABS/Icon_Crystal_05.png",
		"IsBestValue": false
	},
	"5": {
		"ID": 5,
		"Price": 328.0,
		"GotCrystalNums": 1500,
		"FirstBoughtReward": 1500,
		"RepeatlyBoughtReward": 272,
		"Icon": "UI/Icon/Crystal_ABS/Icon_Crystal_06.png",
		"IsBestValue": false
	},
	"6": {
		"ID": 6,
		"Price": 648.0,
		"GotCrystalNums": 3000,
		"FirstBoughtReward": 3000,
		"RepeatlyBoughtReward": 600,
		"Icon": "UI/Icon/Crystal_ABS/Icon_Crystal_07.png",
		"IsBestValue": false
	}
}