{
	"101": {
		"ID": 101,
		"Name": "战士：中级生命",
		"Description": "饱含坚定意志的符文石，能提升步兵/枪兵的生命值。",
		"Rank": 2,
		"IconLocation": "UI/Icon/Item_ABS/StoneC_Warrior1.png",
		"LimitArmyType": [
			1,
			2
		],
		"ConsumeGold": 1000,
		"RefineryTemplateIds": [
			1,
			2,
			3,
			4
		],
		"RefineryPropertyType": "PropertyModifyType_Hero1_HPAdd",
		"SlotIds": [
			0,
			1,
			2,
			3
		]
	},
	"102": {
		"ID": 102,
		"Name": "战士：中级攻击",
		"Description": "饱含坚定意志的符文石，能提升步兵/枪兵的攻击。",
		"Rank": 2,
		"IconLocation": "UI/Icon/Item_ABS/StoneC_Warrior2.png",
		"LimitArmyType": [
			1,
			2
		],
		"ConsumeGold": 1000,
		"RefineryTemplateIds": [
			1,
			2,
			3,
			4
		],
		"RefineryPropertyType": "PropertyModifyType_Hero1_ATAdd",
		"SlotIds": [
			0,
			1,
			2,
			3
		]
	},
	"103": {
		"ID": 103,
		"Name": "战士：中级智力",
		"Description": "饱含坚定意志的符文石，能提升步兵/枪兵的智力。",
		"Rank": 2,
		"IconLocation": "UI/Icon/Item_ABS/StoneC_Warrior3.png",
		"LimitArmyType": [
			1,
			2
		],
		"ConsumeGold": 1000,
		"RefineryTemplateIds": [
			1,
			2,
			3,
			4
		],
		"RefineryPropertyType": "PropertyModifyType_Hero1_MagicAdd",
		"SlotIds": [
			0,
			1,
			2,
			3
		]
	},
	"104": {
		"ID": 104,
		"Name": "战士：中级防御",
		"Description": "饱含坚定意志的符文石，能提升步兵/枪兵的防御。",
		"Rank": 2,
		"IconLocation": "UI/Icon/Item_ABS/StoneC_Warrior4.png",
		"LimitArmyType": [
			1,
			2
		],
		"ConsumeGold": 1000,
		"RefineryTemplateIds": [
			1,
			2,
			3,
			4
		],
		"RefineryPropertyType": "PropertyModifyType_Hero1_DFAdd",
		"SlotIds": [
			0,
			1,
			2,
			3
		]
	},
	"105": {
		"ID": 105,
		"Name": "战士：中级魔防",
		"Description": "饱含坚定意志的符文石，能提升步兵/枪兵的魔防。",
		"Rank": 2,
		"IconLocation": "UI/Icon/Item_ABS/StoneC_Warrior5.png",
		"LimitArmyType": [
			1,
			2
		],
		"ConsumeGold": 1000,
		"RefineryTemplateIds": [
			1,
			2,
			3,
			4
		],
		"RefineryPropertyType": "PropertyModifyType_Hero1_MagicDFAdd",
		"SlotIds": [
			0,
			1,
			2,
			3
		]
	},
	"106": {
		"ID": 106,
		"Name": "战士：中级技巧",
		"Description": "饱含坚定意志的符文石，能提升步兵/枪兵的技巧。",
		"Rank": 2,
		"IconLocation": "UI/Icon/Item_ABS/StoneC_Warrior6.png",
		"LimitArmyType": [
			1,
			2
		],
		"ConsumeGold": 1000,
		"RefineryTemplateIds": [
			1,
			2,
			3,
			4
		],
		"RefineryPropertyType": "PropertyModifyType_Hero1_DEXAdd",
		"SlotIds": [
			0,
			1,
			2,
			3
		]
	},
	"111": {
		"ID": 111,
		"Name": "骑手：中级生命",
		"Description": "蓄有冲击之势的符文石，能提升骑兵/飞兵/水兵的生命值。",
		"Rank": 2,
		"IconLocation": "UI/Icon/Item_ABS/StoneC_Rider1.png",
		"LimitArmyType": [
			3,
			4,
			5
		],
		"ConsumeGold": 1000,
		"RefineryTemplateIds": [
			1,
			2,
			3,
			4
		],
		"RefineryPropertyType": "PropertyModifyType_Hero1_HPAdd",
		"SlotIds": [
			0,
			1,
			2,
			3
		]
	},
	"112": {
		"ID": 112,
		"Name": "骑手：中级攻击",
		"Description": "蓄有冲击之势的符文石，能提升骑兵/飞兵/水兵的攻击。",
		"Rank": 2,
		"IconLocation": "UI/Icon/Item_ABS/StoneC_Rider2.png",
		"LimitArmyType": [
			3,
			4,
			5
		],
		"ConsumeGold": 1000,
		"RefineryTemplateIds": [
			1,
			2,
			3,
			4
		],
		"RefineryPropertyType": "PropertyModifyType_Hero1_ATAdd",
		"SlotIds": [
			0,
			1,
			2,
			3
		]
	},
	"113": {
		"ID": 113,
		"Name": "骑手：中级智力",
		"Description": "蓄有冲击之势的符文石，能提升骑兵/飞兵/水兵的智力。",
		"Rank": 2,
		"IconLocation": "UI/Icon/Item_ABS/StoneC_Rider3.png",
		"LimitArmyType": [
			3,
			4,
			5
		],
		"ConsumeGold": 1000,
		"RefineryTemplateIds": [
			1,
			2,
			3,
			4
		],
		"RefineryPropertyType": "PropertyModifyType_Hero1_MagicAdd",
		"SlotIds": [
			0,
			1,
			2,
			3
		]
	},
	"114": {
		"ID": 114,
		"Name": "骑手：中级防御",
		"Description": "蓄有冲击之势的符文石，能提升骑兵/飞兵/水兵的防御。",
		"Rank": 2,
		"IconLocation": "UI/Icon/Item_ABS/StoneC_Rider4.png",
		"LimitArmyType": [
			3,
			4,
			5
		],
		"ConsumeGold": 1000,
		"RefineryTemplateIds": [
			1,
			2,
			3,
			4
		],
		"RefineryPropertyType": "PropertyModifyType_Hero1_DFAdd",
		"SlotIds": [
			0,
			1,
			2,
			3
		]
	},
	"115": {
		"ID": 115,
		"Name": "骑手：中级魔防",
		"Description": "蓄有冲击之势的符文石，能提升骑兵/飞兵/水兵的魔防。",
		"Rank": 2,
		"IconLocation": "UI/Icon/Item_ABS/StoneC_Rider5.png",
		"LimitArmyType": [
			3,
			4,
			5
		],
		"ConsumeGold": 1000,
		"RefineryTemplateIds": [
			1,
			2,
			3,
			4
		],
		"RefineryPropertyType": "PropertyModifyType_Hero1_MagicDFAdd",
		"SlotIds": [
			0,
			1,
			2,
			3
		]
	},
	"116": {
		"ID": 116,
		"Name": "骑手：中级技巧",
		"Description": "蓄有冲击之势的符文石，能提升骑兵/飞兵/水兵的技巧。",
		"Rank": 2,
		"IconLocation": "UI/Icon/Item_ABS/StoneC_Rider6.png",
		"LimitArmyType": [
			3,
			4,
			5
		],
		"ConsumeGold": 1000,
		"RefineryTemplateIds": [
			1,
			2,
			3,
			4
		],
		"RefineryPropertyType": "PropertyModifyType_Hero1_DEXAdd",
		"SlotIds": [
			0,
			1,
			2,
			3
		]
	},
	"121": {
		"ID": 121,
		"Name": "暗影：中级生命",
		"Description": "凝固神秘暗影的符文石，能提升弓兵/刺客/魔物的生命值。",
		"Rank": 2,
		"IconLocation": "UI/Icon/Item_ABS/StoneC_Shadow1.png",
		"LimitArmyType": [
			6,
			9,
			11
		],
		"ConsumeGold": 1000,
		"RefineryTemplateIds": [
			1,
			2,
			3,
			4
		],
		"RefineryPropertyType": "PropertyModifyType_Hero1_HPAdd",
		"SlotIds": [
			0,
			1,
			2,
			3
		]
	},
	"122": {
		"ID": 122,
		"Name": "暗影：中级攻击",
		"Description": "凝固神秘暗影的符文石，能提升弓兵/刺客/魔物的攻击。",
		"Rank": 2,
		"IconLocation": "UI/Icon/Item_ABS/StoneC_Shadow2.png",
		"LimitArmyType": [
			6,
			9,
			11
		],
		"ConsumeGold": 1000,
		"RefineryTemplateIds": [
			1,
			2,
			3,
			4
		],
		"RefineryPropertyType": "PropertyModifyType_Hero1_ATAdd",
		"SlotIds": [
			0,
			1,
			2,
			3
		]
	},
	"123": {
		"ID": 123,
		"Name": "暗影：中级智力",
		"Description": "凝固神秘暗影的符文石，能提升弓兵/刺客/魔物的智力。",
		"Rank": 2,
		"IconLocation": "UI/Icon/Item_ABS/StoneC_Shadow3.png",
		"LimitArmyType": [
			6,
			9,
			11
		],
		"ConsumeGold": 1000,
		"RefineryTemplateIds": [
			1,
			2,
			3,
			4
		],
		"RefineryPropertyType": "PropertyModifyType_Hero1_MagicAdd",
		"SlotIds": [
			0,
			1,
			2,
			3
		]
	},
	"124": {
		"ID": 124,
		"Name": "暗影：中级防御",
		"Description": "凝固神秘暗影的符文石，能提升弓兵/刺客/魔物的防御。",
		"Rank": 2,
		"IconLocation": "UI/Icon/Item_ABS/StoneC_Shadow4.png",
		"LimitArmyType": [
			6,
			9,
			11
		],
		"ConsumeGold": 1000,
		"RefineryTemplateIds": [
			1,
			2,
			3,
			4
		],
		"RefineryPropertyType": "PropertyModifyType_Hero1_DFAdd",
		"SlotIds": [
			0,
			1,
			2,
			3
		]
	},
	"125": {
		"ID": 125,
		"Name": "暗影：中级魔防",
		"Description": "凝固神秘暗影的符文石，能提升弓兵/刺客/魔物的魔防。",
		"Rank": 2,
		"IconLocation": "UI/Icon/Item_ABS/StoneC_Shadow5.png",
		"LimitArmyType": [
			6,
			9,
			11
		],
		"ConsumeGold": 1000,
		"RefineryTemplateIds": [
			1,
			2,
			3,
			4
		],
		"RefineryPropertyType": "PropertyModifyType_Hero1_MagicDFAdd",
		"SlotIds": [
			0,
			1,
			2,
			3
		]
	},
	"126": {
		"ID": 126,
		"Name": "暗影：中级技巧",
		"Description": "凝固神秘暗影的符文石，能提升弓兵/刺客/魔物的技巧。",
		"Rank": 2,
		"IconLocation": "UI/Icon/Item_ABS/StoneC_Shadow6.png",
		"LimitArmyType": [
			6,
			9,
			11
		],
		"ConsumeGold": 1000,
		"RefineryTemplateIds": [
			1,
			2,
			3,
			4
		],
		"RefineryPropertyType": "PropertyModifyType_Hero1_DEXAdd",
		"SlotIds": [
			0,
			1,
			2,
			3
		]
	},
	"131": {
		"ID": 131,
		"Name": "神圣：中级生命",
		"Description": "集结虔诚祈愿的符文石，能提升僧侣/龙的生命值。",
		"Rank": 2,
		"IconLocation": "UI/Icon/Item_ABS/StoneC_Holy1.png",
		"LimitArmyType": [
			8,
			27
		],
		"ConsumeGold": 1000,
		"RefineryTemplateIds": [
			1,
			2,
			3,
			4
		],
		"RefineryPropertyType": "PropertyModifyType_Hero1_HPAdd",
		"SlotIds": [
			0,
			1,
			2,
			3
		]
	},
	"132": {
		"ID": 132,
		"Name": "神圣：中级攻击",
		"Description": "集结虔诚祈愿的符文石，能提升僧侣/龙的攻击。",
		"Rank": 2,
		"IconLocation": "UI/Icon/Item_ABS/StoneC_Holy2.png",
		"LimitArmyType": [
			8,
			27
		],
		"ConsumeGold": 1000,
		"RefineryTemplateIds": [
			1,
			2,
			3,
			4
		],
		"RefineryPropertyType": "PropertyModifyType_Hero1_ATAdd",
		"SlotIds": [
			0,
			1,
			2,
			3
		]
	},
	"133": {
		"ID": 133,
		"Name": "神圣：中级智力",
		"Description": "集结虔诚祈愿的符文石，能提升僧侣/龙的智力。",
		"Rank": 2,
		"IconLocation": "UI/Icon/Item_ABS/StoneC_Holy3.png",
		"LimitArmyType": [
			8,
			27
		],
		"ConsumeGold": 1000,
		"RefineryTemplateIds": [
			1,
			2,
			3,
			4
		],
		"RefineryPropertyType": "PropertyModifyType_Hero1_MagicAdd",
		"SlotIds": [
			0,
			1,
			2,
			3
		]
	},
	"134": {
		"ID": 134,
		"Name": "神圣：中级防御",
		"Description": "集结虔诚祈愿的符文石，能提升僧侣/龙的防御。",
		"Rank": 2,
		"IconLocation": "UI/Icon/Item_ABS/StoneC_Holy4.png",
		"LimitArmyType": [
			8,
			27
		],
		"ConsumeGold": 1000,
		"RefineryTemplateIds": [
			1,
			2,
			3,
			4
		],
		"RefineryPropertyType": "PropertyModifyType_Hero1_DFAdd",
		"SlotIds": [
			0,
			1,
			2,
			3
		]
	},
	"135": {
		"ID": 135,
		"Name": "神圣：中级魔防",
		"Description": "集结虔诚祈愿的符文石，能提升僧侣/龙的魔防。",
		"Rank": 2,
		"IconLocation": "UI/Icon/Item_ABS/StoneC_Holy5.png",
		"LimitArmyType": [
			8,
			27
		],
		"ConsumeGold": 1000,
		"RefineryTemplateIds": [
			1,
			2,
			3,
			4
		],
		"RefineryPropertyType": "PropertyModifyType_Hero1_MagicDFAdd",
		"SlotIds": [
			0,
			1,
			2,
			3
		]
	},
	"136": {
		"ID": 136,
		"Name": "神圣：中级技巧",
		"Description": "集结虔诚祈愿的符文石，能提升僧侣/龙的技巧。",
		"Rank": 2,
		"IconLocation": "UI/Icon/Item_ABS/StoneC_Holy6.png",
		"LimitArmyType": [
			8,
			27
		],
		"ConsumeGold": 1000,
		"RefineryTemplateIds": [
			1,
			2,
			3,
			4
		],
		"RefineryPropertyType": "PropertyModifyType_Hero1_DEXAdd",
		"SlotIds": [
			0,
			1,
			2,
			3
		]
	},
	"141": {
		"ID": 141,
		"Name": "魔能：中级生命",
		"Description": "深藏无尽魔力的符文石，能提升法师的生命值。",
		"Rank": 2,
		"IconLocation": "UI/Icon/Item_ABS/StoneC_Magic1.png",
		"LimitArmyType": [
			7
		],
		"ConsumeGold": 1000,
		"RefineryTemplateIds": [
			1,
			2,
			3,
			4
		],
		"RefineryPropertyType": "PropertyModifyType_Hero1_HPAdd",
		"SlotIds": [
			0,
			1,
			2,
			3
		]
	},
	"142": {
		"ID": 142,
		"Name": "魔能：中级攻击",
		"Description": "深藏无尽魔力的符文石，能提升法师的攻击。",
		"Rank": 2,
		"IconLocation": "UI/Icon/Item_ABS/StoneC_Magic2.png",
		"LimitArmyType": [
			7
		],
		"ConsumeGold": 1000,
		"RefineryTemplateIds": [
			1,
			2,
			3,
			4
		],
		"RefineryPropertyType": "PropertyModifyType_Hero1_ATAdd",
		"SlotIds": [
			0,
			1,
			2,
			3
		]
	},
	"143": {
		"ID": 143,
		"Name": "魔能：中级智力",
		"Description": "深藏无尽魔力的符文石，能提升法师的智力。",
		"Rank": 2,
		"IconLocation": "UI/Icon/Item_ABS/StoneC_Magic3.png",
		"LimitArmyType": [
			7
		],
		"ConsumeGold": 1000,
		"RefineryTemplateIds": [
			1,
			2,
			3,
			4
		],
		"RefineryPropertyType": "PropertyModifyType_Hero1_MagicAdd",
		"SlotIds": [
			0,
			1,
			2,
			3
		]
	},
	"144": {
		"ID": 144,
		"Name": "魔能：中级防御",
		"Description": "深藏无尽魔力的符文石，能提升法师的防御。",
		"Rank": 2,
		"IconLocation": "UI/Icon/Item_ABS/StoneC_Magic4.png",
		"LimitArmyType": [
			7
		],
		"ConsumeGold": 1000,
		"RefineryTemplateIds": [
			1,
			2,
			3,
			4
		],
		"RefineryPropertyType": "PropertyModifyType_Hero1_DFAdd",
		"SlotIds": [
			0,
			1,
			2,
			3
		]
	},
	"145": {
		"ID": 145,
		"Name": "魔能：中级魔防",
		"Description": "深藏无尽魔力的符文石，能提升法师的魔防。",
		"Rank": 2,
		"IconLocation": "UI/Icon/Item_ABS/StoneC_Magic5.png",
		"LimitArmyType": [
			7
		],
		"ConsumeGold": 1000,
		"RefineryTemplateIds": [
			1,
			2,
			3,
			4
		],
		"RefineryPropertyType": "PropertyModifyType_Hero1_MagicDFAdd",
		"SlotIds": [
			0,
			1,
			2,
			3
		]
	},
	"146": {
		"ID": 146,
		"Name": "魔能：中级技巧",
		"Description": "深藏无尽魔力的符文石，能提升法师的技巧。",
		"Rank": 2,
		"IconLocation": "UI/Icon/Item_ABS/StoneC_Magic6.png",
		"LimitArmyType": [
			7
		],
		"ConsumeGold": 1000,
		"RefineryTemplateIds": [
			1,
			2,
			3,
			4
		],
		"RefineryPropertyType": "PropertyModifyType_Hero1_DEXAdd",
		"SlotIds": [
			0,
			1,
			2,
			3
		]
	},
	"201": {
		"ID": 201,
		"Name": "战士：高级生命",
		"Description": "饱含坚定意志的符文石，能提升步兵/枪兵的生命值。",
		"Rank": 3,
		"IconLocation": "UI/Icon/Item_ABS/StoneB_Warrior1.png",
		"LimitArmyType": [
			1,
			2
		],
		"ConsumeGold": 10000,
		"RefineryTemplateIds": [
			5,
			6,
			7,
			8
		],
		"RefineryPropertyType": "PropertyModifyType_Hero1_HPAdd",
		"SlotIds": [
			0,
			1,
			2,
			3
		]
	},
	"202": {
		"ID": 202,
		"Name": "战士：高级攻击",
		"Description": "饱含坚定意志的符文石，能提升步兵/枪兵的攻击。",
		"Rank": 3,
		"IconLocation": "UI/Icon/Item_ABS/StoneB_Warrior2.png",
		"LimitArmyType": [
			1,
			2
		],
		"ConsumeGold": 10000,
		"RefineryTemplateIds": [
			5,
			6,
			7,
			8
		],
		"RefineryPropertyType": "PropertyModifyType_Hero1_ATAdd",
		"SlotIds": [
			0,
			1,
			2,
			3
		]
	},
	"203": {
		"ID": 203,
		"Name": "战士：高级智力",
		"Description": "饱含坚定意志的符文石，能提升步兵/枪兵的智力。",
		"Rank": 3,
		"IconLocation": "UI/Icon/Item_ABS/StoneB_Warrior3.png",
		"LimitArmyType": [
			1,
			2
		],
		"ConsumeGold": 10000,
		"RefineryTemplateIds": [
			5,
			6,
			7,
			8
		],
		"RefineryPropertyType": "PropertyModifyType_Hero1_MagicAdd",
		"SlotIds": [
			0,
			1,
			2,
			3
		]
	},
	"204": {
		"ID": 204,
		"Name": "战士：高级防御",
		"Description": "饱含坚定意志的符文石，能提升步兵/枪兵的防御。",
		"Rank": 3,
		"IconLocation": "UI/Icon/Item_ABS/StoneB_Warrior4.png",
		"LimitArmyType": [
			1,
			2
		],
		"ConsumeGold": 10000,
		"RefineryTemplateIds": [
			5,
			6,
			7,
			8
		],
		"RefineryPropertyType": "PropertyModifyType_Hero1_DFAdd",
		"SlotIds": [
			0,
			1,
			2,
			3
		]
	},
	"205": {
		"ID": 205,
		"Name": "战士：高级魔防",
		"Description": "饱含坚定意志的符文石，能提升步兵/枪兵的魔防。",
		"Rank": 3,
		"IconLocation": "UI/Icon/Item_ABS/StoneB_Warrior5.png",
		"LimitArmyType": [
			1,
			2
		],
		"ConsumeGold": 10000,
		"RefineryTemplateIds": [
			5,
			6,
			7,
			8
		],
		"RefineryPropertyType": "PropertyModifyType_Hero1_MagicDFAdd",
		"SlotIds": [
			0,
			1,
			2,
			3
		]
	},
	"206": {
		"ID": 206,
		"Name": "战士：高级技巧",
		"Description": "饱含坚定意志的符文石，能提升步兵/枪兵的技巧。",
		"Rank": 3,
		"IconLocation": "UI/Icon/Item_ABS/StoneB_Warrior6.png",
		"LimitArmyType": [
			1,
			2
		],
		"ConsumeGold": 10000,
		"RefineryTemplateIds": [
			5,
			6,
			7,
			8
		],
		"RefineryPropertyType": "PropertyModifyType_Hero1_DEXAdd",
		"SlotIds": [
			0,
			1,
			2,
			3
		]
	},
	"211": {
		"ID": 211,
		"Name": "骑手：高级生命",
		"Description": "蓄有冲击之势的符文石，能提升骑兵/飞兵/水兵的生命值。",
		"Rank": 3,
		"IconLocation": "UI/Icon/Item_ABS/StoneB_Rider1.png",
		"LimitArmyType": [
			3,
			4,
			5
		],
		"ConsumeGold": 10000,
		"RefineryTemplateIds": [
			5,
			6,
			7,
			8
		],
		"RefineryPropertyType": "PropertyModifyType_Hero1_HPAdd",
		"SlotIds": [
			0,
			1,
			2,
			3
		]
	},
	"212": {
		"ID": 212,
		"Name": "骑手：高级攻击",
		"Description": "蓄有冲击之势的符文石，能提升骑兵/飞兵/水兵的攻击。",
		"Rank": 3,
		"IconLocation": "UI/Icon/Item_ABS/StoneB_Rider2.png",
		"LimitArmyType": [
			3,
			4,
			5
		],
		"ConsumeGold": 10000,
		"RefineryTemplateIds": [
			5,
			6,
			7,
			8
		],
		"RefineryPropertyType": "PropertyModifyType_Hero1_ATAdd",
		"SlotIds": [
			0,
			1,
			2,
			3
		]
	},
	"213": {
		"ID": 213,
		"Name": "骑手：高级智力",
		"Description": "蓄有冲击之势的符文石，能提升骑兵/飞兵/水兵的智力。",
		"Rank": 3,
		"IconLocation": "UI/Icon/Item_ABS/StoneB_Rider3.png",
		"LimitArmyType": [
			3,
			4,
			5
		],
		"ConsumeGold": 10000,
		"RefineryTemplateIds": [
			5,
			6,
			7,
			8
		],
		"RefineryPropertyType": "PropertyModifyType_Hero1_MagicAdd",
		"SlotIds": [
			0,
			1,
			2,
			3
		]
	},
	"214": {
		"ID": 214,
		"Name": "骑手：高级防御",
		"Description": "蓄有冲击之势的符文石，能提升骑兵/飞兵/水兵的防御。",
		"Rank": 3,
		"IconLocation": "UI/Icon/Item_ABS/StoneB_Rider4.png",
		"LimitArmyType": [
			3,
			4,
			5
		],
		"ConsumeGold": 10000,
		"RefineryTemplateIds": [
			5,
			6,
			7,
			8
		],
		"RefineryPropertyType": "PropertyModifyType_Hero1_DFAdd",
		"SlotIds": [
			0,
			1,
			2,
			3
		]
	},
	"215": {
		"ID": 215,
		"Name": "骑手：高级魔防",
		"Description": "蓄有冲击之势的符文石，能提升骑兵/飞兵/水兵的魔防。",
		"Rank": 3,
		"IconLocation": "UI/Icon/Item_ABS/StoneB_Rider5.png",
		"LimitArmyType": [
			3,
			4,
			5
		],
		"ConsumeGold": 10000,
		"RefineryTemplateIds": [
			5,
			6,
			7,
			8
		],
		"RefineryPropertyType": "PropertyModifyType_Hero1_MagicDFAdd",
		"SlotIds": [
			0,
			1,
			2,
			3
		]
	},
	"216": {
		"ID": 216,
		"Name": "骑手：高级技巧",
		"Description": "蓄有冲击之势的符文石，能提升骑兵/飞兵/水兵的技巧。",
		"Rank": 3,
		"IconLocation": "UI/Icon/Item_ABS/StoneB_Rider6.png",
		"LimitArmyType": [
			3,
			4,
			5
		],
		"ConsumeGold": 10000,
		"RefineryTemplateIds": [
			5,
			6,
			7,
			8
		],
		"RefineryPropertyType": "PropertyModifyType_Hero1_DEXAdd",
		"SlotIds": [
			0,
			1,
			2,
			3
		]
	},
	"221": {
		"ID": 221,
		"Name": "暗影：高级生命",
		"Description": "凝固神秘暗影的符文石，能提升弓兵/刺客/魔物的生命值。",
		"Rank": 3,
		"IconLocation": "UI/Icon/Item_ABS/StoneB_Shadow1.png",
		"LimitArmyType": [
			6,
			9,
			11
		],
		"ConsumeGold": 10000,
		"RefineryTemplateIds": [
			5,
			6,
			7,
			8
		],
		"RefineryPropertyType": "PropertyModifyType_Hero1_HPAdd",
		"SlotIds": [
			0,
			1,
			2,
			3
		]
	},
	"222": {
		"ID": 222,
		"Name": "暗影：高级攻击",
		"Description": "凝固神秘暗影的符文石，能提升弓兵/刺客/魔物的攻击。",
		"Rank": 3,
		"IconLocation": "UI/Icon/Item_ABS/StoneB_Shadow2.png",
		"LimitArmyType": [
			6,
			9,
			11
		],
		"ConsumeGold": 10000,
		"RefineryTemplateIds": [
			5,
			6,
			7,
			8
		],
		"RefineryPropertyType": "PropertyModifyType_Hero1_ATAdd",
		"SlotIds": [
			0,
			1,
			2,
			3
		]
	},
	"223": {
		"ID": 223,
		"Name": "暗影：高级智力",
		"Description": "凝固神秘暗影的符文石，能提升弓兵/刺客/魔物的智力。",
		"Rank": 3,
		"IconLocation": "UI/Icon/Item_ABS/StoneB_Shadow3.png",
		"LimitArmyType": [
			6,
			9,
			11
		],
		"ConsumeGold": 10000,
		"RefineryTemplateIds": [
			5,
			6,
			7,
			8
		],
		"RefineryPropertyType": "PropertyModifyType_Hero1_MagicAdd",
		"SlotIds": [
			0,
			1,
			2,
			3
		]
	},
	"224": {
		"ID": 224,
		"Name": "暗影：高级防御",
		"Description": "凝固神秘暗影的符文石，能提升弓兵/刺客/魔物的防御。",
		"Rank": 3,
		"IconLocation": "UI/Icon/Item_ABS/StoneB_Shadow4.png",
		"LimitArmyType": [
			6,
			9,
			11
		],
		"ConsumeGold": 10000,
		"RefineryTemplateIds": [
			5,
			6,
			7,
			8
		],
		"RefineryPropertyType": "PropertyModifyType_Hero1_DFAdd",
		"SlotIds": [
			0,
			1,
			2,
			3
		]
	},
	"225": {
		"ID": 225,
		"Name": "暗影：高级魔防",
		"Description": "凝固神秘暗影的符文石，能提升弓兵/刺客/魔物的魔防。",
		"Rank": 3,
		"IconLocation": "UI/Icon/Item_ABS/StoneB_Shadow5.png",
		"LimitArmyType": [
			6,
			9,
			11
		],
		"ConsumeGold": 10000,
		"RefineryTemplateIds": [
			5,
			6,
			7,
			8
		],
		"RefineryPropertyType": "PropertyModifyType_Hero1_MagicDFAdd",
		"SlotIds": [
			0,
			1,
			2,
			3
		]
	},
	"226": {
		"ID": 226,
		"Name": "暗影：高级技巧",
		"Description": "凝固神秘暗影的符文石，能提升弓兵/刺客/魔物的技巧。",
		"Rank": 3,
		"IconLocation": "UI/Icon/Item_ABS/StoneB_Shadow6.png",
		"LimitArmyType": [
			6,
			9,
			11
		],
		"ConsumeGold": 10000,
		"RefineryTemplateIds": [
			5,
			6,
			7,
			8
		],
		"RefineryPropertyType": "PropertyModifyType_Hero1_DEXAdd",
		"SlotIds": [
			0,
			1,
			2,
			3
		]
	},
	"231": {
		"ID": 231,
		"Name": "神圣：高级生命",
		"Description": "集结虔诚祈愿的符文石，能提升僧侣/龙的生命值。",
		"Rank": 3,
		"IconLocation": "UI/Icon/Item_ABS/StoneB_Holy1.png",
		"LimitArmyType": [
			8,
			27
		],
		"ConsumeGold": 10000,
		"RefineryTemplateIds": [
			5,
			6,
			7,
			8
		],
		"RefineryPropertyType": "PropertyModifyType_Hero1_HPAdd",
		"SlotIds": [
			0,
			1,
			2,
			3
		]
	},
	"232": {
		"ID": 232,
		"Name": "神圣：高级攻击",
		"Description": "集结虔诚祈愿的符文石，能提升僧侣/龙的攻击。",
		"Rank": 3,
		"IconLocation": "UI/Icon/Item_ABS/StoneB_Holy2.png",
		"LimitArmyType": [
			8,
			27
		],
		"ConsumeGold": 10000,
		"RefineryTemplateIds": [
			5,
			6,
			7,
			8
		],
		"RefineryPropertyType": "PropertyModifyType_Hero1_ATAdd",
		"SlotIds": [
			0,
			1,
			2,
			3
		]
	},
	"233": {
		"ID": 233,
		"Name": "神圣：高级智力",
		"Description": "集结虔诚祈愿的符文石，能提升僧侣/龙的智力。",
		"Rank": 3,
		"IconLocation": "UI/Icon/Item_ABS/StoneB_Holy3.png",
		"LimitArmyType": [
			8,
			27
		],
		"ConsumeGold": 10000,
		"RefineryTemplateIds": [
			5,
			6,
			7,
			8
		],
		"RefineryPropertyType": "PropertyModifyType_Hero1_MagicAdd",
		"SlotIds": [
			0,
			1,
			2,
			3
		]
	},
	"234": {
		"ID": 234,
		"Name": "神圣：高级防御",
		"Description": "集结虔诚祈愿的符文石，能提升僧侣/龙的防御。",
		"Rank": 3,
		"IconLocation": "UI/Icon/Item_ABS/StoneB_Holy4.png",
		"LimitArmyType": [
			8,
			27
		],
		"ConsumeGold": 10000,
		"RefineryTemplateIds": [
			5,
			6,
			7,
			8
		],
		"RefineryPropertyType": "PropertyModifyType_Hero1_DFAdd",
		"SlotIds": [
			0,
			1,
			2,
			3
		]
	},
	"235": {
		"ID": 235,
		"Name": "神圣：高级魔防",
		"Description": "集结虔诚祈愿的符文石，能提升僧侣/龙的魔防。",
		"Rank": 3,
		"IconLocation": "UI/Icon/Item_ABS/StoneB_Holy5.png",
		"LimitArmyType": [
			8,
			27
		],
		"ConsumeGold": 10000,
		"RefineryTemplateIds": [
			5,
			6,
			7,
			8
		],
		"RefineryPropertyType": "PropertyModifyType_Hero1_MagicDFAdd",
		"SlotIds": [
			0,
			1,
			2,
			3
		]
	},
	"236": {
		"ID": 236,
		"Name": "神圣：高级技巧",
		"Description": "集结虔诚祈愿的符文石，能提升僧侣/龙的技巧。",
		"Rank": 3,
		"IconLocation": "UI/Icon/Item_ABS/StoneB_Holy6.png",
		"LimitArmyType": [
			8,
			27
		],
		"ConsumeGold": 10000,
		"RefineryTemplateIds": [
			5,
			6,
			7,
			8
		],
		"RefineryPropertyType": "PropertyModifyType_Hero1_DEXAdd",
		"SlotIds": [
			0,
			1,
			2,
			3
		]
	},
	"241": {
		"ID": 241,
		"Name": "魔能：高级生命",
		"Description": "深藏无尽魔力的符文石，能提升法师的生命值。",
		"Rank": 3,
		"IconLocation": "UI/Icon/Item_ABS/StoneB_Magic1.png",
		"LimitArmyType": [
			7
		],
		"ConsumeGold": 10000,
		"RefineryTemplateIds": [
			5,
			6,
			7,
			8
		],
		"RefineryPropertyType": "PropertyModifyType_Hero1_HPAdd",
		"SlotIds": [
			0,
			1,
			2,
			3
		]
	},
	"242": {
		"ID": 242,
		"Name": "魔能：高级攻击",
		"Description": "深藏无尽魔力的符文石，能提升法师的攻击。",
		"Rank": 3,
		"IconLocation": "UI/Icon/Item_ABS/StoneB_Magic2.png",
		"LimitArmyType": [
			7
		],
		"ConsumeGold": 10000,
		"RefineryTemplateIds": [
			5,
			6,
			7,
			8
		],
		"RefineryPropertyType": "PropertyModifyType_Hero1_ATAdd",
		"SlotIds": [
			0,
			1,
			2,
			3
		]
	},
	"243": {
		"ID": 243,
		"Name": "魔能：高级智力",
		"Description": "深藏无尽魔力的符文石，能提升法师的智力。",
		"Rank": 3,
		"IconLocation": "UI/Icon/Item_ABS/StoneB_Magic3.png",
		"LimitArmyType": [
			7
		],
		"ConsumeGold": 10000,
		"RefineryTemplateIds": [
			5,
			6,
			7,
			8
		],
		"RefineryPropertyType": "PropertyModifyType_Hero1_MagicAdd",
		"SlotIds": [
			0,
			1,
			2,
			3
		]
	},
	"244": {
		"ID": 244,
		"Name": "魔能：高级防御",
		"Description": "深藏无尽魔力的符文石，能提升法师的防御。",
		"Rank": 3,
		"IconLocation": "UI/Icon/Item_ABS/StoneB_Magic4.png",
		"LimitArmyType": [
			7
		],
		"ConsumeGold": 10000,
		"RefineryTemplateIds": [
			5,
			6,
			7,
			8
		],
		"RefineryPropertyType": "PropertyModifyType_Hero1_DFAdd",
		"SlotIds": [
			0,
			1,
			2,
			3
		]
	},
	"245": {
		"ID": 245,
		"Name": "魔能：高级魔防",
		"Description": "深藏无尽魔力的符文石，能提升法师的魔防。",
		"Rank": 3,
		"IconLocation": "UI/Icon/Item_ABS/StoneB_Magic5.png",
		"LimitArmyType": [
			7
		],
		"ConsumeGold": 10000,
		"RefineryTemplateIds": [
			5,
			6,
			7,
			8
		],
		"RefineryPropertyType": "PropertyModifyType_Hero1_MagicDFAdd",
		"SlotIds": [
			0,
			1,
			2,
			3
		]
	},
	"246": {
		"ID": 246,
		"Name": "魔能：高级技巧",
		"Description": "深藏无尽魔力的符文石，能提升法师的技巧。",
		"Rank": 3,
		"IconLocation": "UI/Icon/Item_ABS/StoneB_Magic6.png",
		"LimitArmyType": [
			7
		],
		"ConsumeGold": 10000,
		"RefineryTemplateIds": [
			5,
			6,
			7,
			8
		],
		"RefineryPropertyType": "PropertyModifyType_Hero1_DEXAdd",
		"SlotIds": [
			0,
			1,
			2,
			3
		]
	},
	"301": {
		"ID": 301,
		"Name": "战士：特级生命",
		"Description": "饱含坚定意志的符文石，能提升步兵/枪兵的生命值。",
		"Rank": 4,
		"IconLocation": "UI/Icon/Item_ABS/StoneA_Warrior1.png",
		"LimitArmyType": [
			1,
			2
		],
		"ConsumeGold": 50000,
		"RefineryTemplateIds": [
			9,
			10,
			11,
			12
		],
		"RefineryPropertyType": "PropertyModifyType_Hero1_HPAdd",
		"SlotIds": [
			0,
			1,
			2,
			3
		]
	},
	"302": {
		"ID": 302,
		"Name": "战士：特级攻击",
		"Description": "饱含坚定意志的符文石，能提升步兵/枪兵的攻击。",
		"Rank": 4,
		"IconLocation": "UI/Icon/Item_ABS/StoneA_Warrior2.png",
		"LimitArmyType": [
			1,
			2
		],
		"ConsumeGold": 50000,
		"RefineryTemplateIds": [
			9,
			10,
			11,
			12
		],
		"RefineryPropertyType": "PropertyModifyType_Hero1_ATAdd",
		"SlotIds": [
			0,
			1,
			2,
			3
		]
	},
	"303": {
		"ID": 303,
		"Name": "战士：特级智力",
		"Description": "饱含坚定意志的符文石，能提升步兵/枪兵的智力。",
		"Rank": 4,
		"IconLocation": "UI/Icon/Item_ABS/StoneA_Warrior3.png",
		"LimitArmyType": [
			1,
			2
		],
		"ConsumeGold": 50000,
		"RefineryTemplateIds": [
			9,
			10,
			11,
			12
		],
		"RefineryPropertyType": "PropertyModifyType_Hero1_MagicAdd",
		"SlotIds": [
			0,
			1,
			2,
			3
		]
	},
	"304": {
		"ID": 304,
		"Name": "战士：特级防御",
		"Description": "饱含坚定意志的符文石，能提升步兵/枪兵的防御。",
		"Rank": 4,
		"IconLocation": "UI/Icon/Item_ABS/StoneA_Warrior4.png",
		"LimitArmyType": [
			1,
			2
		],
		"ConsumeGold": 50000,
		"RefineryTemplateIds": [
			9,
			10,
			11,
			12
		],
		"RefineryPropertyType": "PropertyModifyType_Hero1_DFAdd",
		"SlotIds": [
			0,
			1,
			2,
			3
		]
	},
	"305": {
		"ID": 305,
		"Name": "战士：特级魔防",
		"Description": "饱含坚定意志的符文石，能提升步兵/枪兵的魔防。",
		"Rank": 4,
		"IconLocation": "UI/Icon/Item_ABS/StoneA_Warrior5.png",
		"LimitArmyType": [
			1,
			2
		],
		"ConsumeGold": 50000,
		"RefineryTemplateIds": [
			9,
			10,
			11,
			12
		],
		"RefineryPropertyType": "PropertyModifyType_Hero1_MagicDFAdd",
		"SlotIds": [
			0,
			1,
			2,
			3
		]
	},
	"306": {
		"ID": 306,
		"Name": "战士：特级技巧",
		"Description": "饱含坚定意志的符文石，能提升步兵/枪兵的技巧。",
		"Rank": 4,
		"IconLocation": "UI/Icon/Item_ABS/StoneA_Warrior6.png",
		"LimitArmyType": [
			1,
			2
		],
		"ConsumeGold": 50000,
		"RefineryTemplateIds": [
			9,
			10,
			11,
			12
		],
		"RefineryPropertyType": "PropertyModifyType_Hero1_DEXAdd",
		"SlotIds": [
			0,
			1,
			2,
			3
		]
	},
	"311": {
		"ID": 311,
		"Name": "骑手：特级生命",
		"Description": "蓄有冲击之势的符文石，能提升骑兵/飞兵/水兵的生命值。",
		"Rank": 4,
		"IconLocation": "UI/Icon/Item_ABS/StoneA_Rider1.png",
		"LimitArmyType": [
			3,
			4,
			5
		],
		"ConsumeGold": 50000,
		"RefineryTemplateIds": [
			9,
			10,
			11,
			12
		],
		"RefineryPropertyType": "PropertyModifyType_Hero1_HPAdd",
		"SlotIds": [
			0,
			1,
			2,
			3
		]
	},
	"312": {
		"ID": 312,
		"Name": "骑手：特级攻击",
		"Description": "蓄有冲击之势的符文石，能提升骑兵/飞兵/水兵的攻击。",
		"Rank": 4,
		"IconLocation": "UI/Icon/Item_ABS/StoneA_Rider2.png",
		"LimitArmyType": [
			3,
			4,
			5
		],
		"ConsumeGold": 50000,
		"RefineryTemplateIds": [
			9,
			10,
			11,
			12
		],
		"RefineryPropertyType": "PropertyModifyType_Hero1_ATAdd",
		"SlotIds": [
			0,
			1,
			2,
			3
		]
	},
	"313": {
		"ID": 313,
		"Name": "骑手：特级智力",
		"Description": "蓄有冲击之势的符文石，能提升骑兵/飞兵/水兵的智力。",
		"Rank": 4,
		"IconLocation": "UI/Icon/Item_ABS/StoneA_Rider3.png",
		"LimitArmyType": [
			3,
			4,
			5
		],
		"ConsumeGold": 50000,
		"RefineryTemplateIds": [
			9,
			10,
			11,
			12
		],
		"RefineryPropertyType": "PropertyModifyType_Hero1_MagicAdd",
		"SlotIds": [
			0,
			1,
			2,
			3
		]
	},
	"314": {
		"ID": 314,
		"Name": "骑手：特级防御",
		"Description": "蓄有冲击之势的符文石，能提升骑兵/飞兵/水兵的防御。",
		"Rank": 4,
		"IconLocation": "UI/Icon/Item_ABS/StoneA_Rider4.png",
		"LimitArmyType": [
			3,
			4,
			5
		],
		"ConsumeGold": 50000,
		"RefineryTemplateIds": [
			9,
			10,
			11,
			12
		],
		"RefineryPropertyType": "PropertyModifyType_Hero1_DFAdd",
		"SlotIds": [
			0,
			1,
			2,
			3
		]
	},
	"315": {
		"ID": 315,
		"Name": "骑手：特级魔防",
		"Description": "蓄有冲击之势的符文石，能提升骑兵/飞兵/水兵的魔防。",
		"Rank": 4,
		"IconLocation": "UI/Icon/Item_ABS/StoneA_Rider5.png",
		"LimitArmyType": [
			3,
			4,
			5
		],
		"ConsumeGold": 50000,
		"RefineryTemplateIds": [
			9,
			10,
			11,
			12
		],
		"RefineryPropertyType": "PropertyModifyType_Hero1_MagicDFAdd",
		"SlotIds": [
			0,
			1,
			2,
			3
		]
	},
	"316": {
		"ID": 316,
		"Name": "骑手：特级技巧",
		"Description": "蓄有冲击之势的符文石，能提升骑兵/飞兵/水兵的技巧。",
		"Rank": 4,
		"IconLocation": "UI/Icon/Item_ABS/StoneA_Rider6.png",
		"LimitArmyType": [
			3,
			4,
			5
		],
		"ConsumeGold": 50000,
		"RefineryTemplateIds": [
			9,
			10,
			11,
			12
		],
		"RefineryPropertyType": "PropertyModifyType_Hero1_DEXAdd",
		"SlotIds": [
			0,
			1,
			2,
			3
		]
	},
	"321": {
		"ID": 321,
		"Name": "暗影：特级生命",
		"Description": "凝固神秘暗影的符文石，能提升弓兵/刺客/魔物的生命值。",
		"Rank": 4,
		"IconLocation": "UI/Icon/Item_ABS/StoneA_Shadow1.png",
		"LimitArmyType": [
			6,
			9,
			11
		],
		"ConsumeGold": 50000,
		"RefineryTemplateIds": [
			9,
			10,
			11,
			12
		],
		"RefineryPropertyType": "PropertyModifyType_Hero1_HPAdd",
		"SlotIds": [
			0,
			1,
			2,
			3
		]
	},
	"322": {
		"ID": 322,
		"Name": "暗影：特级攻击",
		"Description": "凝固神秘暗影的符文石，能提升弓兵/刺客/魔物的攻击。",
		"Rank": 4,
		"IconLocation": "UI/Icon/Item_ABS/StoneA_Shadow2.png",
		"LimitArmyType": [
			6,
			9,
			11
		],
		"ConsumeGold": 50000,
		"RefineryTemplateIds": [
			9,
			10,
			11,
			12
		],
		"RefineryPropertyType": "PropertyModifyType_Hero1_ATAdd",
		"SlotIds": [
			0,
			1,
			2,
			3
		]
	},
	"323": {
		"ID": 323,
		"Name": "暗影：特级智力",
		"Description": "凝固神秘暗影的符文石，能提升弓兵/刺客/魔物的智力。",
		"Rank": 4,
		"IconLocation": "UI/Icon/Item_ABS/StoneA_Shadow3.png",
		"LimitArmyType": [
			6,
			9,
			11
		],
		"ConsumeGold": 50000,
		"RefineryTemplateIds": [
			9,
			10,
			11,
			12
		],
		"RefineryPropertyType": "PropertyModifyType_Hero1_MagicAdd",
		"SlotIds": [
			0,
			1,
			2,
			3
		]
	},
	"324": {
		"ID": 324,
		"Name": "暗影：特级防御",
		"Description": "凝固神秘暗影的符文石，能提升弓兵/刺客/魔物的防御。",
		"Rank": 4,
		"IconLocation": "UI/Icon/Item_ABS/StoneA_Shadow4.png",
		"LimitArmyType": [
			6,
			9,
			11
		],
		"ConsumeGold": 50000,
		"RefineryTemplateIds": [
			9,
			10,
			11,
			12
		],
		"RefineryPropertyType": "PropertyModifyType_Hero1_DFAdd",
		"SlotIds": [
			0,
			1,
			2,
			3
		]
	},
	"325": {
		"ID": 325,
		"Name": "暗影：特级魔防",
		"Description": "凝固神秘暗影的符文石，能提升弓兵/刺客/魔物的魔防。",
		"Rank": 4,
		"IconLocation": "UI/Icon/Item_ABS/StoneA_Shadow5.png",
		"LimitArmyType": [
			6,
			9,
			11
		],
		"ConsumeGold": 50000,
		"RefineryTemplateIds": [
			9,
			10,
			11,
			12
		],
		"RefineryPropertyType": "PropertyModifyType_Hero1_MagicDFAdd",
		"SlotIds": [
			0,
			1,
			2,
			3
		]
	},
	"326": {
		"ID": 326,
		"Name": "暗影：特级技巧",
		"Description": "凝固神秘暗影的符文石，能提升弓兵/刺客/魔物的技巧。",
		"Rank": 4,
		"IconLocation": "UI/Icon/Item_ABS/StoneA_Shadow6.png",
		"LimitArmyType": [
			6,
			9,
			11
		],
		"ConsumeGold": 50000,
		"RefineryTemplateIds": [
			9,
			10,
			11,
			12
		],
		"RefineryPropertyType": "PropertyModifyType_Hero1_DEXAdd",
		"SlotIds": [
			0,
			1,
			2,
			3
		]
	},
	"331": {
		"ID": 331,
		"Name": "神圣：特级生命",
		"Description": "集结虔诚祈愿的符文石，能提升僧侣/龙的生命值。",
		"Rank": 4,
		"IconLocation": "UI/Icon/Item_ABS/StoneA_Holy1.png",
		"LimitArmyType": [
			8,
			27
		],
		"ConsumeGold": 50000,
		"RefineryTemplateIds": [
			9,
			10,
			11,
			12
		],
		"RefineryPropertyType": "PropertyModifyType_Hero1_HPAdd",
		"SlotIds": [
			0,
			1,
			2,
			3
		]
	},
	"332": {
		"ID": 332,
		"Name": "神圣：特级攻击",
		"Description": "集结虔诚祈愿的符文石，能提升僧侣/龙的攻击。",
		"Rank": 4,
		"IconLocation": "UI/Icon/Item_ABS/StoneA_Holy2.png",
		"LimitArmyType": [
			8,
			27
		],
		"ConsumeGold": 50000,
		"RefineryTemplateIds": [
			9,
			10,
			11,
			12
		],
		"RefineryPropertyType": "PropertyModifyType_Hero1_ATAdd",
		"SlotIds": [
			0,
			1,
			2,
			3
		]
	},
	"333": {
		"ID": 333,
		"Name": "神圣：特级智力",
		"Description": "集结虔诚祈愿的符文石，能提升僧侣/龙的智力。",
		"Rank": 4,
		"IconLocation": "UI/Icon/Item_ABS/StoneA_Holy3.png",
		"LimitArmyType": [
			8,
			27
		],
		"ConsumeGold": 50000,
		"RefineryTemplateIds": [
			9,
			10,
			11,
			12
		],
		"RefineryPropertyType": "PropertyModifyType_Hero1_MagicAdd",
		"SlotIds": [
			0,
			1,
			2,
			3
		]
	},
	"334": {
		"ID": 334,
		"Name": "神圣：特级防御",
		"Description": "集结虔诚祈愿的符文石，能提升僧侣/龙的防御。",
		"Rank": 4,
		"IconLocation": "UI/Icon/Item_ABS/StoneA_Holy4.png",
		"LimitArmyType": [
			8,
			27
		],
		"ConsumeGold": 50000,
		"RefineryTemplateIds": [
			9,
			10,
			11,
			12
		],
		"RefineryPropertyType": "PropertyModifyType_Hero1_DFAdd",
		"SlotIds": [
			0,
			1,
			2,
			3
		]
	},
	"335": {
		"ID": 335,
		"Name": "神圣：特级魔防",
		"Description": "集结虔诚祈愿的符文石，能提升僧侣/龙的魔防。",
		"Rank": 4,
		"IconLocation": "UI/Icon/Item_ABS/StoneA_Holy5.png",
		"LimitArmyType": [
			8,
			27
		],
		"ConsumeGold": 50000,
		"RefineryTemplateIds": [
			9,
			10,
			11,
			12
		],
		"RefineryPropertyType": "PropertyModifyType_Hero1_MagicDFAdd",
		"SlotIds": [
			0,
			1,
			2,
			3
		]
	},
	"336": {
		"ID": 336,
		"Name": "神圣：特级技巧",
		"Description": "集结虔诚祈愿的符文石，能提升僧侣/龙的技巧。",
		"Rank": 4,
		"IconLocation": "UI/Icon/Item_ABS/StoneA_Holy6.png",
		"LimitArmyType": [
			8,
			27
		],
		"ConsumeGold": 50000,
		"RefineryTemplateIds": [
			9,
			10,
			11,
			12
		],
		"RefineryPropertyType": "PropertyModifyType_Hero1_DEXAdd",
		"SlotIds": [
			0,
			1,
			2,
			3
		]
	},
	"341": {
		"ID": 341,
		"Name": "魔能：特级生命",
		"Description": "深藏无尽魔力的符文石，能提升法师的生命值。",
		"Rank": 4,
		"IconLocation": "UI/Icon/Item_ABS/StoneA_Magic1.png",
		"LimitArmyType": [
			7
		],
		"ConsumeGold": 50000,
		"RefineryTemplateIds": [
			9,
			10,
			11,
			12
		],
		"RefineryPropertyType": "PropertyModifyType_Hero1_HPAdd",
		"SlotIds": [
			0,
			1,
			2,
			3
		]
	},
	"342": {
		"ID": 342,
		"Name": "魔能：特级攻击",
		"Description": "深藏无尽魔力的符文石，能提升法师的攻击。",
		"Rank": 4,
		"IconLocation": "UI/Icon/Item_ABS/StoneA_Magic2.png",
		"LimitArmyType": [
			7
		],
		"ConsumeGold": 50000,
		"RefineryTemplateIds": [
			9,
			10,
			11,
			12
		],
		"RefineryPropertyType": "PropertyModifyType_Hero1_ATAdd",
		"SlotIds": [
			0,
			1,
			2,
			3
		]
	},
	"343": {
		"ID": 343,
		"Name": "魔能：特级智力",
		"Description": "深藏无尽魔力的符文石，能提升法师的智力。",
		"Rank": 4,
		"IconLocation": "UI/Icon/Item_ABS/StoneA_Magic3.png",
		"LimitArmyType": [
			7
		],
		"ConsumeGold": 50000,
		"RefineryTemplateIds": [
			9,
			10,
			11,
			12
		],
		"RefineryPropertyType": "PropertyModifyType_Hero1_MagicAdd",
		"SlotIds": [
			0,
			1,
			2,
			3
		]
	},
	"344": {
		"ID": 344,
		"Name": "魔能：特级防御",
		"Description": "深藏无尽魔力的符文石，能提升法师的防御。",
		"Rank": 4,
		"IconLocation": "UI/Icon/Item_ABS/StoneA_Magic4.png",
		"LimitArmyType": [
			7
		],
		"ConsumeGold": 50000,
		"RefineryTemplateIds": [
			9,
			10,
			11,
			12
		],
		"RefineryPropertyType": "PropertyModifyType_Hero1_DFAdd",
		"SlotIds": [
			0,
			1,
			2,
			3
		]
	},
	"345": {
		"ID": 345,
		"Name": "魔能：特级魔防",
		"Description": "深藏无尽魔力的符文石，能提升法师的魔防。",
		"Rank": 4,
		"IconLocation": "UI/Icon/Item_ABS/StoneA_Magic5.png",
		"LimitArmyType": [
			7
		],
		"ConsumeGold": 50000,
		"RefineryTemplateIds": [
			9,
			10,
			11,
			12
		],
		"RefineryPropertyType": "PropertyModifyType_Hero1_MagicDFAdd",
		"SlotIds": [
			0,
			1,
			2,
			3
		]
	},
	"346": {
		"ID": 346,
		"Name": "魔能：特级技巧",
		"Description": "深藏无尽魔力的符文石，能提升法师的技巧。",
		"Rank": 4,
		"IconLocation": "UI/Icon/Item_ABS/StoneA_Magic6.png",
		"LimitArmyType": [
			7
		],
		"ConsumeGold": 50000,
		"RefineryTemplateIds": [
			9,
			10,
			11,
			12
		],
		"RefineryPropertyType": "PropertyModifyType_Hero1_DEXAdd",
		"SlotIds": [
			0,
			1,
			2,
			3
		]
	},
	"501": {
		"ID": 501,
		"Name": "竞技：中级生命",
		"Description": "用于任何职业的竞技（PVP）精通，可提升【生命】",
		"Rank": 2,
		"IconLocation": "UI/Icon/Item_ABS/StoneC_PVP1.png",
		"LimitArmyType": [
			1,
			2,
			3,
			4,
			5,
			6,
			7,
			8,
			9,
			11,
			27
		],
		"ConsumeGold": 1000,
		"RefineryTemplateIds": [
			13
		],
		"SlotIds": [
			4
		]
	},
	"502": {
		"ID": 502,
		"Name": "竞技：中级攻击",
		"Description": "用于任何职业的竞技（PVP）精通，可提升【攻击】",
		"Rank": 2,
		"IconLocation": "UI/Icon/Item_ABS/StoneC_PVP2.png",
		"LimitArmyType": [
			1,
			2,
			3,
			4,
			5,
			6,
			7,
			8,
			9,
			11,
			27
		],
		"ConsumeGold": 1000,
		"RefineryTemplateIds": [
			13
		],
		"SlotIds": [
			4
		]
	},
	"503": {
		"ID": 503,
		"Name": "竞技：中级智力",
		"Description": "用于任何职业的竞技（PVP）精通，可提升【智力】",
		"Rank": 2,
		"IconLocation": "UI/Icon/Item_ABS/StoneC_PVP3.png",
		"LimitArmyType": [
			1,
			2,
			3,
			4,
			5,
			6,
			7,
			8,
			9,
			11,
			27
		],
		"ConsumeGold": 1000,
		"RefineryTemplateIds": [
			13
		],
		"SlotIds": [
			4
		]
	},
	"504": {
		"ID": 504,
		"Name": "竞技：中级防御",
		"Description": "用于任何职业的竞技（PVP）精通，可提升【防御】",
		"Rank": 2,
		"IconLocation": "UI/Icon/Item_ABS/StoneC_PVP4.png",
		"LimitArmyType": [
			1,
			2,
			3,
			4,
			5,
			6,
			7,
			8,
			9,
			11,
			27
		],
		"ConsumeGold": 1000,
		"RefineryTemplateIds": [
			13
		],
		"SlotIds": [
			4
		]
	},
	"505": {
		"ID": 505,
		"Name": "竞技：中级魔防",
		"Description": "用于任何职业的竞技（PVP）精通，可提升【魔防】",
		"Rank": 2,
		"IconLocation": "UI/Icon/Item_ABS/StoneC_PVP5.png",
		"LimitArmyType": [
			1,
			2,
			3,
			4,
			5,
			6,
			7,
			8,
			9,
			11,
			27
		],
		"ConsumeGold": 1000,
		"RefineryTemplateIds": [
			13
		],
		"SlotIds": [
			4
		]
	},
	"506": {
		"ID": 506,
		"Name": "竞技：中级技巧",
		"Description": "用于任何职业的竞技（PVP）精通，可提升【技巧】",
		"Rank": 2,
		"IconLocation": "UI/Icon/Item_ABS/StoneC_PVP6.png",
		"LimitArmyType": [
			1,
			2,
			3,
			4,
			5,
			6,
			7,
			8,
			9,
			11,
			27
		],
		"ConsumeGold": 1000,
		"RefineryTemplateIds": [
			13
		],
		"SlotIds": [
			4
		]
	},
	"507": {
		"ID": 507,
		"Name": "竞技：中级暴击",
		"Description": "用于任何职业的竞技（PVP）精通，可提升【暴击】",
		"Rank": 2,
		"IconLocation": "UI/Icon/Item_ABS/StoneC_PVP7.png",
		"LimitArmyType": [
			1,
			2,
			3,
			4,
			5,
			6,
			7,
			8,
			9,
			11,
			27
		],
		"ConsumeGold": 1000,
		"RefineryTemplateIds": [
			13
		],
		"SlotIds": [
			4
		]
	},
	"508": {
		"ID": 508,
		"Name": "竞技：中级暴伤",
		"Description": "用于任何职业的竞技（PVP）精通，可提升【暴伤】",
		"Rank": 2,
		"IconLocation": "UI/Icon/Item_ABS/StoneC_PVP8.png",
		"LimitArmyType": [
			1,
			2,
			3,
			4,
			5,
			6,
			7,
			8,
			9,
			11,
			27
		],
		"ConsumeGold": 1000,
		"RefineryTemplateIds": [
			13
		],
		"SlotIds": [
			4
		]
	},
	"509": {
		"ID": 509,
		"Name": "竞技：中级韧性",
		"Description": "用于任何职业的竞技（PVP）精通，可提升【遭受暴击】",
		"Rank": 2,
		"IconLocation": "UI/Icon/Item_ABS/StoneC_PVP9.png",
		"LimitArmyType": [
			1,
			2,
			3,
			4,
			5,
			6,
			7,
			8,
			9,
			11,
			27
		],
		"ConsumeGold": 1000,
		"RefineryTemplateIds": [
			13
		],
		"SlotIds": [
			4
		]
	},
	"510": {
		"ID": 510,
		"Name": "竞技：中级援护",
		"Description": "用于任何职业的竞技（PVP）精通，可提升【遭受暴伤】",
		"Rank": 2,
		"IconLocation": "UI/Icon/Item_ABS/StoneC_PVP10.png",
		"LimitArmyType": [
			1,
			2,
			3,
			4,
			5,
			6,
			7,
			8,
			9,
			11,
			27
		],
		"ConsumeGold": 1000,
		"RefineryTemplateIds": [
			13
		],
		"SlotIds": [
			4
		]
	},
	"511": {
		"ID": 511,
		"Name": "竞技：高级生命",
		"Description": "用于任何职业的竞技（PVP）精通，可提升【生命】",
		"Rank": 3,
		"IconLocation": "UI/Icon/Item_ABS/StoneB_PVP1.png",
		"LimitArmyType": [
			1,
			2,
			3,
			4,
			5,
			6,
			7,
			8,
			9,
			11,
			27
		],
		"ConsumeGold": 10000,
		"RefineryTemplateIds": [
			14
		],
		"SlotIds": [
			4
		]
	},
	"512": {
		"ID": 512,
		"Name": "竞技：高级攻击",
		"Description": "用于任何职业的竞技（PVP）精通，可提升【攻击】",
		"Rank": 3,
		"IconLocation": "UI/Icon/Item_ABS/StoneB_PVP2.png",
		"LimitArmyType": [
			1,
			2,
			3,
			4,
			5,
			6,
			7,
			8,
			9,
			11,
			27
		],
		"ConsumeGold": 10000,
		"RefineryTemplateIds": [
			14
		],
		"SlotIds": [
			4
		]
	},
	"513": {
		"ID": 513,
		"Name": "竞技：高级智力",
		"Description": "用于任何职业的竞技（PVP）精通，可提升【智力】",
		"Rank": 3,
		"IconLocation": "UI/Icon/Item_ABS/StoneB_PVP3.png",
		"LimitArmyType": [
			1,
			2,
			3,
			4,
			5,
			6,
			7,
			8,
			9,
			11,
			27
		],
		"ConsumeGold": 10000,
		"RefineryTemplateIds": [
			14
		],
		"SlotIds": [
			4
		]
	},
	"514": {
		"ID": 514,
		"Name": "竞技：高级防御",
		"Description": "用于任何职业的竞技（PVP）精通，可提升【防御】",
		"Rank": 3,
		"IconLocation": "UI/Icon/Item_ABS/StoneB_PVP4.png",
		"LimitArmyType": [
			1,
			2,
			3,
			4,
			5,
			6,
			7,
			8,
			9,
			11,
			27
		],
		"ConsumeGold": 10000,
		"RefineryTemplateIds": [
			14
		],
		"SlotIds": [
			4
		]
	},
	"515": {
		"ID": 515,
		"Name": "竞技：高级魔防",
		"Description": "用于任何职业的竞技（PVP）精通，可提升【魔防】",
		"Rank": 3,
		"IconLocation": "UI/Icon/Item_ABS/StoneB_PVP5.png",
		"LimitArmyType": [
			1,
			2,
			3,
			4,
			5,
			6,
			7,
			8,
			9,
			11,
			27
		],
		"ConsumeGold": 10000,
		"RefineryTemplateIds": [
			14
		],
		"SlotIds": [
			4
		]
	},
	"516": {
		"ID": 516,
		"Name": "竞技：高级技巧",
		"Description": "用于任何职业的竞技（PVP）精通，可提升【技巧】",
		"Rank": 3,
		"IconLocation": "UI/Icon/Item_ABS/StoneB_PVP6.png",
		"LimitArmyType": [
			1,
			2,
			3,
			4,
			5,
			6,
			7,
			8,
			9,
			11,
			27
		],
		"ConsumeGold": 10000,
		"RefineryTemplateIds": [
			14
		],
		"SlotIds": [
			4
		]
	},
	"517": {
		"ID": 517,
		"Name": "竞技：高级暴击",
		"Description": "用于任何职业的竞技（PVP）精通，可提升【暴击】",
		"Rank": 3,
		"IconLocation": "UI/Icon/Item_ABS/StoneB_PVP7.png",
		"LimitArmyType": [
			1,
			2,
			3,
			4,
			5,
			6,
			7,
			8,
			9,
			11,
			27
		],
		"ConsumeGold": 10000,
		"RefineryTemplateIds": [
			14
		],
		"SlotIds": [
			4
		]
	},
	"518": {
		"ID": 518,
		"Name": "竞技：高级暴伤",
		"Description": "用于任何职业的竞技（PVP）精通，可提升【暴伤】",
		"Rank": 3,
		"IconLocation": "UI/Icon/Item_ABS/StoneB_PVP8.png",
		"LimitArmyType": [
			1,
			2,
			3,
			4,
			5,
			6,
			7,
			8,
			9,
			11,
			27
		],
		"ConsumeGold": 10000,
		"RefineryTemplateIds": [
			14
		],
		"SlotIds": [
			4
		]
	},
	"519": {
		"ID": 519,
		"Name": "竞技：高级韧性",
		"Description": "用于任何职业的竞技（PVP）精通，可提升【遭受暴击】",
		"Rank": 3,
		"IconLocation": "UI/Icon/Item_ABS/StoneB_PVP9.png",
		"LimitArmyType": [
			1,
			2,
			3,
			4,
			5,
			6,
			7,
			8,
			9,
			11,
			27
		],
		"ConsumeGold": 10000,
		"RefineryTemplateIds": [
			14
		],
		"SlotIds": [
			4
		]
	},
	"520": {
		"ID": 520,
		"Name": "竞技：高级援护",
		"Description": "用于任何职业的竞技（PVP）精通，可提升【遭受暴伤】",
		"Rank": 3,
		"IconLocation": "UI/Icon/Item_ABS/StoneB_PVP10.png",
		"LimitArmyType": [
			1,
			2,
			3,
			4,
			5,
			6,
			7,
			8,
			9,
			11,
			27
		],
		"ConsumeGold": 10000,
		"RefineryTemplateIds": [
			14
		],
		"SlotIds": [
			4
		]
	},
	"521": {
		"ID": 521,
		"Name": "竞技：特级生命",
		"Description": "用于任何职业的竞技（PVP）精通，可提升【生命】",
		"Rank": 4,
		"IconLocation": "UI/Icon/Item_ABS/StoneA_PVP1.png",
		"LimitArmyType": [
			1,
			2,
			3,
			4,
			5,
			6,
			7,
			8,
			9,
			11,
			27
		],
		"ConsumeGold": 50000,
		"RefineryTemplateIds": [
			15
		],
		"SlotIds": [
			4
		]
	},
	"522": {
		"ID": 522,
		"Name": "竞技：特级攻击",
		"Description": "用于任何职业的竞技（PVP）精通，可提升【攻击】",
		"Rank": 4,
		"IconLocation": "UI/Icon/Item_ABS/StoneA_PVP2.png",
		"LimitArmyType": [
			1,
			2,
			3,
			4,
			5,
			6,
			7,
			8,
			9,
			11,
			27
		],
		"ConsumeGold": 50000,
		"RefineryTemplateIds": [
			15
		],
		"SlotIds": [
			4
		]
	},
	"523": {
		"ID": 523,
		"Name": "竞技：特级智力",
		"Description": "用于任何职业的竞技（PVP）精通，可提升【智力】",
		"Rank": 4,
		"IconLocation": "UI/Icon/Item_ABS/StoneA_PVP3.png",
		"LimitArmyType": [
			1,
			2,
			3,
			4,
			5,
			6,
			7,
			8,
			9,
			11,
			27
		],
		"ConsumeGold": 50000,
		"RefineryTemplateIds": [
			15
		],
		"SlotIds": [
			4
		]
	},
	"524": {
		"ID": 524,
		"Name": "竞技：特级防御",
		"Description": "用于任何职业的竞技（PVP）精通，可提升【防御】",
		"Rank": 4,
		"IconLocation": "UI/Icon/Item_ABS/StoneA_PVP4.png",
		"LimitArmyType": [
			1,
			2,
			3,
			4,
			5,
			6,
			7,
			8,
			9,
			11,
			27
		],
		"ConsumeGold": 50000,
		"RefineryTemplateIds": [
			15
		],
		"SlotIds": [
			4
		]
	},
	"525": {
		"ID": 525,
		"Name": "竞技：特级魔防",
		"Description": "用于任何职业的竞技（PVP）精通，可提升【魔防】",
		"Rank": 4,
		"IconLocation": "UI/Icon/Item_ABS/StoneA_PVP5.png",
		"LimitArmyType": [
			1,
			2,
			3,
			4,
			5,
			6,
			7,
			8,
			9,
			11,
			27
		],
		"ConsumeGold": 50000,
		"RefineryTemplateIds": [
			15
		],
		"SlotIds": [
			4
		]
	},
	"526": {
		"ID": 526,
		"Name": "竞技：特级技巧",
		"Description": "用于任何职业的竞技（PVP）精通，可提升【技巧】",
		"Rank": 4,
		"IconLocation": "UI/Icon/Item_ABS/StoneA_PVP6.png",
		"LimitArmyType": [
			1,
			2,
			3,
			4,
			5,
			6,
			7,
			8,
			9,
			11,
			27
		],
		"ConsumeGold": 50000,
		"RefineryTemplateIds": [
			15
		],
		"SlotIds": [
			4
		]
	},
	"527": {
		"ID": 527,
		"Name": "竞技：特级暴击",
		"Description": "用于任何职业的竞技（PVP）精通，可提升【暴击】",
		"Rank": 4,
		"IconLocation": "UI/Icon/Item_ABS/StoneA_PVP7.png",
		"LimitArmyType": [
			1,
			2,
			3,
			4,
			5,
			6,
			7,
			8,
			9,
			11,
			27
		],
		"ConsumeGold": 50000,
		"RefineryTemplateIds": [
			15
		],
		"SlotIds": [
			4
		]
	},
	"528": {
		"ID": 528,
		"Name": "竞技：特级暴伤",
		"Description": "用于任何职业的竞技（PVP）精通，可提升【暴伤】",
		"Rank": 4,
		"IconLocation": "UI/Icon/Item_ABS/StoneA_PVP8.png",
		"LimitArmyType": [
			1,
			2,
			3,
			4,
			5,
			6,
			7,
			8,
			9,
			11,
			27
		],
		"ConsumeGold": 50000,
		"RefineryTemplateIds": [
			15
		],
		"SlotIds": [
			4
		]
	},
	"529": {
		"ID": 529,
		"Name": "竞技：特级韧性",
		"Description": "用于任何职业的竞技（PVP）精通，可提升【遭受暴击】",
		"Rank": 4,
		"IconLocation": "UI/Icon/Item_ABS/StoneA_PVP9.png",
		"LimitArmyType": [
			1,
			2,
			3,
			4,
			5,
			6,
			7,
			8,
			9,
			11,
			27
		],
		"ConsumeGold": 50000,
		"RefineryTemplateIds": [
			15
		],
		"SlotIds": [
			4
		]
	},
	"530": {
		"ID": 530,
		"Name": "竞技：特级援护",
		"Description": "用于任何职业的竞技（PVP）精通，可提升【遭受暴伤】",
		"Rank": 4,
		"IconLocation": "UI/Icon/Item_ABS/StoneA_PVP10.png",
		"LimitArmyType": [
			1,
			2,
			3,
			4,
			5,
			6,
			7,
			8,
			9,
			11,
			27
		],
		"ConsumeGold": 50000,
		"RefineryTemplateIds": [
			15
		],
		"SlotIds": [
			4
		]
	}
}