{
	"1": {
		"ID": 1
	},
	"2": {
		"ID": 2
	},
	"3": {
		"ID": 3
	},
	"4": {
		"ID": 4
	},
	"5": {
		"ID": 5
	},
	"6": {
		"ID": 6
	},
	"7": {
		"ID": 7
	},
	"8": {
		"ID": 8
	},
	"9": {
		"ID": 9
	},
	"10": {
		"ID": 10
	},
	"11": {
		"ID": 11
	},
	"101": {
		"ID": 101
	},
	"102": {
		"ID": 102
	},
	"103": {
		"ID": 103
	},
	"104": {
		"ID": 104
	},
	"105": {
		"ID": 105
	},
	"106": {
		"ID": 106
	},
	"107": {
		"ID": 107
	},
	"108": {
		"ID": 108
	},
	"109": {
		"ID": 109
	},
	"110": {
		"ID": 110
	},
	"111": {
		"ID": 111
	},
	"112": {
		"ID": 112
	},
	"113": {
		"ID": 113
	},
	"114": {
		"ID": 114
	},
	"115": {
		"ID": 115
	},
	"116": {
		"ID": 116
	},
	"117": {
		"ID": 117
	},
	"118": {
		"ID": 118
	},
	"119": {
		"ID": 119
	},
	"120": {
		"ID": 120
	},
	"121": {
		"ID": 121
	},
	"122": {
		"ID": 122
	},
	"123": {
		"ID": 123
	},
	"124": {
		"ID": 124
	},
	"125": {
		"ID": 125
	},
	"126": {
		"ID": 126
	},
	"127": {
		"ID": 127
	},
	"128": {
		"ID": 128
	}
}